
[Client] packet : (0x0B) F_PING  Size = 32 
|------------------------------------------------|----------------|
|00 01 02 03 04 05 06 07 08 09 0A 0B 0C 0D 0E 0F |0123456789ABCDEF|
|------------------------------------------------|----------------|
|00 14 6E 3A 00 4A 00 00 00 0B 00 7E 15 6E EF EB |..n:.J.....~.n..|
|3D B3 99 9B E2 7A 00 00 00 00 00 00 00 00 3D 1A |=....z........=.|                                                
-------------------------------------------------------------------
[Server] packet : (0x81) S_PONG  Size = 23 
|------------------------------------------------|----------------|
|00 01 02 03 04 05 06 07 08 09 0A 0B 0C 0D 0E 0F |0123456789ABCDEF|
|------------------------------------------------|----------------|
|00 14 81 00 7E 15 6E 52 87 47 BE 00 00 00 00 00 |....~.nR.G......|
|00 6E 3B 00 00 00 00                            |.......         |
-------------------------------------------------------------------
[Client] packet : (0x5A) F_PING_DATAGRAM  Size = 13 
|------------------------------------------------|----------------|
|00 01 02 03 04 05 06 07 08 09 0A 0B 0C 0D 0E 0F |0123456789ABCDEF|
|------------------------------------------------|----------------|
|00 01 6E 3D 00 4A FF FF 00 5A 00 7D DF          |.............   |
-------------------------------------------------------------------
[Client] packet : (0x16) F_REQUEST_INIT_OBJECT  Size = 16 
|------------------------------------------------|----------------|
|00 01 02 03 04 05 06 07 08 09 0A 0B 0C 0D 0E 0F |0123456789ABCDEF|
|------------------------------------------------|----------------|
|00 04 6E 40 00 4A 00 00 00 16 0C 03 00 00 BA 00 |..n@.J..........|                                                
-------------------------------------------------------------------
[Server] packet : (0x72) F_CREATE_MONSTER  Size = 147 
|------------------------------------------------|----------------|
|00 01 02 03 04 05 06 07 08 09 0A 0B 0C 0D 0E 0F |0123456789ABCDEF|
|------------------------------------------------|----------------|
|00 90 72 0C 03 00 55 01 4F 13 07 00 0D 2F F8 00 |..r...U.O..../..|
|0D 98 EF 00 00 04 C2 32 07 41 00 00 00 00 00 00 |.......2.A......|
|00 00 00 03 E8 00 00 00 00 35 5D 00 03 00 00 01 |.........5].....|
|19 00 4D 69 6C 69 74 69 61 20 4C 69 65 75 74 65 |..Militia Lieute|
|6E 61 6E 74 5E 6D 00 01 0A 00 00 00 1A 2A 00 0C |nant^m.......*..|
|03 AF F8 18 EF 13 07 64 01 6A 00 00 00 00 00 55 |.......d.j.....U|
|00 00 B3 AF 6A 19 00 13 6A 0C 03 00 09 00 0A 07 |....j...j.......|
|45 00 14 0C 16 00 15 09 C9 00 16 09 C4 00 17 0C |E...............|
|19 00 18 09 D5 00 19 0C 1A 04 1B 07 A0 00 00 1C |................|
|09 C6 00                                        |...             |
-------------------------------------------------------------------
[Client] packet : (0xD2) F_INTERACT  Size = 24 
|------------------------------------------------|----------------|
|00 01 02 03 04 05 06 07 08 09 0A 0B 0C 0D 0E 0F |0123456789ABCDEF|
|------------------------------------------------|----------------|
|00 0C 6E 44 00 4A 00 00 00 D2 00 00 10 63 00 0B |..nD.J.......c..|
|00 02 00 00 00 01 00 00                         |........        |
-------------------------------------------------------------------
[Server] packet : (0xAA) F_GET_ITEM  Size = 220 
|------------------------------------------------|----------------|
|00 01 02 03 04 05 06 07 08 09 0A 0B 0C 0D 0E 0F |0123456789ABCDEF|
|------------------------------------------------|----------------|
|00 D9 AA 01 00 00 00 01 F4 00 00 03 2E 56 22 B9 |.............V".|
|00 00 00 00 00 00 00 00 00 24 00 00 00 00 00 01 |.........$......|
|00 00 00 00 00 00 00 00 00 00 00 00 00 00 09 C4 |................|
|00 0B 00 00 00 00 00 00 00 00 00 00 00 00 09 57 |...............W|
|61 72 20 43 72 65 73 74 00 00 00 00 00 00 71 50 |ar Crest......qP|
|72 6F 6F 66 20 6F 66 20 79 6F 75 72 20 76 61 6C |roof of your val|
|6F 72 20 6F 6E 20 74 68 65 20 66 69 65 6C 64 20 |or on the field |
|6F 66 20 62 61 74 74 6C 65 2E 20 54 68 65 73 65 |of battle. These|
|20 6D 61 79 20 62 65 20 75 73 65 64 20 74 6F 20 | may be used to |
|74 72 61 64 65 20 66 6F 72 20 65 71 75 69 70 6D |trade for equipm|
|65 6E 74 20 66 72 6F 6D 20 76 61 72 69 6F 75 73 |ent from various|
|20 51 75 61 72 74 65 72 6D 61 73 74 65 72 73 2E | Quartermasters.|
|01 00 00 00 03 06 00 08 01 00 00 00 00 00 00 00 |................|
|00 00 00 00 00 00 00 00 00 00 00 00             |............    |
-------------------------------------------------------------------
[Server] packet : (0xAA) F_GET_ITEM  Size = 215 
|------------------------------------------------|----------------|
|00 01 02 03 04 05 06 07 08 09 0A 0B 0C 0D 0E 0F |0123456789ABCDEF|
|------------------------------------------------|----------------|
|00 D4 AA 01 00 00 00 02 BD 00 00 03 1D 29 12 45 |.............).E|
|00 00 00 00 00 00 00 00 00 15 00 00 00 00 00 04 |................|
|00 00 00 00 00 00 00 00 00 00 00 00 00 00 00 01 |................|
|00 01 00 00 00 00 00 00 00 00 00 00 00 00 19 4D |...............M|
|69 6E 6F 72 20 46 6C 61 73 68 20 6F 66 20 42 72 |inor Flash of Br|
|69 6C 6C 69 61 6E 63 65 00 00 00 00 00 00 5C 52 |illiance......\R|
|61 77 20 6D 61 67 69 63 61 6C 20 65 6E 65 72 67 |aw magical energ|
|69 65 73 20 64 65 6C 69 76 65 72 20 64 69 73 74 |ies deliver dist|
|69 6C 6C 65 64 20 6B 6E 6F 77 6C 65 64 67 65 20 |illed knowledge |
|69 6E 74 6F 20 79 6F 75 72 20 63 6F 6E 73 63 69 |into your consci|
|6F 75 73 6E 65 73 73 2E 0A 0A 28 4C 61 72 67 65 |ousness...(Large|
|20 58 50 20 52 65 77 61 72 64 29 01 01 00 00 03 | XP Reward).....|
|06 00 00 01 00 00 00 00 00 00 00 00 00 00 00 00 |................|
|00 00 00 00 00 00 00                            |.......         |
-------------------------------------------------------------------
[Server] packet : (0x51) F_ANIMATION  Size = 9 
|------------------------------------------------|----------------|
|00 01 02 03 04 05 06 07 08 09 0A 0B 0C 0D 0E 0F |0123456789ABCDEF|
|------------------------------------------------|----------------|
|00 06 51 33 84 00 7D 00 00                      |.........       |
-------------------------------------------------------------------
[Server] packet : (0x6F) F_LOCALIZED_STRING  Size = 88 
|------------------------------------------------|----------------|
|00 01 02 03 04 05 06 07 08 09 0A 0B 0C 0D 0E 0F |0123456789ABCDEF|
|------------------------------------------------|----------------|
|00 55 6F 02 20 00 00 05 48 00 00 00 04 01 00 1A |.Uo. ...H.......|
|4D 69 6E 6F 72 20 46 6C 61 73 68 20 6F 66 20 42 |Minor Flash of B|
|72 69 6C 6C 69 61 6E 63 65 00 01 00 17 51 75 6F |rilliance....Quo|
|6E 61 20 74 68 65 20 51 75 65 73 74 69 6F 6E 61 |na the Questiona|
|62 6C 65 00 01 00 02 31 00 01 00 0C 31 20 57 61 |ble....1....1 Wa|
|72 20 43 72 65 73 74 00                         |........        |
-------------------------------------------------------------------
[Server] packet : (0xAA) F_GET_ITEM  Size = 15 
|------------------------------------------------|----------------|
|00 01 02 03 04 05 06 07 08 09 0A 0B 0C 0D 0E 0F |0123456789ABCDEF|
|------------------------------------------------|----------------|
|00 0C AA 01 00 00 00 02 BD 00 00 00 00 00 00    |............... |
-------------------------------------------------------------------
[Client] packet : (0x0B) F_PING  Size = 32 
|------------------------------------------------|----------------|
|00 01 02 03 04 05 06 07 08 09 0A 0B 0C 0D 0E 0F |0123456789ABCDEF|
|------------------------------------------------|----------------|
|00 14 6E 46 00 4A 00 00 00 0B 00 7E 28 85 13 60 |..nF.J.....~(..`|
|C0 87 09 47 3E EA 00 00 00 00 00 00 00 00 3D 1A |...G>.........=.|                                                
-------------------------------------------------------------------
[Server] packet : (0x81) S_PONG  Size = 23 
|------------------------------------------------|----------------|
|00 01 02 03 04 05 06 07 08 09 0A 0B 0C 0D 0E 0F |0123456789ABCDEF|
|------------------------------------------------|----------------|
|00 14 81 00 7E 28 85 52 87 47 C3 00 00 00 00 00 |....~(.R.G......|
|00 6E 47 00 00 00 00                            |.......         |
-------------------------------------------------------------------
[Client] packet : (0x01) UNKNOWN  Size = 32 
|------------------------------------------------|----------------|
|00 01 02 03 04 05 06 07 08 09 0A 0B 0C 0D 0E 0F |0123456789ABCDEF|
|------------------------------------------------|----------------|
|00 14 6E 4B 00 4A 00 00 00 01 00 7E 2A 94 00 00 |..nK.J.....~*...|
|00 00 00 00 00 00 00 00 06 0F 00 00 13 A0 00 00 |................|                                                
-------------------------------------------------------------------
[Server] packet : (0x00) UNKNOWN  Size = 23 
|------------------------------------------------|----------------|
|00 01 02 03 04 05 06 07 08 09 0A 0B 0C 0D 0E 0F |0123456789ABCDEF|
|------------------------------------------------|----------------|
|00 14 00 00 7E 2A 94 C1 EF D0 19 00 00 00 00 00 |....~*..........|
|00 06 0F 00 00 13 00                            |.......         |
-------------------------------------------------------------------