
[Server] packet : (0x6F) F_LOCALIZED_STRING  Size = 13 
|------------------------------------------------|----------------|
|00 01 02 03 04 05 06 07 08 09 0A 0B 0C 0D 0E 0F |0123456789ABCDEF|
|------------------------------------------------|----------------|
|00 0A 6F 00 00 00 00 04 56 00 00 00 00          |.............   |
-------------------------------------------------------------------
[Server] packet : (0x6F) F_LOCALIZED_STRING  Size = 26 
|------------------------------------------------|----------------|
|00 01 02 03 04 05 06 07 08 09 0A 0B 0C 0D 0E 0F |0123456789ABCDEF|
|------------------------------------------------|----------------|
|00 17 6F 00 00 00 00 04 57 00 00 00 01 01 00 0A |..o.....W.......|
|57 61 72 65 6D 68 75 5E 46 00                   |..........      |
-------------------------------------------------------------------
[Server] packet : (0xBE) F_CHARACTER_INFO  Size = 30 
|------------------------------------------------|----------------|
|00 01 02 03 04 05 06 07 08 09 0A 0B 0C 0D 0E 0F |0123456789ABCDEF|
|------------------------------------------------|----------------|
|00 1B BE 06 04 C4 7D CC DF 96 01 F5 17 00 EA A1 |......}.........|
|86 01 BD 72 00 9C E4 6C 94 4F 00 00 00 00       |..............  |
-------------------------------------------------------------------
[Server] packet : (0xD8) F_GROUP_STATUS  Size = 23 
|------------------------------------------------|----------------|
|00 01 02 03 04 05 06 07 08 09 0A 0B 0C 0D 0E 0F |0123456789ABCDEF|
|------------------------------------------------|----------------|
|00 14 D8 3E C4 01 FF 00 02 00 00 00 00 00 01 00 |...>............|
|25 AF CC 00 25 AF 00                            |.......         |
-------------------------------------------------------------------
[Server] packet : (0xD8) F_GROUP_STATUS  Size = 11 
|------------------------------------------------|----------------|
|00 01 02 03 04 05 06 07 08 09 0A 0B 0C 0D 0E 0F |0123456789ABCDEF|
|------------------------------------------------|----------------|
|00 08 D8 3E C4 02 FF 01 00 00 00                |...........     |
-------------------------------------------------------------------
[Server] packet : (0xD8) F_GROUP_STATUS  Size = 11 
|------------------------------------------------|----------------|
|00 01 02 03 04 05 06 07 08 09 0A 0B 0C 0D 0E 0F |0123456789ABCDEF|
|------------------------------------------------|----------------|
|00 08 D8 3E C4 02 FF 01 00 00 00                |...........     |
-------------------------------------------------------------------
[Server] packet : (0x5E) F_SET_TARGET  Size = 9 
|------------------------------------------------|----------------|
|00 01 02 03 04 05 06 07 08 09 0A 0B 0C 0D 0E 0F |0123456789ABCDEF|
|------------------------------------------------|----------------|
|00 06 5E 00 00 27 94 06 00                      |.........       |
-------------------------------------------------------------------
[Server] packet : (0x51) F_ANIMATION  Size = 9 
|------------------------------------------------|----------------|
|00 01 02 03 04 05 06 07 08 09 0A 0B 0C 0D 0E 0F |0123456789ABCDEF|
|------------------------------------------------|----------------|
|00 06 51 0F E7 00 AC 00 00                      |.........       |
-------------------------------------------------------------------
[Client] packet : (0x0B) F_PING  Size = 32 
|------------------------------------------------|----------------|
|00 01 02 03 04 05 06 07 08 09 0A 0B 0C 0D 0E 0F |0123456789ABCDEF|
|------------------------------------------------|----------------|
|00 14 13 E3 00 05 00 00 00 0B 00 14 53 C4 8E 0C |............S...|
|C0 06 55 23 0D 31 00 00 00 00 00 00 00 00 F0 ED |..U#.1..........|                                                
-------------------------------------------------------------------
[Server] packet : (0x51) F_ANIMATION  Size = 9 
|------------------------------------------------|----------------|
|00 01 02 03 04 05 06 07 08 09 0A 0B 0C 0D 0E 0F |0123456789ABCDEF|
|------------------------------------------------|----------------|
|00 06 51 0D 2B 00 6C 00 00                      |.........       |
-------------------------------------------------------------------
[Server] packet : (0x81) S_PONG  Size = 23 
|------------------------------------------------|----------------|
|00 01 02 03 04 05 06 07 08 09 0A 0B 0C 0D 0E 0F |0123456789ABCDEF|
|------------------------------------------------|----------------|
|00 14 81 00 14 53 C4 52 81 5F A8 00 00 00 00 00 |.....S.R._......|
|00 13 E4 00 00 00 00                            |.......         |
-------------------------------------------------------------------
[Server] packet : (0x51) F_ANIMATION  Size = 9 
|------------------------------------------------|----------------|
|00 01 02 03 04 05 06 07 08 09 0A 0B 0C 0D 0E 0F |0123456789ABCDEF|
|------------------------------------------------|----------------|
|00 06 51 01 3C 00 E5 00 00                      |.........       |
-------------------------------------------------------------------
[Client] packet : (0x16) F_REQUEST_INIT_OBJECT  Size = 16 
|------------------------------------------------|----------------|
|00 01 02 03 04 05 06 07 08 09 0A 0B 0C 0D 0E 0F |0123456789ABCDEF|
|------------------------------------------------|----------------|
|00 04 13 E6 00 05 00 00 00 16 31 83 00 00 BA 00 |..........1.....|                                                
-------------------------------------------------------------------
[Server] packet : (0x72) F_CREATE_MONSTER  Size = 108 
|------------------------------------------------|----------------|
|00 01 02 03 04 05 06 07 08 09 0A 0B 0C 0D 0E 0F |0123456789ABCDEF|
|------------------------------------------------|----------------|
|00 69 72 31 83 00 EB 01 C5 26 F2 00 0F D4 BA 00 |.ir1.....&......|
|10 40 36 FF D6 04 3C 32 07 61 00 00 00 00 00 00 |.@6...<2.a......|
|00 00 00 03 E8 00 00 00 00 89 74 00 00 00 00 01 |..........t.....|
|19 00 47 6F 6C 64 65 6E 77 69 6E 67 20 45 61 67 |..Goldenwing Eag|
|6C 65 5E 6D 00 01 0A 00 00 00 1A 05 00 31 83 54 |le^m.........1.T|
|BA C0 36 26 F2 64 21 C8 00 00 00 00 00 EB 00 8A |..6&.d!.........|
|50 52 1B C3 40 26 C8 31 83 00 00 00             |............    |
-------------------------------------------------------------------
[Client] packet : (0x01) UNKNOWN  Size = 32 
|------------------------------------------------|----------------|
|00 01 02 03 04 05 06 07 08 09 0A 0B 0C 0D 0E 0F |0123456789ABCDEF|
|------------------------------------------------|----------------|
|00 14 13 EA 00 05 00 00 00 01 00 14 56 AB 00 23 |............V..#|
|39 B0 08 18 C0 4A 20 07 7A 7C 90 38 54 E7 79 1E |9....J .z|.8T.y.|                                                
-------------------------------------------------------------------
[Server] packet : (0x00) UNKNOWN  Size = 23 
|------------------------------------------------|----------------|
|00 01 02 03 04 05 06 07 08 09 0A 0B 0C 0D 0E 0F |0123456789ABCDEF|
|------------------------------------------------|----------------|
|00 14 00 00 14 56 AB AA DD 83 4F 00 00 00 00 20 |.....V....O.... |
|07 7A 7C 90 38 54 00                            |.......         |
-------------------------------------------------------------------
[Server] packet : (0xD7) F_INIT_EFFECTS  Size = 258 
|------------------------------------------------|----------------|
|00 01 02 03 04 05 06 07 08 09 0A 0B 0C 0D 0E 0F |0123456789ABCDEF|
|------------------------------------------------|----------------|
|00 FF D7 0C 00 00 00 39 3D 10 00 37 25 C6 AD AE |.......9=..7%...|
|01 3D 39 01 00 02 0E 00 33 02 C6 AD AE 01 3D 39 |.=9.....3.....=9|
|01 00 C0 02 0F 00 38 02 C6 AD AE 01 3D 39 01 00 |......8.....=9..|
|02 07 00 EC 01 C6 AD AE 01 3D 39 04 00 90 03 01 |.........=9.....|
|90 03 02 90 03 03 90 03 01 00 4C 61 C6 AD AE 01 |..........La....|
|3D 39 03 00 C7 01 01 C7 01 02 C7 01 09 00 ED 01 |=9..............|
|C6 AD AE 01 3D 39 0A 00 40 01 52 02 74 03 B0 01 |....=9..@.R.t...|
|04 84 02 05 EE 02 06 F4 01 07 86 01 08 10 09 32 |...............2|
|05 00 1F 01 C6 AD AE 01 3D 39 0A 00 08 01 10 02 |........=9......|
|1E 03 32 04 46 05 28 06 50 07 A0 01 08 C0 02 09 |..2.F.(.P.......|
|90 03 08 00 51 0C C6 AD AE 01 3D 39 06 00 C7 01 |....Q.....=9....|
|01 C7 01 02 C7 01 03 C7 01 04 02 05 02 11 00 33 |...............3|
|25 C6 AD AE 01 3D 39 01 00 02 06 00 EA 01 C6 AD |%....=9.........|
|AE 01 3D 39 05 00 02 01 5B 02 02 05 02 09 8F CB |..=9....[.......|
|01 04 00 2A 5C 9C BC 15 3D 39 04 00 13 01 14 02 |...*\...=9......|
|14 03 14 03 00 BF 33 C6 AD AE 01 3D 39 01 00 C8 |......3....=9...|
|01 00                                           |..              |
-------------------------------------------------------------------
[Client] packet : (0x0B) F_PING  Size = 32 
|------------------------------------------------|----------------|
|00 01 02 03 04 05 06 07 08 09 0A 0B 0C 0D 0E 0F |0123456789ABCDEF|
|------------------------------------------------|----------------|
|00 14 13 F1 00 05 00 00 00 0B 00 14 66 D1 8C A0 |............f...|
|10 03 65 83 2D 51 00 00 00 00 00 00 00 00 F0 ED |..e.-Q..........|                                                
-------------------------------------------------------------------
[Server] packet : (0x81) S_PONG  Size = 23 
|------------------------------------------------|----------------|
|00 01 02 03 04 05 06 07 08 09 0A 0B 0C 0D 0E 0F |0123456789ABCDEF|
|------------------------------------------------|----------------|
|00 14 81 00 14 66 D1 52 81 5F AD 00 00 00 00 00 |.....f.R._......|
|00 13 F2 00 00 00 00                            |.......         |
-------------------------------------------------------------------
[Client] packet : (0x5A) F_PING_DATAGRAM  Size = 13 
|------------------------------------------------|----------------|
|00 01 02 03 04 05 06 07 08 09 0A 0B 0C 0D 0E 0F |0123456789ABCDEF|
|------------------------------------------------|----------------|
|00 01 13 F3 00 05 FF FF 00 5A 00 52 EE          |.............   |
-------------------------------------------------------------------
[Client] packet : (0x37) F_GROUP_COMMAND  Size = 20 
|------------------------------------------------|----------------|
|00 01 02 03 04 05 06 07 08 09 0A 0B 0C 0D 0E 0F |0123456789ABCDEF|
|------------------------------------------------|----------------|
|00 08 13 F4 00 05 FF FF 00 37 00 21 90 EA 11 00 |.........7.!....|
|00 00 18 00                                     |....            |
-------------------------------------------------------------------
[Server] packet : (0x6F) F_LOCALIZED_STRING  Size = 31 
|------------------------------------------------|----------------|
|00 01 02 03 04 05 06 07 08 09 0A 0B 0C 0D 0E 0F |0123456789ABCDEF|
|------------------------------------------------|----------------|
|00 1C 6F 00 00 00 00 05 50 00 00 00 01 01 00 0F |..o.....P.......|
|44 72 6F 6C 65 64 65 66 65 6D 6D 65 5E 46 00    |............... |
-------------------------------------------------------------------
[Server] packet : (0xD8) F_GROUP_STATUS  Size = 23 
|------------------------------------------------|----------------|
|00 01 02 03 04 05 06 07 08 09 0A 0B 0C 0D 0E 0F |0123456789ABCDEF|
|------------------------------------------------|----------------|
|00 14 D8 3E C4 01 FF 00 02 00 00 00 00 00 01 00 |...>............|
|21 90 EA 00 25 AF 00                            |.......         |
-------------------------------------------------------------------
[Client] packet : (0xFE) F_PLAY_VOICE_OVER  Size = 16 
|------------------------------------------------|----------------|
|00 01 02 03 04 05 06 07 08 09 0A 0B 0C 0D 0E 0F |0123456789ABCDEF|
|------------------------------------------------|----------------|
|00 04 13 F6 00 05 FF FF 00 FE 02 00 00 00 00 00 |................|                                                
-------------------------------------------------------------------
[Server] packet : (0x74) UNKNOWN  Size = 44 
|------------------------------------------------|----------------|
|00 01 02 03 04 05 06 07 08 09 0A 0B 0C 0D 0E 0F |0123456789ABCDEF|
|------------------------------------------------|----------------|
|00 29 74 01 01 00 00 00 04 02 00 00 01 00 03 00 |.)t.............|
|00 00 00 00 00 00 01 00 01 00 00 01 F4 00 00 01 |................|
|37 02 00 01 00 00 01 F4 00 00 01 00             |............    |
-------------------------------------------------------------------