
[Client] packet : (0x01) UNKNOWN  Size = 32 
|------------------------------------------------|----------------|
|00 01 02 03 04 05 06 07 08 09 0A 0B 0C 0D 0E 0F |0123456789ABCDEF|
|------------------------------------------------|----------------|
|00 14 03 02 00 2B 00 00 00 01 00 02 43 D8 00 00 |.....+......C...|
|00 00 00 00 00 00 00 00 42 48 00 00 31 25 F0 08 |........BH..1%..|                                                
-------------------------------------------------------------------
[Server] packet : (0x00) UNKNOWN  Size = 23 
|------------------------------------------------|----------------|
|00 01 02 03 04 05 06 07 08 09 0A 0B 0C 0D 0E 0F |0123456789ABCDEF|
|------------------------------------------------|----------------|
|00 14 00 00 02 43 D8 7C A3 15 84 00 00 00 00 00 |.....C.|........|
|00 42 48 00 00 31 00                            |.......         |
-------------------------------------------------------------------
[Client] packet : (0x0B) F_PING  Size = 32 
|------------------------------------------------|----------------|
|00 01 02 03 04 05 06 07 08 09 0A 0B 0C 0D 0E 0F |0123456789ABCDEF|
|------------------------------------------------|----------------|
|00 14 03 04 00 2B 00 00 00 0B 00 02 4A 14 16 4C |.....+......J..L|
|04 4E 06 81 3B 30 00 00 00 00 00 00 00 00 20 83 |.N..;0........ .|                                                
-------------------------------------------------------------------
[Server] packet : (0x81) S_PONG  Size = 23 
|------------------------------------------------|----------------|
|00 01 02 03 04 05 06 07 08 09 0A 0B 0C 0D 0E 0F |0123456789ABCDEF|
|------------------------------------------------|----------------|
|00 14 81 00 02 4A 14 52 75 89 FE 00 00 00 00 00 |.....J.Ru.......|
|00 03 05 00 00 00 00                            |.......         |
-------------------------------------------------------------------
[Client] packet : (0xD2) F_INTERACT  Size = 24 
|------------------------------------------------|----------------|
|00 01 02 03 04 05 06 07 08 09 0A 0B 0C 0D 0E 0F |0123456789ABCDEF|
|------------------------------------------------|----------------|
|00 0C 03 0A 00 2B 00 00 00 D2 00 00 00 1A 00 00 |.....+..........|
|00 00 00 00 00 00 00 00                         |........        |
-------------------------------------------------------------------
[Client] packet : (0xE8) F_CLIENT_DATA  Size = 20 
|------------------------------------------------|----------------|
|00 01 02 03 04 05 06 07 08 09 0A 0B 0C 0D 0E 0F |0123456789ABCDEF|
|------------------------------------------------|----------------|
|00 08 03 0C 00 2B 00 00 00 E8 00 34 00 04 6B 21 |.....+.....4..k!|
|01 00 00 00                                     |....            |
-------------------------------------------------------------------
[Server] packet : (0x7E) F_SET_ABILITY_TIMER  Size = 15 
|------------------------------------------------|----------------|
|00 01 02 03 04 05 06 07 08 09 0A 0B 0C 0D 0E 0F |0123456789ABCDEF|
|------------------------------------------------|----------------|
|00 0C 7E 00 01 01 00 00 00 00 00 00 00 00 00    |............... |
-------------------------------------------------------------------
[Server] packet : (0xE9) F_INTERACT_RESPONSE  Size = 132 
|------------------------------------------------|----------------|
|00 01 02 03 04 05 06 07 08 09 0A 0B 0C 0D 0E 0F |0123456789ABCDEF|
|------------------------------------------------|----------------|
|00 81 E9 00 00 1A 00 00 00 22 00 77 47 6F 6C 64 |.........".wGold|
|65 6E 20 57 72 69 74 73 20 67 72 61 6E 74 20 79 |en Writs grant y|
|6F 75 20 61 63 63 65 73 73 20 74 6F 20 73 6F 6D |ou access to som|
|65 20 6F 66 20 74 68 65 20 66 69 6E 65 73 74 20 |e of the finest |
|77 61 72 65 73 20 69 6E 20 74 68 65 20 6C 61 6E |wares in the lan|
|64 2C 20 62 75 74 20 63 68 6F 6F 73 65 20 63 61 |d, but choose ca|
|72 65 66 75 6C 6C 79 20 61 73 20 77 65 20 64 6F |refully as we do|
|20 6E 6F 74 20 6F 66 66 65 72 20 72 65 66 75 6E | not offer refun|
|64 73 2E 00                                     |....            |
-------------------------------------------------------------------
[Client] packet : (0xD2) F_INTERACT  Size = 24 
|------------------------------------------------|----------------|
|00 01 02 03 04 05 06 07 08 09 0A 0B 0C 0D 0E 0F |0123456789ABCDEF|
|------------------------------------------------|----------------|
|00 0C 03 0F 00 2B 00 00 00 D2 00 00 00 1A 00 09 |.....+..........|
|00 00 00 00 00 00 00 00                         |........        |
-------------------------------------------------------------------
[Server] packet : (0xC0) F_STORE_BUY_BACK  Size = 5 
|------------------------------------------------|----------------|
|00 01 02 03 04 05 06 07 08 09 0A 0B 0C 0D 0E 0F |0123456789ABCDEF|
|------------------------------------------------|----------------|
|00 02 C0 00 00                                  |.....           |
-------------------------------------------------------------------
[Client] packet : (0x0B) F_PING  Size = 32 
|------------------------------------------------|----------------|
|00 01 02 03 04 05 06 07 08 09 0A 0B 0C 0D 0E 0F |0123456789ABCDEF|
|------------------------------------------------|----------------|
|00 14 03 12 00 2B 00 00 00 0B 00 02 5D 2A 07 B3 |.....+......]*..|
|3D B1 1E 1B CC 7E 00 00 00 00 00 00 00 00 20 83 |=....~........ .|                                                
-------------------------------------------------------------------
[Server] packet : (0x81) S_PONG  Size = 23 
|------------------------------------------------|----------------|
|00 01 02 03 04 05 06 07 08 09 0A 0B 0C 0D 0E 0F |0123456789ABCDEF|
|------------------------------------------------|----------------|
|00 14 81 00 02 5D 2A 52 75 8A 03 00 00 00 00 00 |.....]*Ru.......|
|00 03 13 00 00 00 00                            |.......         |
-------------------------------------------------------------------
[Client] packet : (0x86) F_MAIL  Size = 16 
|------------------------------------------------|----------------|
|00 01 02 03 04 05 06 07 08 09 0A 0B 0C 0D 0E 0F |0123456789ABCDEF|
|------------------------------------------------|----------------|
|00 04 03 16 00 2B FF FF 00 86 00 00 00 00 00 00 |.....+..........|                                                
-------------------------------------------------------------------