
[Server] packet : (0x51) F_ANIMATION  Size = 9 
|------------------------------------------------|----------------|
|00 01 02 03 04 05 06 07 08 09 0A 0B 0C 0D 0E 0F |0123456789ABCDEF|
|------------------------------------------------|----------------|
|00 06 51 0D 2B 00 6C 00 00                      |.........       |
-------------------------------------------------------------------
[Client] packet : (0x0B) F_PING  Size = 32 
|------------------------------------------------|----------------|
|00 01 02 03 04 05 06 07 08 09 0A 0B 0C 0D 0E 0F |0123456789ABCDEF|
|------------------------------------------------|----------------|
|00 14 24 98 00 05 00 00 00 0B 00 30 11 32 8F BF |..$........0.2..|
|3B B6 0C D8 DD CB 00 00 00 00 00 00 00 00 F0 ED |;...............|                                                
-------------------------------------------------------------------
[Server] packet : (0x81) S_PONG  Size = 23 
|------------------------------------------------|----------------|
|00 01 02 03 04 05 06 07 08 09 0A 0B 0C 0D 0E 0F |0123456789ABCDEF|
|------------------------------------------------|----------------|
|00 14 81 00 30 11 32 52 81 66 C2 00 00 00 00 00 |....0.2R.f......|
|00 24 99 00 00 00 00                            |.......         |
-------------------------------------------------------------------
[Client] packet : (0xB6) F_SOCIAL_NETWORK  Size = 17 
|------------------------------------------------|----------------|
|00 01 02 03 04 05 06 07 08 09 0A 0B 0C 0D 0E 0F |0123456789ABCDEF|
|------------------------------------------------|----------------|
|00 05 24 9A 00 05 FF FF 00 B6 0D 00 00 00 00 00 |..$.............|
|00                                              |.               |
-------------------------------------------------------------------
[Server] packet : (0xB6) F_SOCIAL_NETWORK  Size = 8 
|------------------------------------------------|----------------|
|00 01 02 03 04 05 06 07 08 09 0A 0B 0C 0D 0E 0F |0123456789ABCDEF|
|------------------------------------------------|----------------|
|00 05 B6 00 00 0A 00 00                         |........        |
-------------------------------------------------------------------
[Client] packet : (0x01) UNKNOWN  Size = 32 
|------------------------------------------------|----------------|
|00 01 02 03 04 05 06 07 08 09 0A 0B 0C 0D 0E 0F |0123456789ABCDEF|
|------------------------------------------------|----------------|
|00 14 24 9F 00 05 00 00 00 01 00 30 17 9A 20 07 |..$........0.. .|
|2A 68 90 38 40 04 00 23 3D BF 08 18 EC EF 4C D6 |*h.8@..#=.....L.|                                                
-------------------------------------------------------------------
[Server] packet : (0x00) UNKNOWN  Size = 23 
|------------------------------------------------|----------------|
|00 01 02 03 04 05 06 07 08 09 0A 0B 0C 0D 0E 0F |0123456789ABCDEF|
|------------------------------------------------|----------------|
|00 14 00 00 30 17 9A AA F9 44 CA 00 00 00 00 00 |....0....D......|
|23 3D BF 08 18 EC 00                            |.......         |
-------------------------------------------------------------------
[Server] packet : (0x51) F_ANIMATION  Size = 9 
|------------------------------------------------|----------------|
|00 01 02 03 04 05 06 07 08 09 0A 0B 0C 0D 0E 0F |0123456789ABCDEF|
|------------------------------------------------|----------------|
|00 06 51 01 3C 00 E5 00 00                      |.........       |
-------------------------------------------------------------------
[Client] packet : (0x0B) F_PING  Size = 32 
|------------------------------------------------|----------------|
|00 01 02 03 04 05 06 07 08 09 0A 0B 0C 0D 0E 0F |0123456789ABCDEF|
|------------------------------------------------|----------------|
|00 14 24 A4 00 05 00 00 00 0B 00 30 24 4A 3B 2B |..$........0$J;+|
|FD FC FC 5D F5 6F 00 00 00 00 00 00 00 00 F0 ED |...].o..........|                                                
-------------------------------------------------------------------
[Server] packet : (0x81) S_PONG  Size = 23 
|------------------------------------------------|----------------|
|00 01 02 03 04 05 06 07 08 09 0A 0B 0C 0D 0E 0F |0123456789ABCDEF|
|------------------------------------------------|----------------|
|00 14 81 00 30 24 4A 52 81 66 C7 00 00 00 00 00 |....0$JR.f......|
|00 24 A5 00 00 00 00                            |.......         |
-------------------------------------------------------------------
[Client] packet : (0xB6) F_SOCIAL_NETWORK  Size = 17 
|------------------------------------------------|----------------|
|00 01 02 03 04 05 06 07 08 09 0A 0B 0C 0D 0E 0F |0123456789ABCDEF|
|------------------------------------------------|----------------|
|00 05 24 A9 00 05 FF FF 00 B6 0D 00 00 00 00 00 |..$.............|
|00                                              |.               |
-------------------------------------------------------------------
[Client] packet : (0xFE) F_PLAY_VOICE_OVER  Size = 16 
|------------------------------------------------|----------------|
|00 01 02 03 04 05 06 07 08 09 0A 0B 0C 0D 0E 0F |0123456789ABCDEF|
|------------------------------------------------|----------------|
|00 04 24 AB 00 05 FF FF 00 FE 02 00 00 00 D1 1B |..$.............|                                                
-------------------------------------------------------------------
[Server] packet : (0xB6) F_SOCIAL_NETWORK  Size = 8 
|------------------------------------------------|----------------|
|00 01 02 03 04 05 06 07 08 09 0A 0B 0C 0D 0E 0F |0123456789ABCDEF|
|------------------------------------------------|----------------|
|00 05 B6 00 00 0A 00 00                         |........        |
-------------------------------------------------------------------
[Server] packet : (0x74) UNKNOWN  Size = 44 
|------------------------------------------------|----------------|
|00 01 02 03 04 05 06 07 08 09 0A 0B 0C 0D 0E 0F |0123456789ABCDEF|
|------------------------------------------------|----------------|
|00 29 74 01 01 00 00 00 04 02 00 00 01 00 03 00 |.)t.............|
|00 00 00 00 00 00 01 00 01 00 00 01 F4 00 00 01 |................|
|56 02 00 01 00 00 01 F4 00 00 01 00             |............    |
-------------------------------------------------------------------
[Client] packet : (0x5A) F_PING_DATAGRAM  Size = 13 
|------------------------------------------------|----------------|
|00 01 02 03 04 05 06 07 08 09 0A 0B 0C 0D 0E 0F |0123456789ABCDEF|
|------------------------------------------------|----------------|
|00 01 24 AC 00 05 FF FF 00 5A 00 39 3F          |.............   |
-------------------------------------------------------------------
[Client] packet : (0x0B) F_PING  Size = 32 
|------------------------------------------------|----------------|
|00 01 02 03 04 05 06 07 08 09 0A 0B 0C 0D 0E 0F |0123456789ABCDEF|
|------------------------------------------------|----------------|
|00 14 24 B1 00 05 00 00 00 0B 00 30 37 DC 16 88 |..$........07...|
|80 4B C2 40 3D 30 00 00 00 00 00 00 00 00 F0 ED |.K.@=0..........|                                                
-------------------------------------------------------------------
[Server] packet : (0x81) S_PONG  Size = 23 
|------------------------------------------------|----------------|
|00 01 02 03 04 05 06 07 08 09 0A 0B 0C 0D 0E 0F |0123456789ABCDEF|
|------------------------------------------------|----------------|
|00 14 81 00 30 37 DC 52 81 66 CC 00 00 00 00 00 |....07.R.f......|
|00 24 B2 00 00 00 00                            |.......         |
-------------------------------------------------------------------
[Client] packet : (0xB6) F_SOCIAL_NETWORK  Size = 17 
|------------------------------------------------|----------------|
|00 01 02 03 04 05 06 07 08 09 0A 0B 0C 0D 0E 0F |0123456789ABCDEF|
|------------------------------------------------|----------------|
|00 05 24 B6 00 05 FF FF 00 B6 0D 00 00 00 00 00 |..$.............|
|00                                              |.               |
-------------------------------------------------------------------
[Server] packet : (0xB6) F_SOCIAL_NETWORK  Size = 8 
|------------------------------------------------|----------------|
|00 01 02 03 04 05 06 07 08 09 0A 0B 0C 0D 0E 0F |0123456789ABCDEF|
|------------------------------------------------|----------------|
|00 05 B6 00 00 0A 00 00                         |........        |
-------------------------------------------------------------------
[Client] packet : (0x01) UNKNOWN  Size = 32 
|------------------------------------------------|----------------|
|00 01 02 03 04 05 06 07 08 09 0A 0B 0C 0D 0E 0F |0123456789ABCDEF|
|------------------------------------------------|----------------|
|00 14 24 B9 00 05 00 00 00 01 00 30 40 04 00 00 |..$........0@...|
|00 00 00 00 00 00 00 00 40 0D 00 00 2C 35 00 00 |........@...,5..|                                                
-------------------------------------------------------------------
[Server] packet : (0x00) UNKNOWN  Size = 23 
|------------------------------------------------|----------------|
|00 01 02 03 04 05 06 07 08 09 0A 0B 0C 0D 0E 0F |0123456789ABCDEF|
|------------------------------------------------|----------------|
|00 14 00 00 30 40 04 AA F9 6D 14 00 00 00 00 00 |....0@...m......|
|00 40 0D 00 00 2C 00                            |.......         |
-------------------------------------------------------------------
[Server] packet : (0x51) F_ANIMATION  Size = 9 
|------------------------------------------------|----------------|
|00 01 02 03 04 05 06 07 08 09 0A 0B 0C 0D 0E 0F |0123456789ABCDEF|
|------------------------------------------------|----------------|
|00 06 51 0D 2B 00 6C 00 00                      |.........       |
-------------------------------------------------------------------
[Client] packet : (0xB6) F_SOCIAL_NETWORK  Size = 17 
|------------------------------------------------|----------------|
|00 01 02 03 04 05 06 07 08 09 0A 0B 0C 0D 0E 0F |0123456789ABCDEF|
|------------------------------------------------|----------------|
|00 05 24 BC 00 05 FF FF 00 B6 0D 00 00 00 00 00 |..$.............|
|00                                              |.               |
-------------------------------------------------------------------
[Server] packet : (0xB6) F_SOCIAL_NETWORK  Size = 76 
|------------------------------------------------|----------------|
|00 01 02 03 04 05 06 07 08 09 0A 0B 0C 0D 0E 0F |0123456789ABCDEF|
|------------------------------------------------|----------------|
|00 49 B6 00 00 0A 01 00 00 00 07 44 61 73 63 6F |.I.........Dasco|
|75 62 00 01 00 00 01 28 00 0E 00 C8 00 00 00 02 |ub.....(........|
|08 08 00 00 00 3D 52 00 00 02 02 00 07 44 61 73 |.....=R......Das|
|63 6F 75 62 28 00 00 0E 01 00 0C 44 72 6F 6C 65 |coub(......Drole|
|64 65 66 65 6D 6D 65 28 01 00 18 00             |............    |
-------------------------------------------------------------------
[Client] packet : (0x0B) F_PING  Size = 32 
|------------------------------------------------|----------------|
|00 01 02 03 04 05 06 07 08 09 0A 0B 0C 0D 0E 0F |0123456789ABCDEF|
|------------------------------------------------|----------------|
|00 14 24 BE 00 05 00 00 00 0B 00 30 4B 71 94 08 |..$........0Kq..|
|95 12 40 07 A0 29 00 00 00 00 00 00 00 00 F0 ED |..@..)..........|                                                
-------------------------------------------------------------------
[Server] packet : (0x81) S_PONG  Size = 23 
|------------------------------------------------|----------------|
|00 01 02 03 04 05 06 07 08 09 0A 0B 0C 0D 0E 0F |0123456789ABCDEF|
|------------------------------------------------|----------------|
|00 14 81 00 30 4B 71 52 81 66 D1 00 00 00 00 00 |....0KqR.f......|
|00 24 BF 00 00 00 00                            |.......         |
-------------------------------------------------------------------
[Server] packet : (0x51) F_ANIMATION  Size = 9 
|------------------------------------------------|----------------|
|00 01 02 03 04 05 06 07 08 09 0A 0B 0C 0D 0E 0F |0123456789ABCDEF|
|------------------------------------------------|----------------|
|00 06 51 01 3C 00 B0 00 00                      |.........       |
-------------------------------------------------------------------
[Client] packet : (0x07) F_TEXT  Size = 28 
|------------------------------------------------|----------------|
|00 01 02 03 04 05 06 07 08 09 0A 0B 0C 0D 0E 0F |0123456789ABCDEF|
|------------------------------------------------|----------------|
|00 10 24 C8 00 05 FF FF 00 07 00 26 6A 6F 69 6E |..$........&join|
|20 44 61 73 63 6F 75 62 00 00 00 00             |............    |
-------------------------------------------------------------------
[Server] packet : (0x1D) F_GUILD_DATA  Size = 62 
|------------------------------------------------|----------------|
|00 01 02 03 04 05 06 07 08 09 0A 0B 0C 0D 0E 0F |0123456789ABCDEF|
|------------------------------------------------|----------------|
|00 3B 1D 02 01 00 25 AF CC 00 C8 00 00 09 00 0F |.;....%.........|
|43 68 65 66 20 64 65 20 67 75 69 6C 64 65 00 00 |Chef de guilde..|
|00 0A 57 61 72 65 6D 68 75 5E 46 00 0F 01 6B 01 |..Waremhu^F...k.|
|52 81 64 AD 00 01 02 01 00 01 00 00 01 00       |..............  |
-------------------------------------------------------------------
[Server] packet : (0xBE) F_CHARACTER_INFO  Size = 182 
|------------------------------------------------|----------------|
|00 01 02 03 04 05 06 07 08 09 0A 0B 0C 0D 0E 0F |0123456789ABCDEF|
|------------------------------------------------|----------------|
|00 B3 BE 06 02 D5 7D 03 9C E4 6C 0F 19 03 28 00 |......}...l...(.|
|0E 02 00 00 01 07 00 00 00 44 61 73 63 6F 75 62 |.........Dascoub|
|08 00 00 00 56 6F 78 20 49 72 61 65 AC D1 01 FF |....Vox Irae....|
|BB 03 DC 24 7F D3 9E 40 01 02 90 03 01 64 64 00 |...$...@.....dd.|
|EA A1 86 01 0F 2A 03 28 00 18 02 01 00 01 0C 00 |.....*.(........|
|00 00 44 72 6F 6C 65 64 65 66 65 6D 6D 65 08 00 |..Droledefemme..|
|00 00 56 6F 78 20 49 72 61 65 F7 D2 01 86 BC 03 |..Vox Irae......|
|EA 24 2F 08 24 40 01 02 90 03 01 64 64 00 CC DF |.$/.$@.....dd...|
|96 01 0F 2A 03 0F 00 18 02 01 00 01 07 00 00 00 |...*............|
|57 61 72 65 6D 68 75 07 00 00 00 57 61 72 20 45 |Waremhu....War E|
|6D 75 97 D2 01 A3 BD 03 DE 24 F3 51 40 40 01 02 |mu.......$.Q@@..|
|90 03 01 64 64 00                               |......          |
-------------------------------------------------------------------
[Server] packet : (0x33) UNKNOWN  Size = 32 
|------------------------------------------------|----------------|
|00 01 02 03 04 05 06 07 08 09 0A 0B 0C 0D 0E 0F |0123456789ABCDEF|
|------------------------------------------------|----------------|
|00 1D 33 07 1C 32 1B AC 68 FF DD 5C 12 36 CA 01 |..3..2..h..\.6..|
|00 00 00 01 00 00 00 C8 00 00 00 01 64 64 00 00 |............dd..|                                                
-------------------------------------------------------------------
[Server] packet : (0x33) UNKNOWN  Size = 32 
|------------------------------------------------|----------------|
|00 01 02 03 04 05 06 07 08 09 0A 0B 0C 0D 0E 0F |0123456789ABCDEF|
|------------------------------------------------|----------------|
|00 1D 33 07 EA 90 21 77 69 06 DE 6A 12 6C 68 01 |..3...!wi..j.lh.|
|00 00 00 01 00 00 00 C8 00 00 00 01 64 64 00 00 |............dd..|                                                
-------------------------------------------------------------------
[Server] packet : (0x33) UNKNOWN  Size = 32 
|------------------------------------------------|----------------|
|00 01 02 03 04 05 06 07 08 09 0A 0B 0C 0D 0E 0F |0123456789ABCDEF|
|------------------------------------------------|----------------|
|00 1D 33 07 CC AF 25 17 69 A3 DE 5E 12 6E 7A 01 |..3...%.i..^.nz.|
|00 00 00 01 00 00 00 C8 00 00 00 01 64 64 00 00 |............dd..|                                                
-------------------------------------------------------------------
[Server] packet : (0x33) UNKNOWN  Size = 44 
|------------------------------------------------|----------------|
|00 01 02 03 04 05 06 07 08 09 0A 0B 0C 0D 0E 0F |0123456789ABCDEF|
|------------------------------------------------|----------------|
|00 29 33 18 1C 32 1B 0F 00 19 00 03 00 28 00 0E |.)3..2.......(..|
|02 00 00 01 07 00 08 08 00 09 44 61 73 63 6F 75 |..........Dascou|
|62 00 56 6F 78 20 49 72 61 65 00 00             |............    |
-------------------------------------------------------------------
[Server] packet : (0x33) UNKNOWN  Size = 49 
|------------------------------------------------|----------------|
|00 01 02 03 04 05 06 07 08 09 0A 0B 0C 0D 0E 0F |0123456789ABCDEF|
|------------------------------------------------|----------------|
|00 2E 33 18 EA 90 21 0F 00 2A 00 03 00 28 00 18 |..3...!..*...(..|
|02 01 00 01 0C 00 0D 08 00 09 44 72 6F 6C 65 64 |..........Droled|
|65 66 65 6D 6D 65 00 56 6F 78 20 49 72 61 65 00 |efemme.Vox Irae.|
|00                                              |.               |
-------------------------------------------------------------------
[Server] packet : (0x33) UNKNOWN  Size = 43 
|------------------------------------------------|----------------|
|00 01 02 03 04 05 06 07 08 09 0A 0B 0C 0D 0E 0F |0123456789ABCDEF|
|------------------------------------------------|----------------|
|00 28 33 18 CC AF 25 0F 00 2A 00 03 00 0F 00 18 |.(3...%..*......|
|02 01 00 01 07 00 08 07 00 08 57 61 72 65 6D 68 |..........Waremh|
|75 00 57 61 72 20 45 6D 75 00 00                |...........     |
-------------------------------------------------------------------
[Server] packet : (0xBE) F_CHARACTER_INFO  Size = 30 
|------------------------------------------------|----------------|
|00 01 02 03 04 05 06 07 08 09 0A 0B 0C 0D 0E 0F |0123456789ABCDEF|
|------------------------------------------------|----------------|
|00 1B BE 06 04 D5 7D 9C E4 6C 94 4F 00 EA A1 86 |......}..l.O....|
|01 BD 72 00 CC DF 96 01 D3 07 00 00 00 00       |..............  |
-------------------------------------------------------------------
[Server] packet : (0xD8) F_GROUP_STATUS  Size = 23 
|------------------------------------------------|----------------|
|00 01 02 03 04 05 06 07 08 09 0A 0B 0C 0D 0E 0F |0123456789ABCDEF|
|------------------------------------------------|----------------|
|00 14 D8 3E D5 01 FF 00 02 00 00 00 00 00 01 00 |...>............|
|1B 32 1C 00 1B 32 00                            |.......         |
-------------------------------------------------------------------
[Server] packet : (0xD8) F_GROUP_STATUS  Size = 11 
|------------------------------------------------|----------------|
|00 01 02 03 04 05 06 07 08 09 0A 0B 0C 0D 0E 0F |0123456789ABCDEF|
|------------------------------------------------|----------------|
|00 08 D8 3E D5 02 FF 00 00 00 00                |...........     |
-------------------------------------------------------------------
[Server] packet : (0xD8) F_GROUP_STATUS  Size = 11 
|------------------------------------------------|----------------|
|00 01 02 03 04 05 06 07 08 09 0A 0B 0C 0D 0E 0F |0123456789ABCDEF|
|------------------------------------------------|----------------|
|00 08 D8 3E D5 02 FF 01 00 00 00                |...........     |
-------------------------------------------------------------------
[Server] packet : (0x6F) F_LOCALIZED_STRING  Size = 13 
|------------------------------------------------|----------------|
|00 01 02 03 04 05 06 07 08 09 0A 0B 0C 0D 0E 0F |0123456789ABCDEF|
|------------------------------------------------|----------------|
|00 0A 6F 00 00 00 00 00 F1 00 00 00 00          |.............   |
-------------------------------------------------------------------
[Server] packet : (0x6F) F_LOCALIZED_STRING  Size = 13 
|------------------------------------------------|----------------|
|00 01 02 03 04 05 06 07 08 09 0A 0B 0C 0D 0E 0F |0123456789ABCDEF|
|------------------------------------------------|----------------|
|00 0A 6F 00 00 00 00 03 B9 00 00 00 00          |.............   |
-------------------------------------------------------------------
[Client] packet : (0x0B) F_PING  Size = 32 
|------------------------------------------------|----------------|
|00 01 02 03 04 05 06 07 08 09 0A 0B 0C 0D 0E 0F |0123456789ABCDEF|
|------------------------------------------------|----------------|
|00 14 24 CA 00 05 00 00 00 0B 00 30 5F 15 1B 70 |..$........0_..p|
|15 86 43 85 08 12 00 00 00 00 00 00 00 00 F0 ED |..C.............|                                                
-------------------------------------------------------------------
[Server] packet : (0x81) S_PONG  Size = 23 
|------------------------------------------------|----------------|
|00 01 02 03 04 05 06 07 08 09 0A 0B 0C 0D 0E 0F |0123456789ABCDEF|
|------------------------------------------------|----------------|
|00 14 81 00 30 5F 15 52 81 66 D6 00 00 00 00 00 |....0_.R.f......|
|00 24 CB 00 00 00 00                            |.......         |
-------------------------------------------------------------------