
[Client] packet : (0x0B) F_PING  Size = 32 
|------------------------------------------------|----------------|
|00 01 02 03 04 05 06 07 08 09 0A 0B 0C 0D 0E 0F |0123456789ABCDEF|
|------------------------------------------------|----------------|
|00 14 06 D3 00 2F 00 00 00 0B 00 05 EC 11 8A B0 |...../..........|
|90 15 60 85 9C DB 00 00 00 00 00 00 00 00 6F 58 |..`...........oX|                                                
-------------------------------------------------------------------
[Server] packet : (0x81) S_PONG  Size = 23 
|------------------------------------------------|----------------|
|00 01 02 03 04 05 06 07 08 09 0A 0B 0C 0D 0E 0F |0123456789ABCDEF|
|------------------------------------------------|----------------|
|00 14 81 00 05 EC 11 52 77 48 A8 00 00 00 00 00 |.......RwH......|
|00 06 D4 00 00 00 00                            |.......         |
-------------------------------------------------------------------
[Client] packet : (0xD2) F_INTERACT  Size = 24 
|------------------------------------------------|----------------|
|00 01 02 03 04 05 06 07 08 09 0A 0B 0C 0D 0E 0F |0123456789ABCDEF|
|------------------------------------------------|----------------|
|00 0C 06 D6 00 2F 00 00 00 D2 00 00 00 16 00 00 |...../..........|
|00 00 00 00 00 00 00 00                         |........        |
-------------------------------------------------------------------
[Client] packet : (0xE8) F_CLIENT_DATA  Size = 20 
|------------------------------------------------|----------------|
|00 01 02 03 04 05 06 07 08 09 0A 0B 0C 0D 0E 0F |0123456789ABCDEF|
|------------------------------------------------|----------------|
|00 08 06 D8 00 2F 00 00 00 E8 00 34 00 04 6B 21 |...../.....4..k!|
|01 00 00 00                                     |....            |
-------------------------------------------------------------------
[Server] packet : (0x7E) F_SET_ABILITY_TIMER  Size = 15 
|------------------------------------------------|----------------|
|00 01 02 03 04 05 06 07 08 09 0A 0B 0C 0D 0E 0F |0123456789ABCDEF|
|------------------------------------------------|----------------|
|00 0C 7E 00 01 01 00 00 00 00 00 00 00 00 00    |............... |
-------------------------------------------------------------------
[Server] packet : (0xE9) F_INTERACT_RESPONSE  Size = 94 
|------------------------------------------------|----------------|
|00 01 02 03 04 05 06 07 08 09 0A 0B 0C 0D 0E 0F |0123456789ABCDEF|
|------------------------------------------------|----------------|
|00 5B E9 00 00 16 00 00 00 22 00 51 59 6F 75 20 |.[.......".QYou |
|6D 69 67 68 74 20 66 69 6E 64 20 74 68 65 20 63 |might find the c|
|6F 73 74 20 6F 66 20 74 68 65 73 65 20 67 6F 6F |ost of these goo|
|64 73 20 74 6F 20 62 65 20 67 72 65 61 74 65 72 |ds to be greater|
|20 74 68 61 6E 20 6D 65 72 65 20 63 6F 69 6E 20 | than mere coin |
|61 6E 64 20 62 61 75 62 6C 65 2E 2E 2E 00       |..............  |
-------------------------------------------------------------------
[Client] packet : (0x16) F_REQUEST_INIT_OBJECT  Size = 16 
|------------------------------------------------|----------------|
|00 01 02 03 04 05 06 07 08 09 0A 0B 0C 0D 0E 0F |0123456789ABCDEF|
|------------------------------------------------|----------------|
|00 04 06 D9 00 2F 00 00 00 16 03 83 00 00 CD 24 |...../.........$|                                                
-------------------------------------------------------------------
[Client] packet : (0x16) F_REQUEST_INIT_OBJECT  Size = 16 
|------------------------------------------------|----------------|
|00 01 02 03 04 05 06 07 08 09 0A 0B 0C 0D 0E 0F |0123456789ABCDEF|
|------------------------------------------------|----------------|
|00 04 06 DA 00 2F 00 00 00 16 03 84 00 00 01 6F |...../.........o|                                                
-------------------------------------------------------------------
[Server] packet : (0x72) F_CREATE_MONSTER  Size = 133 
|------------------------------------------------|----------------|
|00 01 02 03 04 05 06 07 08 09 0A 0B 0C 0D 0E 0F |0123456789ABCDEF|
|------------------------------------------------|----------------|
|00 82 72 03 83 00 EB 05 BC 3F CE 00 06 CD 7E 00 |..r......?....~.|
|02 57 4A 00 00 04 C1 32 01 80 00 00 00 00 00 00 |.WJ....2........|
|00 01 00 03 E8 00 00 00 00 BC 62 00 02 00 00 01 |..........b.....|
|19 00 42 6C 6F 6F 64 79 20 53 75 6E 20 53 69 65 |..Bloody Sun Sie|
|67 65 20 43 72 65 77 5E 6D 00 00 00 00 0F 01 0A |ge Crew^m.......|
|00 00 00 1A 15 00 03 83 8D 7E D7 4A 3F CE 64 01 |.........~.J?.d.|
|A1 00 00 00 00 0F EB 00 00 B5 8C A7 D6 CE 3F A1 |..............?.|
|03 83 02 04 00 0B 04 07 00 14 0B CC 00 16 09 04 |................|
|00 18 0B E3 00                                  |.....           |
-------------------------------------------------------------------
[Server] packet : (0x72) F_CREATE_MONSTER  Size = 133 
|------------------------------------------------|----------------|
|00 01 02 03 04 05 06 07 08 09 0A 0B 0C 0D 0E 0F |0123456789ABCDEF|
|------------------------------------------------|----------------|
|00 82 72 03 84 00 EB 05 BC 3F CE 00 06 CD 7E 00 |..r......?....~.|
|02 57 4A 00 00 04 C1 32 01 80 00 00 00 00 00 00 |.WJ....2........|
|00 01 00 03 E8 00 00 00 00 BC 62 00 03 00 00 01 |..........b.....|
|19 00 42 6C 6F 6F 64 79 20 53 75 6E 20 53 69 65 |..Bloody Sun Sie|
|67 65 20 43 72 65 77 5E 6D 00 00 00 00 0F 01 0A |ge Crew^m.......|
|00 00 00 1A 15 00 03 84 8D 7E D7 4A 3F CE 64 01 |.........~.J?.d.|
|A1 00 00 00 00 0F EB 00 00 B5 8C A7 D6 CE 3F A1 |..............?.|
|03 84 02 04 00 0B 04 07 00 14 0B CC 00 16 09 04 |................|
|00 18 0B E3 00                                  |.....           |
-------------------------------------------------------------------
[Client] packet : (0x16) F_REQUEST_INIT_OBJECT  Size = 16 
|------------------------------------------------|----------------|
|00 01 02 03 04 05 06 07 08 09 0A 0B 0C 0D 0E 0F |0123456789ABCDEF|
|------------------------------------------------|----------------|
|00 04 06 DD 00 2F 00 00 00 16 26 3B 00 00 6D 0E |...../....&;..m.|                                                
-------------------------------------------------------------------
[Client] packet : (0x16) F_REQUEST_INIT_OBJECT  Size = 16 
|------------------------------------------------|----------------|
|00 01 02 03 04 05 06 07 08 09 0A 0B 0C 0D 0E 0F |0123456789ABCDEF|
|------------------------------------------------|----------------|
|00 04 06 DE 00 2F 00 00 00 16 36 46 00 00 29 C3 |...../....6F..).|                                                
-------------------------------------------------------------------
[Client] packet : (0x16) F_REQUEST_INIT_OBJECT  Size = 16 
|------------------------------------------------|----------------|
|00 01 02 03 04 05 06 07 08 09 0A 0B 0C 0D 0E 0F |0123456789ABCDEF|
|------------------------------------------------|----------------|
|00 04 06 DF 00 2F 00 00 00 16 01 D9 00 00 83 71 |...../.........q|                                                
-------------------------------------------------------------------
[Client] packet : (0x16) F_REQUEST_INIT_OBJECT  Size = 16 
|------------------------------------------------|----------------|
|00 01 02 03 04 05 06 07 08 09 0A 0B 0C 0D 0E 0F |0123456789ABCDEF|
|------------------------------------------------|----------------|
|00 04 06 E0 00 2F 00 00 00 16 01 DA 00 00 EC 5A |...../.........Z|                                                
-------------------------------------------------------------------
[Client] packet : (0x16) F_REQUEST_INIT_OBJECT  Size = 16 
|------------------------------------------------|----------------|
|00 01 02 03 04 05 06 07 08 09 0A 0B 0C 0D 0E 0F |0123456789ABCDEF|
|------------------------------------------------|----------------|
|00 04 06 E1 00 2F 00 00 00 16 01 DB 00 00 B5 73 |...../.........s|                                                
-------------------------------------------------------------------
[Client] packet : (0x16) F_REQUEST_INIT_OBJECT  Size = 16 
|------------------------------------------------|----------------|
|00 01 02 03 04 05 06 07 08 09 0A 0B 0C 0D 0E 0F |0123456789ABCDEF|
|------------------------------------------------|----------------|
|00 04 06 E2 00 2F 00 00 00 16 01 DC 00 00 36 9C |...../........6.|                                                
-------------------------------------------------------------------
[Client] packet : (0x16) F_REQUEST_INIT_OBJECT  Size = 16 
|------------------------------------------------|----------------|
|00 01 02 03 04 05 06 07 08 09 0A 0B 0C 0D 0E 0F |0123456789ABCDEF|
|------------------------------------------------|----------------|
|00 04 06 E3 00 2F 00 00 00 16 01 DD 00 00 B8 ED |...../..........|                                                
-------------------------------------------------------------------
[Client] packet : (0x16) F_REQUEST_INIT_OBJECT  Size = 16 
|------------------------------------------------|----------------|
|00 01 02 03 04 05 06 07 08 09 0A 0B 0C 0D 0E 0F |0123456789ABCDEF|
|------------------------------------------------|----------------|
|00 04 06 E4 00 2F 00 00 00 16 01 DE 00 00 00 A2 |...../..........|                                                
-------------------------------------------------------------------
[Client] packet : (0x16) F_REQUEST_INIT_OBJECT  Size = 16 
|------------------------------------------------|----------------|
|00 01 02 03 04 05 06 07 08 09 0A 0B 0C 0D 0E 0F |0123456789ABCDEF|
|------------------------------------------------|----------------|
|00 04 06 E5 00 2F 00 00 00 16 01 DF 00 00 0F 0D |...../..........|                                                
-------------------------------------------------------------------
[Client] packet : (0x16) F_REQUEST_INIT_OBJECT  Size = 16 
|------------------------------------------------|----------------|
|00 01 02 03 04 05 06 07 08 09 0A 0B 0C 0D 0E 0F |0123456789ABCDEF|
|------------------------------------------------|----------------|
|00 04 06 E6 00 2F 00 00 00 16 01 E1 00 00 D2 21 |...../.........!|                                                
-------------------------------------------------------------------
[Client] packet : (0x16) F_REQUEST_INIT_OBJECT  Size = 16 
|------------------------------------------------|----------------|
|00 01 02 03 04 05 06 07 08 09 0A 0B 0C 0D 0E 0F |0123456789ABCDEF|
|------------------------------------------------|----------------|
|00 04 06 E7 00 2F 00 00 00 16 01 E2 00 00 77 F1 |...../........w.|                                                
-------------------------------------------------------------------
[Client] packet : (0xD2) F_INTERACT  Size = 24 
|------------------------------------------------|----------------|
|00 01 02 03 04 05 06 07 08 09 0A 0B 0C 0D 0E 0F |0123456789ABCDEF|
|------------------------------------------------|----------------|
|00 0C 06 E8 00 2F 00 00 00 D2 00 00 00 16 00 09 |...../..........|
|00 00 00 00 00 00 00 00                         |........        |
-------------------------------------------------------------------
[Server] packet : (0x72) F_CREATE_MONSTER  Size = 150 
|------------------------------------------------|----------------|
|00 01 02 03 04 05 06 07 08 09 0A 0B 0C 0D 0E 0F |0123456789ABCDEF|
|------------------------------------------------|----------------|
|00 93 72 26 3B 00 00 0C 00 44 60 00 06 B9 4C 00 |..r&;....D`...L.|
|02 62 35 00 00 04 C6 32 28 81 00 00 00 00 00 00 |.b5....2(.......|
|00 01 00 03 E8 00 00 00 00 BA 04 00 00 00 00 01 |................|
|19 00 43 68 6F 73 65 6E 20 6F 66 20 53 6C 61 61 |..Chosen of Slaa|
|6E 65 73 68 5E 6D 00 00 00 00 08 01 0A 00 00 00 |nesh^m..........|
|12 31 00 26 3B 79 4C E2 35 44 60 64 00 A1 00 00 |.1.&;yL.5D`d....|
|00 00 08 00 0C 26 3B 00 08 00 0A 07 15 00 0B 07 |.....&;.........|
|77 01 14 0A D8 85 85 01 15 0A E0 85 85 01 16 0A |w...............|
|DF 85 85 01 17 16 E2 85 85 01 18 16 E0 85 85 01 |................|
|1C 0A DD 85 85 00                               |......          |
-------------------------------------------------------------------
[Server] packet : (0x72) F_CREATE_MONSTER  Size = 150 
|------------------------------------------------|----------------|
|00 01 02 03 04 05 06 07 08 09 0A 0B 0C 0D 0E 0F |0123456789ABCDEF|
|------------------------------------------------|----------------|
|00 93 72 36 46 00 00 04 0B 44 60 00 06 BA 84 00 |..r6F....D`.....|
|02 62 44 00 00 04 C6 32 28 81 00 00 00 00 00 00 |.bD....2(.......|
|00 01 00 03 E8 00 00 00 00 BA 03 00 00 00 00 01 |................|
|19 00 43 68 6F 73 65 6E 20 6F 66 20 4B 68 6F 72 |..Chosen of Khor|
|6E 65 5E 6D 00 00 00 00 08 01 0A 00 00 00 12 33 |ne^m...........3|
|00 36 46 7A 84 E2 44 44 60 64 00 A1 00 00 00 00 |.6Fz..DD`d......|
|08 0B 04 36 46 00 08 00 0A 07 82 01 14 0C 88 7C |...6F..........||
|7C 01 15 0C 8A 7C 7C 01 16 0C 89 7C 7C 01 17 0C ||....||....||...|
|8D 7C 7C 01 18 0C 8C 7C 7C 01 19 0C 8B 7C 7C 01 |.||....||....||.|
|1C 0C 87 7C 7C 00                               |......          |
-------------------------------------------------------------------
[Server] packet : (0x72) F_CREATE_MONSTER  Size = 110 
|------------------------------------------------|----------------|
|00 01 02 03 04 05 06 07 08 09 0A 0B 0C 0D 0E 0F |0123456789ABCDEF|
|------------------------------------------------|----------------|
|00 6B 72 01 D9 00 00 0B E9 44 60 00 06 B8 D3 00 |.kr......D`.....|
|02 61 D1 00 00 06 57 32 28 81 00 00 00 00 00 00 |.a....W2(.......|
|00 01 00 03 E8 00 00 00 00 BA 04 00 01 00 00 01 |................|
|19 00 53 6C 61 61 6E 65 73 68 20 43 75 6C 74 69 |..Slaanesh Culti|
|73 74 5E 66 00 00 00 00 08 01 0A 00 00 00 18 05 |st^f............|
|00 01 D9 78 D3 E1 D1 44 60 64 00 A1 20 00 00 00 |...x...D`d.. ...|
|08 3B 26 64 00 87 FF 00 00 01 D9 00 00 00       |..............  |
-------------------------------------------------------------------
[Server] packet : (0x72) F_CREATE_MONSTER  Size = 110 
|------------------------------------------------|----------------|
|00 01 02 03 04 05 06 07 08 09 0A 0B 0C 0D 0E 0F |0123456789ABCDEF|
|------------------------------------------------|----------------|
|00 6B 72 01 DA 00 00 0C 0B 44 60 00 06 B8 D0 00 |.kr......D`.....|
|02 62 84 00 00 06 57 32 28 81 00 00 00 00 00 00 |.b....W2(.......|
|00 01 00 03 E8 00 00 00 00 BA 04 00 02 00 00 01 |................|
|19 00 53 6C 61 61 6E 65 73 68 20 43 75 6C 74 69 |..Slaanesh Culti|
|73 74 5E 66 00 00 00 00 08 01 0A 00 00 00 18 05 |st^f............|
|00 01 DA 78 D0 E2 84 44 60 64 00 A1 20 00 00 00 |...x...D`d.. ...|
|08 3B 26 B1 FF 84 FF 00 00 01 DA 00 00 00       |..............  |
-------------------------------------------------------------------
[Server] packet : (0x72) F_CREATE_MONSTER  Size = 152 
|------------------------------------------------|----------------|
|00 01 02 03 04 05 06 07 08 09 0A 0B 0C 0D 0E 0F |0123456789ABCDEF|
|------------------------------------------------|----------------|
|00 95 72 01 DB 00 00 04 0B 44 60 00 06 BB 03 00 |..r......D`.....|
|02 61 F5 00 00 04 C4 32 28 81 00 00 00 00 00 00 |.a.....2(.......|
|00 01 00 03 E8 00 00 00 00 BA 03 00 02 00 00 01 |................|
|19 00 4B 68 6F 72 6E 65 20 43 75 6C 74 69 73 74 |..Khorne Cultist|
|5E 6D 00 00 00 00 08 01 0A 00 00 00 18 31 00 01 |^m...........1..|
|DB 7B 03 E1 F5 44 60 64 00 A1 20 00 00 00 08 46 |.{...D`d.. ....F|
|36 AF FF 83 FF 00 00 01 DB 00 08 00 0A 0C B7 00 |6...............|
|0B 07 5C 01 14 0B 36 7C 7C 01 15 0B 38 7C 7C 01 |..\...6||...8||.|
|16 0B 37 7C 7C 01 17 0B 3A 7C 7C 01 18 0B 39 7C |..7||...:||...9||
|7C 01 1C 0B 35 7C 7C 00                         |........        |
-------------------------------------------------------------------
[Server] packet : (0x72) F_CREATE_MONSTER  Size = 152 
|------------------------------------------------|----------------|
|00 01 02 03 04 05 06 07 08 09 0A 0B 0C 0D 0E 0F |0123456789ABCDEF|
|------------------------------------------------|----------------|
|00 95 72 01 DC 00 00 04 0B 44 60 00 06 BA F2 00 |..r......D`.....|
|02 62 AB 00 00 04 C4 32 28 81 00 00 00 00 00 00 |.b.....2(.......|
|00 01 00 03 E8 00 00 00 00 BA 03 00 01 00 00 01 |................|
|19 00 4B 68 6F 72 6E 65 20 43 75 6C 74 69 73 74 |..Khorne Cultist|
|5E 6D 00 00 00 00 08 01 0A 00 00 00 18 31 00 01 |^m...........1..|
|DC 7A F2 E2 AB 44 60 64 00 A1 20 00 00 00 08 46 |.z...D`d.. ....F|
|36 65 00 91 FF 00 00 01 DC 00 08 00 0A 0C B7 00 |6e..............|
|0B 07 5C 01 14 0B 36 7C 7C 01 15 0B 38 7C 7C 01 |..\...6||...8||.|
|16 0B 37 7C 7C 01 17 0B 3A 7C 7C 01 18 0B 39 7C |..7||...:||...9||
|7C 01 1C 0B 35 7C 7C 00                         |........        |
-------------------------------------------------------------------
[Server] packet : (0x72) F_CREATE_MONSTER  Size = 132 
|------------------------------------------------|----------------|
|00 01 02 03 04 05 06 07 08 09 0A 0B 0C 0D 0E 0F |0123456789ABCDEF|
|------------------------------------------------|----------------|
|00 81 72 01 DD 00 00 0A 7D 44 4A 00 06 B9 28 00 |..r.....}DJ...(.|
|02 67 4C 00 00 04 C5 32 28 81 00 00 00 00 66 00 |.gL....2(.....f.|
|00 01 00 03 E8 00 00 00 00 BA 06 00 01 00 00 01 |................|
|19 00 41 63 63 75 72 73 65 64 20 4F 6E 65 5E 66 |..Accursed One^f|
|00 00 00 00 08 01 0A 00 00 00 12 25 00 01 DD 79 |...........%...y|
|28 E7 4C 44 4A 64 00 A1 00 00 00 00 08 7D 0A 01 |(.LDJd.......}..|
|DD 00 08 00 0A 0C B6 00 0B 07 5B 00 14 0B 30 00 |..........[...0.|
|15 0B 32 00 16 0B 31 00 17 0B 34 00 18 0B 33 00 |..2...1...4...3.|
|1C 0B 2F 00                                     |....            |
-------------------------------------------------------------------
[Server] packet : (0x72) F_CREATE_MONSTER  Size = 132 
|------------------------------------------------|----------------|
|00 01 02 03 04 05 06 07 08 09 0A 0B 0C 0D 0E 0F |0123456789ABCDEF|
|------------------------------------------------|----------------|
|00 81 72 01 DE 00 00 0C C1 44 4A 00 06 B8 E3 00 |..r......DJ.....|
|02 66 95 00 00 04 C5 32 28 81 00 00 00 00 66 00 |.f.....2(.....f.|
|00 01 00 03 E8 00 00 00 00 BA 06 00 02 00 00 01 |................|
|19 00 41 63 63 75 72 73 65 64 20 4F 6E 65 5E 66 |..Accursed One^f|
|00 00 00 00 08 01 0A 00 00 00 12 25 00 01 DE 78 |...........%...x|
|E3 E6 95 44 4A 64 00 A1 00 00 00 00 08 C1 0C 01 |...DJd..........|
|DE 00 08 00 0A 0C B6 00 0B 07 5B 00 14 0B 30 00 |..........[...0.|
|15 0B 32 00 16 0B 31 00 17 0B 34 00 18 0B 33 00 |..2...1...4...3.|
|1C 0B 2F 00                                     |....            |
-------------------------------------------------------------------
[Server] packet : (0x72) F_CREATE_MONSTER  Size = 132 
|------------------------------------------------|----------------|
|00 01 02 03 04 05 06 07 08 09 0A 0B 0C 0D 0E 0F |0123456789ABCDEF|
|------------------------------------------------|----------------|
|00 81 72 01 DF 00 00 0E 4F 44 4A 00 06 B9 03 00 |..r.....ODJ.....|
|02 65 E0 00 00 04 C4 32 28 81 00 00 00 00 66 00 |.e.....2(.....f.|
|00 01 00 03 E8 00 00 00 00 BA 06 00 04 00 00 01 |................|
|19 00 41 63 63 75 72 73 65 64 20 4F 6E 65 5E 6D |..Accursed One^m|
|00 00 00 00 08 01 0A 00 00 00 12 25 00 01 DF 79 |...........%...y|
|03 E5 E0 44 4A 64 00 A1 00 00 00 00 08 4F 0E 01 |...DJd.......O..|
|DF 00 08 00 0A 0C B6 00 0B 07 5B 00 14 0B 30 00 |..........[...0.|
|15 0B 32 00 16 0B 31 00 17 0B 34 00 18 0B 33 00 |..2...1...4...3.|
|1C 0B 2F 00                                     |....            |
-------------------------------------------------------------------
[Server] packet : (0x72) F_CREATE_MONSTER  Size = 132 
|------------------------------------------------|----------------|
|00 01 02 03 04 05 06 07 08 09 0A 0B 0C 0D 0E 0F |0123456789ABCDEF|
|------------------------------------------------|----------------|
|00 81 72 01 E1 00 00 03 55 44 4A 00 06 BA B2 00 |..r.....UDJ.....|
|02 67 55 00 00 04 C4 32 28 81 00 00 00 00 66 00 |.gU....2(.....f.|
|00 01 00 03 E8 00 00 00 00 BA 06 00 05 00 00 01 |................|
|19 00 41 63 63 75 72 73 65 64 20 4F 6E 65 5E 6D |..Accursed One^m|
|00 00 00 00 08 01 0A 00 00 00 12 25 00 01 E1 7A |...........%...z|
|B2 E7 55 44 4A 64 00 A1 00 00 00 00 08 55 03 01 |..UDJd.......U..|
|E1 00 08 00 0A 0C B6 00 0B 07 5B 00 14 0B 30 00 |..........[...0.|
|15 0B 32 00 16 0B 31 00 17 0B 34 00 18 0B 33 00 |..2...1...4...3.|
|1C 0B 2F 00                                     |....            |
-------------------------------------------------------------------
[Server] packet : (0x72) F_CREATE_MONSTER  Size = 132 
|------------------------------------------------|----------------|
|00 01 02 03 04 05 06 07 08 09 0A 0B 0C 0D 0E 0F |0123456789ABCDEF|
|------------------------------------------------|----------------|
|00 81 72 01 E2 00 00 03 BB 44 4A 00 06 BA AD 00 |..r......DJ.....|
|02 67 04 00 00 04 C5 32 28 81 00 00 00 00 66 00 |.g.....2(.....f.|
|00 01 00 03 E8 00 00 00 00 BA 06 00 00 00 00 01 |................|
|19 00 41 63 63 75 72 73 65 64 20 4F 6E 65 5E 66 |..Accursed One^f|
|00 00 00 00 08 01 0A 00 00 00 12 25 00 01 E2 7A |...........%...z|
|AD E7 04 44 4A 64 00 A1 00 00 00 00 08 BB 03 01 |...DJd..........|
|E2 00 08 00 0A 0C B6 00 0B 07 5B 00 14 0B 30 00 |..........[...0.|
|15 0B 32 00 16 0B 31 00 17 0B 34 00 18 0B 33 00 |..2...1...4...3.|
|1C 0B 2F 00                                     |....            |
-------------------------------------------------------------------
[Server] packet : (0xBF) F_INIT_STORE  Size = 57 
|------------------------------------------------|----------------|
|00 01 02 03 04 05 06 07 08 09 0A 0B 0C 0D 0E 0F |0123456789ABCDEF|
|------------------------------------------------|----------------|
|00 36 BF 00 00 00 00 01 01 00 04 00 08 53 68 6F |.6...........Sho|
|77 20 41 6C 6C 01 07 50 6F 74 69 6F 6E 73 02 09 |w All..Potions..|
|54 61 6C 69 73 6D 61 6E 73 03 0D 4D 69 73 63 65 |Talismans..Misce|
|6C 6C 61 6E 65 6F 75 73 00                      |.........       |
-------------------------------------------------------------------
[Server] packet : (0xBF) F_INIT_STORE  Size = 2466 
|------------------------------------------------|----------------|
|00 01 02 03 04 05 06 07 08 09 0A 0B 0C 0D 0E 0F |0123456789ABCDEF|
|------------------------------------------------|----------------|
|09 9F BF 00 00 00 0C 00 01 00 00 03 00 00 01 E7 |................|
|00 00 01 00 86 0F 77 00 00 00 00 00 00 00 00 00 |......w.........|
|1F 00 0C 01 00 00 03 00 00 00 00 00 00 00 00 00 |................|
|00 00 00 00 C3 00 02 00 01 00 00 00 00 00 00 00 |................|
|00 00 00 00 00 1F 43 61 73 65 20 6F 66 20 52 65 |......Case of Re|
|63 72 75 69 74 27 73 20 50 6F 74 69 6F 6E 20 6F |cruit's Potion o|
|66 20 41 69 64 00 00 00 00 00 00 27 43 6F 6E 76 |f Aid......'Conv|
|65 72 74 20 74 68 69 73 20 63 61 73 65 20 74 6F |ert this case to|
|20 75 6E 70 61 63 6B 20 31 30 20 50 6F 74 69 6F | unpack 10 Potio|
|6E 73 2E 00 01 00 00 03 02 A0 00 00 00 00 00 00 |ns..............|
|00 00 00 00 00 00 00 00 00 00 00 00 00 00 01 00 |................|
|03 2E 56 22 B9 09 57 61 72 20 43 72 65 73 74 00 |..V"..War Crest.|
|01 00 00 00 00 00 00 00 00 00 00 00 00 00 00 00 |................|
|00 00 00 01 03 00 00 01 E7 00 00 01 00 87 0F 78 |...............x|
|00 00 00 00 00 00 00 00 00 1F 00 0C 01 00 00 03 |................|
|00 00 00 00 00 00 00 00 00 00 00 00 00 C3 00 02 |................|
|00 01 00 00 00 00 00 00 00 00 00 00 00 00 20 43 |.............. C|
|61 73 65 20 6F 66 20 52 65 63 72 75 69 74 27 73 |ase of Recruit's|
|20 57 61 72 6D 69 6E 67 20 50 6F 74 69 6F 6E 00 | Warming Potion.|
|00 00 00 00 00 27 43 6F 6E 76 65 72 74 20 74 68 |.....'Convert th|
|69 73 20 63 61 73 65 20 74 6F 20 75 6E 70 61 63 |is case to unpac|
|6B 20 31 30 20 50 6F 74 69 6F 6E 73 2E 00 01 00 |k 10 Potions....|
|00 03 02 A0 00 00 00 00 00 00 00 00 00 00 00 00 |................|
|00 00 00 00 00 00 00 00 01 00 03 2E 56 22 B9 09 |............V"..|
|57 61 72 20 43 72 65 73 74 00 01 00 00 00 00 00 |War Crest.......|
|00 00 00 00 00 00 00 00 00 00 00 00 00 02 03 00 |................|
|00 03 2C 00 00 01 00 88 0F 77 00 00 00 00 00 00 |..,......w......|
|00 00 00 1F 00 14 0B 00 00 03 00 00 00 00 00 00 |................|
|00 00 00 00 00 00 01 45 00 02 00 01 00 00 00 00 |.......E........|
|00 00 00 00 00 00 00 00 1F 43 61 73 65 20 6F 66 |.........Case of|
|20 53 63 6F 75 74 27 73 20 52 65 63 6F 76 65 72 | Scout's Recover|
|79 20 50 6F 74 69 6F 6E 00 00 00 00 00 00 27 43 |y Potion......'C|
|6F 6E 76 65 72 74 20 74 68 69 73 20 63 61 73 65 |onvert this case|
|20 74 6F 20 75 6E 70 61 63 6B 20 31 30 20 50 6F | to unpack 10 Po|
|74 69 6F 6E 73 2E 00 01 00 00 03 02 A0 00 00 00 |tions...........|
|00 00 00 00 00 00 00 00 00 00 00 00 00 00 00 00 |................|
|00 01 00 03 2E 56 22 B9 09 57 61 72 20 43 72 65 |.....V"..War Cre|
|73 74 00 01 00 00 00 00 00 00 00 00 00 00 00 00 |st..............|
|00 00 00 00 00 00 03 03 00 00 03 2C 00 00 01 00 |...........,....|
|89 0F 78 00 00 00 00 00 00 00 00 00 1F 00 14 0B |..x.............|
|00 00 03 00 00 00 00 00 00 00 00 00 00 00 00 01 |................|
|45 00 02 00 01 00 00 00 00 00 00 00 00 00 00 00 |E...............|
|00 21 43 61 73 65 20 6F 66 20 53 63 6F 75 74 27 |.!Case of Scout'|
|73 20 51 75 69 63 6B 65 6E 69 6E 67 20 50 6F 74 |s Quickening Pot|
|69 6F 6E 00 00 00 00 00 00 27 43 6F 6E 76 65 72 |ion......'Conver|
|74 20 74 68 69 73 20 63 61 73 65 20 74 6F 20 75 |t this case to u|
|6E 70 61 63 6B 20 31 30 20 50 6F 74 69 6F 6E 73 |npack 10 Potions|
|2E 00 01 00 00 03 02 A0 00 00 00 00 00 00 00 00 |................|
|00 00 00 00 00 00 00 00 00 00 00 00 01 00 03 2E |................|
|56 22 B9 09 57 61 72 20 43 72 65 73 74 00 01 00 |V"..War Crest...|
|00 00 00 00 00 00 00 00 00 00 00 00 00 00 00 00 |................|
|00 04 03 00 00 04 6F 00 00 01 00 8A 0F 77 00 00 |......o......w..|
|00 00 00 00 00 00 00 1F 00 1C 15 00 00 03 00 00 |................|
|00 00 00 00 00 00 00 00 00 00 01 C6 00 02 00 01 |................|
|00 00 00 00 00 00 00 00 00 00 00 00 21 43 61 73 |............!Cas|
|65 20 6F 66 20 53 6F 6C 64 69 65 72 27 73 20 48 |e of Soldier's H|
|65 61 6C 69 6E 67 20 44 72 61 75 67 68 74 00 00 |ealing Draught..|
|00 00 00 00 28 43 6F 6E 76 65 72 74 20 74 68 69 |....(Convert thi|
|73 20 63 61 73 65 20 74 6F 20 75 6E 70 61 63 6B |s case to unpack|
|20 31 30 20 44 72 61 75 67 68 74 73 2E 00 01 00 | 10 Draughts....|
|00 03 02 A0 00 00 00 00 00 00 00 00 00 00 00 00 |................|
|00 00 00 00 00 00 00 00 01 00 03 2E 56 22 B9 09 |............V"..|
|57 61 72 20 43 72 65 73 74 00 01 00 00 00 00 00 |War Crest.......|
|00 00 00 00 00 00 00 00 00 00 00 00 00 05 03 00 |................|
|00 04 6F 00 00 01 00 8B 0F 78 00 00 00 00 00 00 |..o......x......|
|00 00 00 1F 00 1C 15 00 00 03 00 00 00 00 00 00 |................|
|00 00 00 00 00 00 01 C6 00 02 00 01 00 00 00 00 |................|
|00 00 00 00 00 00 00 00 22 43 61 73 65 20 6F 66 |........"Case of|
|20 53 6F 6C 64 69 65 72 27 73 20 53 74 69 6D 75 | Soldier's Stimu|
|6C 61 6E 74 20 50 6F 74 69 6F 6E 00 00 00 00 00 |lant Potion.....|
|00 27 43 6F 6E 76 65 72 74 20 74 68 69 73 20 63 |.'Convert this c|
|61 73 65 20 74 6F 20 75 6E 70 61 63 6B 20 31 30 |ase to unpack 10|
|20 50 6F 74 69 6F 6E 73 2E 00 01 00 00 03 02 A0 | Potions........|
|00 00 00 00 00 00 00 00 00 00 00 00 00 00 00 00 |................|
|00 00 00 00 01 00 03 2E 56 22 B9 09 57 61 72 20 |........V"..War |
|43 72 65 73 74 00 01 00 00 00 00 00 00 00 00 00 |Crest...........|
|00 00 00 00 00 00 00 00 00 06 03 00 00 06 59 00 |..............Y.|
|00 01 00 8C 0F 77 00 00 00 00 00 00 00 00 00 1F |.....w..........|
|00 28 1F 00 00 03 00 00 00 00 00 00 00 00 00 00 |.(..............|
|00 00 02 8A 00 02 00 01 00 00 00 00 00 00 00 00 |................|
|00 00 00 00 20 43 61 73 65 20 6F 66 20 4F 66 66 |.... Case of Off|
|69 63 65 72 27 73 20 48 65 61 6C 69 6E 67 20 45 |icer's Healing E|
|6C 69 78 69 72 00 00 00 00 00 00 27 43 6F 6E 76 |lixir......'Conv|
|65 72 74 20 74 68 69 73 20 63 61 73 65 20 74 6F |ert this case to|
|20 75 6E 70 61 63 6B 20 31 30 20 45 6C 69 78 69 | unpack 10 Elixi|
|72 73 2E 00 01 00 00 03 02 A0 00 00 00 00 00 00 |rs..............|
|00 00 00 00 00 00 00 00 00 00 00 00 00 00 01 00 |................|
|03 2E 56 22 B9 09 57 61 72 20 43 72 65 73 74 00 |..V"..War Crest.|
|01 00 00 00 00 00 00 00 00 00 00 00 00 00 00 00 |................|
|00 00 00 07 03 00 00 06 59 00 00 01 00 8D 0F 78 |........Y......x|
|00 00 00 00 00 00 00 00 00 1F 00 28 1F 00 00 03 |...........(....|
|00 00 00 00 00 00 00 00 00 00 00 00 02 8A 00 02 |................|
|00 01 00 00 00 00 00 00 00 00 00 00 00 00 25 43 |..............%C|
|61 73 65 20 6F 66 20 4F 66 66 69 63 65 72 27 73 |ase of Officer's|
|20 50 68 69 61 6C 20 6F 66 20 41 64 72 65 6E 61 | Phial of Adrena|
|6C 69 6E 65 00 00 00 00 00 00 26 43 6F 6E 76 65 |line......&Conve|
|72 74 20 74 68 69 73 20 63 61 73 65 20 74 6F 20 |rt this case to |
|75 6E 70 61 63 6B 20 31 30 20 50 68 69 61 6C 73 |unpack 10 Phials|
|2E 00 01 00 00 03 02 A0 00 00 00 00 00 00 00 00 |................|
|00 00 00 00 00 00 00 00 00 00 00 00 01 00 03 2E |................|
|56 22 B9 09 57 61 72 20 43 72 65 73 74 00 01 00 |V"..War Crest...|
|00 00 00 00 00 00 00 00 00 00 00 00 00 00 00 00 |................|
|00 08 03 00 00 07 EE 00 00 01 00 8E 0F 77 00 00 |.............w..|
|00 00 00 00 00 00 00 1F 00 32 29 00 00 03 00 00 |.........2).....|
|00 00 00 00 00 00 00 00 00 00 03 2C 00 02 00 01 |...........,....|
|00 00 00 00 00 00 00 00 00 00 00 00 28 43 61 73 |............(Cas|
|65 20 6F 66 20 4F 66 66 69 63 65 72 27 73 20 45 |e of Officer's E|
|6C 69 78 69 72 20 6F 66 20 52 65 6A 75 76 65 6E |lixir of Rejuven|
|61 74 69 6F 6E 00 00 00 00 00 00 27 43 6F 6E 76 |ation......'Conv|
|65 72 74 20 74 68 69 73 20 63 61 73 65 20 74 6F |ert this case to|
|20 75 6E 70 61 63 6B 20 31 30 20 45 6C 69 78 69 | unpack 10 Elixi|
|72 73 2E 00 01 00 00 03 02 A0 00 00 00 00 00 00 |rs..............|
|00 00 00 00 00 00 00 00 00 00 00 00 00 00 01 00 |................|
|03 2E 56 22 B9 09 57 61 72 20 43 72 65 73 74 00 |..V"..War Crest.|
|03 00 00 00 00 00 00 00 00 00 00 00 00 00 00 00 |................|
|00 00 00 09 03 00 00 07 EE 00 00 01 00 8F 0F 78 |...............x|
|00 00 00 00 00 00 00 00 00 1F 00 32 29 00 00 03 |...........2)...|
|00 00 00 00 00 00 00 00 00 00 00 00 03 2C 00 02 |.............,..|
|00 01 00 00 00 00 00 00 00 00 00 00 00 00 24 43 |..............$C|
|61 73 65 20 6F 66 20 4F 66 66 69 63 65 72 27 73 |ase of Officer's|
|20 41 6C 61 63 72 69 74 69 6F 75 73 20 45 6C 69 | Alacritious Eli|
|78 69 72 00 00 00 00 00 00 27 43 6F 6E 76 65 72 |xir......'Conver|
|74 20 74 68 69 73 20 63 61 73 65 20 74 6F 20 75 |t this case to u|
|6E 70 61 63 6B 20 31 30 20 45 6C 69 78 69 72 73 |npack 10 Elixirs|
|2E 00 01 00 00 03 02 A0 00 00 00 00 00 00 00 00 |................|
|00 00 00 00 00 00 00 00 00 00 00 00 01 00 03 2E |................|
|56 22 B9 09 57 61 72 20 43 72 65 73 74 00 03 00 |V"..War Crest...|
|00 00 00 00 00 00 00 00 00 00 00 00 00 00 00 00 |................|
|00 0A 03 00 00 0B 1A 00 00 01 00 90 0F 77 00 00 |.............w..|
|00 00 00 00 00 00 00 1F 00 46 51 00 00 03 00 00 |.........FQ.....|
|00 00 00 00 00 00 00 00 00 00 04 71 00 02 00 01 |...........q....|
|00 00 00 00 00 00 00 00 00 00 00 00 28 43 61 73 |............(Cas|
|65 20 6F 66 20 43 61 70 74 61 69 6E 27 73 20 45 |e of Captain's E|
|6C 69 78 69 72 20 6F 66 20 52 65 6A 75 76 65 6E |lixir of Rejuven|
|61 74 69 6F 6E 00 00 00 00 00 00 27 43 6F 6E 76 |ation......'Conv|
|65 72 74 20 74 68 69 73 20 63 61 73 65 20 74 6F |ert this case to|
|20 75 6E 70 61 63 6B 20 31 30 20 45 6C 69 78 69 | unpack 10 Elixi|
|72 73 2E 00 01 00 00 03 02 A0 00 00 00 00 00 00 |rs..............|
|00 00 00 00 00 00 00 00 00 00 00 00 00 00 01 00 |................|
|03 2E 56 22 B9 09 57 61 72 20 43 72 65 73 74 00 |..V"..War Crest.|
|19 00 00 00 00 00 00 00 00 00 00 00 00 00 00 00 |................|
|00 00 00 0B 03 00 00 0B 1A 00 00 01 00 91 0F 78 |...............x|
|00 00 00 00 00 00 00 00 00 1F 00 46 51 00 00 03 |...........FQ...|
|00 00 00 00 00 00 00 00 00 00 00 00 04 71 00 02 |.............q..|
|00 01 00 00 00 00 00 00 00 00 00 00 00 00 24 43 |..............$C|
|61 73 65 20 6F 66 20 43 61 70 74 61 69 6E 27 73 |ase of Captain's|
|20 41 6C 61 63 72 69 74 69 6F 75 73 20 45 6C 69 | Alacritious Eli|
|78 69 72 00 00 00 00 00 00 27 43 6F 6E 76 65 72 |xir......'Conver|
|74 20 74 68 69 73 20 63 61 73 65 20 74 6F 20 75 |t this case to u|
|6E 70 61 63 6B 20 31 30 20 45 6C 69 78 69 72 73 |npack 10 Elixirs|
|2E 00 01 00 00 03 02 A0 00 00 00 00 00 00 00 00 |................|
|00 00 00 00 00 00 00 00 00 00 00 00 01 00 03 2E |................|
|56 22 B9 09 57 61 72 20 43 72 65 73 74 00 19 00 |V"..War Crest...|
|00 00 00 00 00 00 00 00 00 00 00 00 00 00 00 00 |................|
|00 00                                           |..              |
-------------------------------------------------------------------
[Server] packet : (0xBF) F_INIT_STORE  Size = 1717 
|------------------------------------------------|----------------|
|00 01 02 03 04 05 06 07 08 09 0A 0B 0C 0D 0E 0F |0123456789ABCDEF|
|------------------------------------------------|----------------|
|06 B2 BF 00 00 01 0A 00 01 00 00 03 00 00 00 00 |................|
|00 00 07 53 01 14 27 00 00 00 00 00 00 00 00 00 |...S..'.........|
|17 03 00 03 00 00 02 00 00 00 00 00 00 00 20 00 |.............. .|
|00 00 00 00 00 00 00 00 00 00 32 00 01 00 00 00 |..........2.....|
|00 00 00 00 00 00 00 00 00 1E 52 65 63 72 75 69 |..........Recrui|
|74 27 73 20 54 61 6C 69 73 6D 61 6E 20 6F 66 20 |t's Talisman of |
|43 65 6C 65 72 69 74 79 00 01 6D 61 00 00 1C 20 |Celerity..ma... |
|00 00 00 00 00 01 01 00 00 03 04 00 00 00 00 00 |................|
|00 00 00 00 00 00 00 00 00 00 00 00 00 00 00 00 |................|
|01 00 03 2E 56 22 B9 09 57 61 72 20 43 72 65 73 |....V"..War Cres|
|74 00 01 00 00 00 00 00 00 00 00 00 00 00 00 00 |t...............|
|00 00 00 00 00 01 03 00 00 00 00 00 00 07 53 05 |..............S.|
|14 24 00 00 00 00 00 00 00 00 00 17 03 00 03 00 |.$..............|
|00 02 00 00 00 00 00 00 00 40 00 00 00 00 00 00 |.........@......|
|00 00 00 00 00 32 00 01 00 00 00 00 00 00 00 00 |.....2..........|
|00 00 00 00 1E 52 65 63 72 75 69 74 27 73 20 54 |.....Recruit's T|
|61 6C 69 73 6D 61 6E 20 6F 66 20 41 70 74 69 74 |alisman of Aptit|
|75 64 65 00 01 6D 65 00 00 1C 20 00 00 00 00 00 |ude..me... .....|
|01 01 00 00 03 04 00 00 00 00 00 00 00 00 00 00 |................|
|00 00 00 00 00 00 00 00 00 00 00 01 00 03 2E 56 |...............V|
|22 B9 09 57 61 72 20 43 72 65 73 74 00 01 00 00 |"..War Crest....|
|00 00 00 00 00 00 00 00 00 00 00 00 00 00 00 00 |................|
|02 03 00 00 00 00 00 00 07 53 02 14 27 00 00 00 |.........S..'...|
|00 00 00 00 00 00 17 0B 00 0B 00 00 02 00 00 00 |................|
|00 00 00 00 20 00 00 00 00 00 00 00 00 00 00 00 |.... ...........|
|32 00 01 00 00 00 00 00 00 00 00 00 00 00 00 1C |2...............|
|53 63 6F 75 74 27 73 20 54 61 6C 69 73 6D 61 6E |Scout's Talisman|
|20 6F 66 20 43 65 6C 65 72 69 74 79 00 01 6D 62 | of Celerity..mb|
|00 00 38 40 00 00 00 00 00 01 01 00 00 03 04 00 |..8@............|
|00 00 00 00 00 00 00 00 00 00 00 00 00 00 00 00 |................|
|00 00 00 00 01 00 03 2E 56 22 B9 09 57 61 72 20 |........V"..War |
|43 72 65 73 74 00 02 00 00 00 00 00 00 00 00 00 |Crest...........|
|00 00 00 00 00 00 00 00 00 03 03 00 00 00 00 00 |................|
|00 07 53 06 14 24 00 00 00 00 00 00 00 00 00 17 |..S..$..........|
|0B 00 0B 00 00 02 00 00 00 00 00 00 00 40 00 00 |.............@..|
|00 00 00 00 00 00 00 00 00 32 00 01 00 00 00 00 |.........2......|
|00 00 00 00 00 00 00 00 1C 53 63 6F 75 74 27 73 |.........Scout's|
|20 54 61 6C 69 73 6D 61 6E 20 6F 66 20 41 70 74 | Talisman of Apt|
|69 74 75 64 65 00 01 6D 66 00 00 38 40 00 00 00 |itude..mf..8@...|
|00 00 01 01 00 00 03 04 00 00 00 00 00 00 00 00 |................|
|00 00 00 00 00 00 00 00 00 00 00 00 00 01 00 03 |................|
|2E 56 22 B9 09 57 61 72 20 43 72 65 73 74 00 02 |.V"..War Crest..|
|00 00 00 00 00 00 00 00 00 00 00 00 00 00 00 00 |................|
|00 00 04 03 00 00 00 00 00 00 07 53 03 14 27 00 |...........S..'.|
|00 00 00 00 00 00 00 00 17 14 00 14 00 00 02 00 |................|
|00 00 00 00 00 00 20 00 00 00 00 00 00 00 00 00 |...... .........|
|00 00 32 00 01 00 00 00 00 00 00 00 00 00 00 00 |..2.............|
|00 1E 53 6F 6C 64 69 65 72 27 73 20 54 61 6C 69 |..Soldier's Tali|
|73 6D 61 6E 20 6F 66 20 43 65 6C 65 72 69 74 79 |sman of Celerity|
|00 01 6D 63 00 00 54 60 00 00 00 00 00 01 01 00 |..mc..T`........|
|00 03 04 00 00 00 00 00 00 00 00 00 00 00 00 00 |................|
|00 00 00 00 00 00 00 00 01 00 03 2E 56 22 B9 09 |............V"..|
|57 61 72 20 43 72 65 73 74 00 08 00 00 00 00 00 |War Crest.......|
|00 00 00 00 00 00 00 00 00 00 00 00 00 05 03 00 |................|
|00 00 00 00 00 07 53 07 14 24 00 00 00 00 00 00 |......S..$......|
|00 00 00 17 14 00 14 00 00 02 00 00 00 00 00 00 |................|
|00 40 00 00 00 00 00 00 00 00 00 00 00 32 00 01 |.@...........2..|
|00 00 00 00 00 00 00 00 00 00 00 00 1E 53 6F 6C |.............Sol|
|64 69 65 72 27 73 20 54 61 6C 69 73 6D 61 6E 20 |dier's Talisman |
|6F 66 20 41 70 74 69 74 75 64 65 00 01 6D 67 00 |of Aptitude..mg.|
|00 54 60 00 00 00 00 00 01 01 00 00 03 04 00 00 |.T`.............|
|00 00 00 00 00 00 00 00 00 00 00 00 00 00 00 00 |................|
|00 00 00 01 00 03 2E 56 22 B9 09 57 61 72 20 43 |.......V"..War C|
|72 65 73 74 00 08 00 00 00 00 00 00 00 00 00 00 |rest............|
|00 00 00 00 00 00 00 00 06 03 00 00 00 00 00 00 |................|
|07 53 04 14 27 00 00 00 00 00 00 00 00 00 17 1E |.S..'...........|
|00 1E 00 00 02 00 00 00 00 00 00 00 20 00 00 00 |............ ...|
|00 00 00 00 00 00 00 00 32 00 01 00 00 00 00 00 |........2.......|
|00 00 00 00 00 00 00 1E 4F 66 66 69 63 65 72 27 |........Officer'|
|73 20 54 61 6C 69 73 6D 61 6E 20 6F 66 20 43 65 |s Talisman of Ce|
|6C 65 72 69 74 79 00 01 6D 64 00 00 70 80 00 00 |lerity..md..p...|
|00 00 00 01 01 00 00 03 04 00 00 00 00 00 00 00 |................|
|00 00 00 00 00 00 00 00 00 00 00 00 00 00 01 00 |................|
|03 2E 56 22 B9 09 57 61 72 20 43 72 65 73 74 00 |..V"..War Crest.|
|19 00 00 00 00 00 00 00 00 00 00 00 00 00 00 00 |................|
|00 00 00 07 03 00 00 00 00 00 00 07 53 08 14 24 |............S..$|
|00 00 00 00 00 00 00 00 00 17 1E 00 1E 00 00 02 |................|
|00 00 00 00 00 00 00 40 00 00 00 00 00 00 00 00 |.......@........|
|00 00 00 32 00 01 00 00 00 00 00 00 00 00 00 00 |...2............|
|00 00 1E 4F 66 66 69 63 65 72 27 73 20 54 61 6C |...Officer's Tal|
|69 73 6D 61 6E 20 6F 66 20 41 70 74 69 74 75 64 |isman of Aptitud|
|65 00 01 6D 68 00 00 70 80 00 00 00 00 00 01 01 |e..mh..p........|
|00 00 03 04 00 00 00 00 00 00 00 00 00 00 00 00 |................|
|00 00 00 00 00 00 00 00 00 01 00 03 2E 56 22 B9 |.............V".|
|09 57 61 72 20 43 72 65 73 74 00 19 00 00 00 00 |.War Crest......|
|00 00 00 00 00 00 00 00 00 00 00 00 00 00 08 03 |................|
|00 00 00 00 00 00 07 53 09 14 27 00 00 00 00 00 |.......S..'.....|
|00 00 00 00 17 28 00 51 00 00 02 00 00 00 00 00 |.....(.Q........|
|00 00 20 00 00 00 00 00 00 00 00 00 00 00 32 00 |.. ...........2.|
|01 00 00 00 00 00 00 00 00 00 00 00 00 1E 43 61 |..............Ca|
|70 74 61 69 6E 27 73 20 54 61 6C 69 73 6D 61 6E |ptain's Talisman|
|20 6F 66 20 43 65 6C 65 72 69 74 79 00 01 6D 69 | of Celerity..mi|
|00 00 8C A0 00 00 00 00 00 01 01 00 00 03 06 00 |................|
|00 00 00 00 00 00 00 00 00 00 00 00 00 00 00 00 |................|
|00 00 00 00 01 00 03 2E 56 22 B9 09 57 61 72 20 |........V"..War |
|43 72 65 73 74 00 96 00 00 00 00 00 00 00 00 00 |Crest...........|
|00 00 00 00 00 00 00 00 00 09 03 00 00 00 00 00 |................|
|00 07 53 0A 14 24 00 00 00 00 00 00 00 00 00 17 |..S..$..........|
|28 00 51 00 00 02 00 00 00 00 00 00 00 40 00 00 |(.Q..........@..|
|00 00 00 00 00 00 00 00 00 32 00 01 00 00 00 00 |.........2......|
|00 00 00 00 00 00 00 00 1E 43 61 70 74 61 69 6E |.........Captain|
|27 73 20 54 61 6C 69 73 6D 61 6E 20 6F 66 20 41 |'s Talisman of A|
|70 74 69 74 75 64 65 00 01 6D 6A 00 00 8C A0 00 |ptitude..mj.....|
|00 00 00 00 01 01 00 00 03 06 00 00 00 00 00 00 |................|
|00 00 00 00 00 00 00 00 00 00 00 00 00 00 00 01 |................|
|00 03 2E 56 22 B9 09 57 61 72 20 43 72 65 73 74 |...V"..War Crest|
|00 96 00 00 00 00 00 00 00 00 00 00 00 00 00 00 |................|
|00 00 00 00 00                                  |.....           |
-------------------------------------------------------------------
[Server] packet : (0xBF) F_INIT_STORE  Size = 5296 
|------------------------------------------------|----------------|
|00 01 02 03 04 05 06 07 08 09 0A 0B 0C 0D 0E 0F |0123456789ABCDEF|
|------------------------------------------------|----------------|
|14 AD BF 00 00 02 1A 00 01 00 00 03 00 00 00 00 |................|
|00 00 03 0E 0A 06 27 00 00 00 00 00 00 00 00 00 |......'.........|
|1B 00 00 00 00 00 03 00 00 00 00 00 00 00 00 00 |................|
|00 00 00 00 00 00 14 00 01 00 00 00 00 00 00 00 |................|
|00 00 00 00 00 0E 53 63 6F 75 72 69 6E 67 20 41 |......Scouring A|
|67 65 6E 74 00 00 00 00 00 00 00 00 01 00 00 03 |gent............|
|00 00 00 00 00 00 00 00 00 00 00 00 00 00 00 00 |................|
|00 00 00 00 00 00 01 00 03 2E 56 22 B9 09 57 61 |..........V"..Wa|
|72 20 43 72 65 73 74 00 0A 00 00 00 00 00 00 00 |r Crest.........|
|00 00 00 00 00 00 00 00 00 00 00 01 03 00 00 17 |................|
|70 00 00 59 45 24 01 7D 00 00 00 00 00 00 00 00 |p..YE$.}........|
|1F 00 28 50 00 00 01 01 00 00 00 00 00 00 00 00 |..(P............|
|00 00 00 00 09 60 00 01 00 01 00 00 10 91 00 00 |.....`..........|
|00 00 00 00 00 00 17 57 61 72 72 69 6F 72 27 73 |.......Warrior's|
|20 42 61 6E 64 20 6F 66 20 4D 69 67 68 74 06 0F | Band of Might..|
|00 5E 00 00 00 00 00 0E 00 5E 00 00 00 00 00 10 |.^.......^......|
|00 5E 00 00 00 00 00 07 00 27 00 00 00 00 00 50 |.^.......'.....P|
|00 1E 00 00 00 00 00 06 00 1A 00 00 00 00 00 00 |................|
|00 00 00 00 00 01 01 00 00 03 04 00 00 00 00 00 |................|
|00 00 00 00 00 00 00 00 00 00 00 0B DD 80 00 00 |................|
|01 00 03 2E 56 22 B9 09 57 61 72 20 43 72 65 73 |....V"..War Cres|
|74 00 32 00 00 00 00 00 00 00 00 00 00 00 00 00 |t.2.............|
|00 00 00 00 00 02 03 00 00 17 70 00 00 59 45 25 |..........p..YE%|
|03 C2 00 00 00 00 00 00 00 00 1F 00 28 50 00 00 |............(P..|
|01 01 00 00 00 00 00 00 00 00 00 00 00 00 09 60 |...............`|
|00 01 00 01 00 00 10 91 00 00 00 00 00 00 00 00 |................|
|1B 47 6C 61 64 69 61 74 6F 72 27 73 20 43 69 72 |.Gladiator's Cir|
|63 6C 65 20 6F 66 20 42 72 61 77 6E 06 0F 00 5E |cle of Brawn...^|
|00 00 00 00 00 0E 00 5E 00 00 00 00 00 10 00 5E |.......^.......^|
|00 00 00 00 00 01 00 24 00 00 00 00 00 07 00 20 |.......$....... |
|00 00 00 00 00 05 00 0C 00 00 00 00 00 00 00 00 |................|
|00 00 00 01 01 00 00 03 04 00 00 00 00 00 00 00 |................|
|00 00 00 00 00 00 00 00 00 0B DD 80 00 00 01 00 |................|
|03 2E 56 22 B9 09 57 61 72 20 43 72 65 73 74 00 |..V"..War Crest.|
|32 00 00 00 00 00 00 00 00 00 00 00 00 00 00 00 |2...............|
|00 00 00 03 03 00 00 17 70 00 00 59 45 26 22 CA |........p..YE&".|
|00 00 00 00 00 00 00 00 1F 00 28 50 00 00 01 01 |..........(P....|
|00 00 00 00 00 00 00 00 00 00 00 00 09 60 00 01 |.............`..|
|00 01 00 00 10 91 00 00 00 00 00 00 00 00 19 44 |...............D|
|75 65 6C 69 73 74 27 73 20 43 68 6F 6B 65 72 20 |uelist's Choker |
|6F 66 20 53 6B 69 6C 6C 06 0F 00 5E 00 00 00 00 |of Skill...^....|
|00 0E 00 5E 00 00 00 00 00 10 00 5E 00 00 00 00 |...^.......^....|
|00 07 00 24 00 00 00 00 00 06 00 24 00 00 00 00 |...$.......$....|
|00 01 00 08 00 00 00 00 00 00 00 00 00 00 00 01 |................|
|01 00 00 03 04 00 00 00 00 00 00 00 00 00 00 00 |................|
|00 00 00 00 00 0B DD 80 00 00 01 00 03 2E 56 22 |..............V"|
|B9 09 57 61 72 20 43 72 65 73 74 00 32 00 00 00 |..War Crest.2...|
|00 00 00 00 00 00 00 00 00 00 00 00 00 00 00 04 |................|
|03 00 00 17 70 00 00 59 45 27 22 C7 00 00 00 00 |....p..YE'".....|
|00 00 00 00 1F 00 28 50 00 00 01 01 00 00 00 00 |......(P........|
|00 00 00 00 00 00 00 00 09 60 00 01 00 01 00 00 |.........`......|
|10 91 00 00 00 00 00 00 00 00 16 57 61 72 72 69 |...........Warri|
|6F 72 27 73 20 50 69 6E 20 6F 66 20 4D 69 67 68 |or's Pin of Migh|
|74 06 0F 00 5E 00 00 00 00 00 0E 00 5E 00 00 00 |t...^.......^...|
|00 00 10 00 5E 00 00 00 00 00 01 00 27 00 00 00 |....^.......'...|
|00 00 50 00 1E 00 00 00 00 00 06 00 1A 00 00 00 |..P.............|
|00 00 00 00 00 00 00 00 01 01 00 00 03 04 00 00 |................|
|00 00 00 00 00 00 00 00 00 00 00 00 00 00 0B DD |................|
|80 00 00 01 00 03 2E 56 22 B9 09 57 61 72 20 43 |.......V"..War C|
|72 65 73 74 00 32 00 00 00 00 00 00 00 00 00 00 |rest.2..........|
|00 00 00 00 00 00 00 00 05 03 00 00 1B 58 00 00 |.............X..|
|59 45 28 01 78 00 00 00 00 00 00 00 00 1C 00 28 |YE(.x..........(|
|50 00 00 00 01 00 00 00 00 00 00 00 00 00 00 00 |P...............|
|00 0A F0 00 01 00 01 00 00 10 91 00 00 00 00 00 |................|
|00 00 00 19 53 63 6F 75 74 27 73 20 42 65 6C 74 |....Scout's Belt|
|20 6F 66 20 44 65 78 74 65 72 69 74 79 06 0F 00 | of Dexterity...|
|6E 00 00 00 00 00 0E 00 6E 00 00 00 00 00 10 00 |n.......n.......|
|6E 00 00 00 00 00 07 00 2A 00 00 00 00 00 06 00 |n.......*.......|
|1C 00 00 00 00 00 01 00 18 00 00 00 00 00 00 00 |................|
|00 00 00 00 01 01 00 00 03 04 01 00 00 00 00 00 |................|
|00 00 00 00 00 00 00 00 00 00 0B DD 80 00 00 01 |................|
|00 03 2E 56 22 B9 09 57 61 72 20 43 72 65 73 74 |...V"..War Crest|
|00 32 00 00 00 00 00 00 00 00 00 00 00 00 00 00 |.2..............|
|00 00 00 00 06 03 00 00 17 70 00 00 59 45 29 22 |.........p..YE)"|
|D5 00 00 00 00 00 00 00 00 1F 00 28 50 00 00 01 |...........(P...|
|01 00 00 00 00 00 00 00 00 00 00 00 00 09 60 00 |..............`.|
|01 00 01 00 00 10 92 00 00 00 00 00 00 00 00 17 |................|
|48 61 77 6B 65 79 65 27 73 20 52 69 6E 67 20 6F |Hawkeye's Ring o|
|66 20 50 6F 77 65 72 06 0F 00 5E 00 00 00 00 00 |f Power...^.....|
|0E 00 5E 00 00 00 00 00 10 00 5E 00 00 00 00 00 |..^.......^.....|
|08 00 1A 00 00 00 00 00 07 00 27 00 00 00 00 00 |..........'.....|
|51 00 1E 00 00 00 00 00 00 00 00 00 00 00 01 01 |Q...............|
|00 00 03 04 00 00 00 00 00 00 00 00 00 00 00 00 |................|
|00 00 00 00 0B DD 80 00 00 01 00 03 2E 56 22 B9 |.............V".|
|09 57 61 72 20 43 72 65 73 74 00 32 00 00 00 00 |.War Crest.2....|
|00 00 00 00 00 00 00 00 00 00 00 00 00 00 07 03 |................|
|00 00 17 70 00 00 59 45 2A 03 C3 00 00 00 00 00 |...p..YE*.......|
|00 00 00 1F 00 28 50 00 00 01 01 00 00 00 00 00 |.....(P.........|
|00 00 00 00 00 00 00 09 60 00 01 00 01 00 00 10 |........`.......|
|92 00 00 00 00 00 00 00 00 1A 4D 61 72 6B 6D 61 |..........Markma|
|6E 27 73 20 42 61 6E 64 20 6F 66 20 41 63 63 75 |n's Band of Accu|
|72 61 63 79 06 0F 00 5E 00 00 00 00 00 0E 00 5E |racy...^.......^|
|00 00 00 00 00 10 00 5E 00 00 00 00 00 07 00 24 |.......^.......$|
|00 00 00 00 00 08 00 20 00 00 00 00 00 05 00 0C |....... ........|
|00 00 00 00 00 00 00 00 00 00 00 01 01 00 00 03 |................|
|04 00 00 00 00 00 00 00 00 00 00 00 00 00 00 00 |................|
|00 0B DD 80 00 00 01 00 03 2E 56 22 B9 09 57 61 |..........V"..Wa|
|72 20 43 72 65 73 74 00 32 00 00 00 00 00 00 00 |r Crest.2.......|
|00 00 00 00 00 00 00 00 00 00 00 08 03 00 00 17 |................|
|70 00 00 59 45 2B 22 D4 00 00 00 00 00 00 00 00 |p..YE+".........|
|1F 00 28 50 00 00 01 01 00 00 00 00 00 00 00 00 |..(P............|
|00 00 00 00 09 60 00 01 00 01 00 00 10 92 00 00 |.....`..........|
|00 00 00 00 00 00 1B 53 63 6F 75 74 27 73 20 53 |.......Scout's S|
|74 72 69 6E 67 20 6F 66 20 44 65 78 74 65 72 69 |tring of Dexteri|
|74 79 06 0F 00 5E 00 00 00 00 00 0E 00 5E 00 00 |ty...^.......^..|
|00 00 00 10 00 5E 00 00 00 00 00 08 00 27 00 00 |.....^.......'..|
|00 00 00 51 00 1E 00 00 00 00 00 06 00 1A 00 00 |...Q............|
|00 00 00 00 00 00 00 00 00 01 01 00 00 03 04 00 |................|
|00 00 00 00 00 00 00 00 00 00 00 00 00 00 00 0B |................|
|DD 80 00 00 01 00 03 2E 56 22 B9 09 57 61 72 20 |........V"..War |
|43 72 65 73 74 00 32 00 00 00 00 00 00 00 00 00 |Crest.2.........|
|00 00 00 00 00 00 00 00 00 09 03 00 00 17 70 00 |..............p.|
|00 59 45 2C 22 C8 00 00 00 00 00 00 00 00 1F 00 |.YE,"...........|
|28 50 00 00 01 01 00 00 00 00 00 00 00 00 00 00 |(P..............|
|00 00 09 60 00 01 00 01 00 00 10 92 00 00 00 00 |...`............|
|00 00 00 00 1D 4D 61 72 74 79 72 27 73 20 43 6C |.....Martyr's Cl|
|69 70 20 6F 66 20 50 65 72 73 65 76 65 72 61 6E |ip of Perseveran|
|63 65 06 0F 00 5E 00 00 00 00 00 0E 00 5E 00 00 |ce...^.......^..|
|00 00 00 10 00 5E 00 00 00 00 00 05 00 25 00 00 |.....^.......%..|
|00 00 00 06 00 25 00 00 00 00 00 57 00 01 00 00 |.....%.....W....|
|00 00 00 00 00 00 00 00 00 01 01 00 00 03 04 00 |................|
|00 00 00 00 00 00 00 00 00 00 00 00 00 00 00 0B |................|
|DD 80 00 00 01 00 03 2E 56 22 B9 09 57 61 72 20 |........V"..War |
|43 72 65 73 74 00 32 00 00 00 00 00 00 00 00 00 |Crest.2.........|
|00 00 00 00 00 00 00 00 00 0A 03 00 00 1B 58 00 |..............X.|
|00 59 45 2D 01 78 00 00 00 00 00 00 00 00 1C 00 |.YE-.x..........|
|28 50 00 00 00 01 00 00 00 00 00 00 00 00 00 00 |(P..............|
|00 00 0A F0 00 01 00 01 00 00 10 92 00 00 00 00 |................|
|00 00 00 00 18 43 6F 75 72 69 65 72 27 73 20 42 |.....Courier's B|
|65 6C 74 20 6F 66 20 45 6E 65 72 67 79 06 0F 00 |elt of Energy...|
|6E 00 00 00 00 00 0E 00 6E 00 00 00 00 00 10 00 |n.......n.......|
|6E 00 00 00 00 00 08 00 2D 00 00 00 00 00 07 00 |n.......-.......|
|2D 00 00 00 00 00 20 00 01 00 00 00 00 00 00 00 |-..... .........|
|00 00 00 00 01 01 00 00 03 04 01 00 00 00 00 00 |................|
|00 00 00 00 00 00 00 00 00 00 0B DD 80 00 00 01 |................|
|00 03 2E 56 22 B9 09 57 61 72 20 43 72 65 73 74 |...V"..War Crest|
|00 32 00 00 00 00 00 00 00 00 00 00 00 00 00 00 |.2..............|
|00 00 00 00 0B 03 00 00 17 70 00 00 59 45 2E 22 |.........p..YE."|
|C9 00 00 00 00 00 00 00 00 1F 00 28 50 00 00 01 |...........(P...|
|01 00 00 00 00 00 00 00 00 00 00 00 00 09 60 00 |..............`.|
|01 00 01 00 00 10 93 00 00 00 00 00 00 00 00 1A |................|
|4C 69 74 65 72 61 74 69 27 73 20 52 69 6E 67 20 |Literati's Ring |
|6F 66 20 49 6E 73 69 67 68 74 06 0F 00 5E 00 00 |of Insight...^..|
|00 00 00 0E 00 5E 00 00 00 00 00 10 00 5E 00 00 |.....^.......^..|
|00 00 00 09 00 25 00 00 00 00 00 06 00 25 00 00 |.....%.......%..|
|00 00 00 58 00 01 00 00 00 00 00 00 00 00 00 00 |...X............|
|00 01 01 00 00 03 04 00 00 00 00 00 00 00 00 00 |................|
|00 00 00 00 00 00 00 0B DD 80 00 00 01 00 03 2E |................|
|56 22 B9 09 57 61 72 20 43 72 65 73 74 00 32 00 |V"..War Crest.2.|
|00 00 00 00 00 00 00 00 00 00 00 00 00 00 00 00 |................|
|00 0C 03 00 00 17 70 00 00 59 45 2F 03 C4 00 00 |......p..YE/....|
|00 00 00 00 00 00 1F 00 28 50 00 00 01 01 00 00 |........(P......|
|00 00 00 00 00 00 00 00 00 00 09 60 00 01 00 01 |...........`....|
|00 00 10 93 00 00 00 00 00 00 00 00 1B 53 63 6F |.............Sco|
|75 74 27 73 20 43 69 72 63 6C 65 20 6F 66 20 44 |ut's Circle of D|
|65 78 74 65 72 69 74 79 06 0F 00 5E 00 00 00 00 |exterity...^....|
|00 0E 00 5E 00 00 00 00 00 10 00 5E 00 00 00 00 |...^.......^....|
|00 06 00 24 00 00 00 00 00 09 00 10 00 00 00 00 |...$............|
|00 05 00 1C 00 00 00 00 00 00 00 00 00 00 00 01 |................|
|01 00 00 03 04 00 00 00 00 00 00 00 00 00 00 00 |................|
|00 00 00 00 00 0B DD 80 00 00 01 00 03 2E 56 22 |..............V"|
|B9 09 57 61 72 20 43 72 65 73 74 00 32 00 00 00 |..War Crest.2...|
|00 00 00 00 00 00 00 00 00 00 00 00 00 00 00 0D |................|
|03 00 00 17 70 00 00 59 45 30 01 9F 00 00 00 00 |....p..YE0......|
|00 00 00 00 1F 00 28 50 00 00 01 01 00 00 00 00 |......(P........|
|00 00 00 00 00 00 00 00 09 60 00 01 00 01 00 00 |.........`......|
|10 93 00 00 00 00 00 00 00 00 1D 53 63 68 6F 6C |...........Schol|
|61 72 27 73 20 4E 65 63 6B 6C 61 63 65 20 6F 66 |ar's Necklace of|
|20 50 6F 74 65 6E 63 79 06 0F 00 5E 00 00 00 00 | Potency...^....|
|00 0E 00 5E 00 00 00 00 00 10 00 5E 00 00 00 00 |...^.......^....|
|00 06 00 24 00 00 00 00 00 52 00 1E 00 00 00 00 |...$.....R......|
|00 09 00 1E 00 00 00 00 00 00 00 00 00 00 00 01 |................|
|01 00 00 03 04 00 00 00 00 00 00 00 00 00 00 00 |................|
|00 00 00 00 00 0B DD 80 00 00 01 00 03 2E 56 22 |..............V"|
|B9 09 57 61 72 20 43 72 65 73 74 00 32 00 00 00 |..War Crest.2...|
|00 00 00 00 00 00 00 00 00 00 00 00 00 00 00 0E |................|
|03 00 00 17 70 00 00 59 45 31 22 C4 00 00 00 00 |....p..YE1".....|
|00 00 00 00 1F 00 28 50 00 00 01 01 00 00 00 00 |......(P........|
|00 00 00 00 00 00 00 00 09 60 00 01 00 01 00 00 |.........`......|
|10 93 00 00 00 00 00 00 00 00 1F 4C 69 74 65 72 |...........Liter|
|61 74 69 27 73 20 42 72 6F 6F 63 68 20 6F 66 20 |ati's Brooch of |
|52 65 73 69 73 74 61 6E 63 65 06 0F 00 5E 00 00 |Resistance...^..|
|00 00 00 0E 00 5E 00 00 00 00 00 10 00 5E 00 00 |.....^.......^..|
|00 00 00 52 00 1E 00 00 00 00 00 09 00 3B 00 00 |...R.........;..|
|00 00 00 1F 00 01 00 00 00 00 00 00 00 00 00 00 |................|
|00 01 01 00 00 03 04 00 00 00 00 00 00 00 00 00 |................|
|00 00 00 00 00 00 00 0B DD 80 00 00 01 00 03 2E |................|
|56 22 B9 09 57 61 72 20 43 72 65 73 74 00 32 00 |V"..War Crest.2.|
|00 00 00 00 00 00 00 00 00 00 00 00 00 00 00 00 |................|
|00 0F 03 00 00 1B 58 00 00 59 45 32 01 78 00 00 |......X..YE2.x..|
|00 00 00 00 00 00 1C 00 28 50 00 00 00 01 00 00 |........(P......|
|00 00 00 00 00 00 00 00 00 00 0A F0 00 01 00 01 |................|
|00 00 10 93 00 00 00 00 00 00 00 00 17 4D 61 72 |.............Mar|
|74 79 72 27 73 20 42 65 6C 74 20 6F 66 20 45 6E |tyr's Belt of En|
|65 72 67 79 06 0F 00 6E 00 00 00 00 00 0E 00 6E |ergy...n.......n|
|00 00 00 00 00 10 00 6E 00 00 00 00 00 05 00 2E |.......n........|
|00 00 00 00 00 06 00 2D 00 00 00 00 00 20 00 01 |.......-..... ..|
|00 00 00 00 00 00 00 00 00 00 00 01 01 00 00 03 |................|
|04 01 00 00 00 00 00 00 00 00 00 00 00 00 00 00 |................|
|00 0B DD 80 00 00 01 00 03 2E 56 22 B9 09 57 61 |..........V"..Wa|
|72 20 43 72 65 73 74 00 32 00 00 00 00 00 00 00 |r Crest.2.......|
|00 00 00 00 00 00 00 00 00 00 00 10 03 00 00 17 |................|
|70 00 00 59 45 33 03 C5 00 00 00 00 00 00 00 00 |p..YE3..........|
|1F 00 28 50 00 00 01 01 00 00 00 00 00 00 00 00 |..(P............|
|00 00 00 00 09 60 00 01 00 01 00 00 10 94 00 00 |.....`..........|
|00 00 00 00 00 00 15 53 61 67 65 27 73 20 52 69 |.......Sage's Ri|
|6E 67 20 6F 66 20 48 65 61 6C 74 68 06 0F 00 5E |ng of Health...^|
|00 00 00 00 00 0E 00 5E 00 00 00 00 00 10 00 5E |.......^.......^|
|00 00 00 00 00 03 00 27 00 00 00 00 00 5E 00 1E |.......'.....^..|
|00 00 00 00 00 05 00 1A 00 00 00 00 00 00 00 00 |................|
|00 00 00 01 01 00 00 03 04 00 00 00 00 00 00 00 |................|
|00 00 00 00 00 00 00 00 00 0B DD 80 00 00 01 00 |................|
|03 2E 56 22 B9 09 57 61 72 20 43 72 65 73 74 00 |..V"..War Crest.|
|32 00 00 00 00 00 00 00 00 00 00 00 00 00 00 00 |2...............|
|00 00 00 11 03 00 00 17 70 00 00 59 45 34 22 C1 |........p..YE4".|
|00 00 00 00 00 00 00 00 1F 00 28 50 00 00 01 01 |..........(P....|
|00 00 00 00 00 00 00 00 00 00 00 00 09 60 00 01 |.............`..|
|00 01 00 00 10 94 00 00 00 00 00 00 00 00 1D 57 |...............W|
|61 72 64 65 6E 27 73 20 43 69 72 63 6C 65 20 6F |arden's Circle o|
|66 20 44 69 73 63 69 70 6C 69 6E 65 06 0F 00 5E |f Discipline...^|
|00 00 00 00 00 0E 00 5E 00 00 00 00 00 10 00 5E |.......^.......^|
|00 00 00 00 00 03 00 25 00 00 00 00 00 06 00 25 |.......%.......%|
|00 00 00 00 00 1F 00 01 00 00 00 00 00 00 00 00 |................|
|00 00 00 01 01 00 00 03 04 00 00 00 00 00 00 00 |................|
|00 00 00 00 00 00 00 00 00 0B DD 80 00 00 01 00 |................|
|03 2E 56 22 B9 09 57 61 72 20 43 72 65 73 74 00 |..V"..War Crest.|
|32 00 00 00 00 00 00 00 00 00 00 00 00 00 00 00 |2...............|
|00 00 00 12 03 00 00 17 70 00 00 59 45 35 03 BF |........p..YE5..|
|00 00 00 00 00 00 00 00 1F 00 28 50 00 00 01 01 |..........(P....|
|00 00 00 00 00 00 00 00 00 00 00 00 09 60 00 01 |.............`..|
|00 01 00 00 10 94 00 00 00 00 00 00 00 00 1F 45 |...............E|
|6D 70 61 74 68 27 73 20 4C 6F 63 6B 65 74 20 6F |mpath's Locket o|
|66 20 50 65 72 73 65 76 65 72 61 6E 63 65 06 0F |f Perseverance..|
|00 5E 00 00 00 00 00 0E 00 5E 00 00 00 00 00 10 |.^.......^......|
|00 5E 00 00 00 00 00 5E 00 1E 00 00 00 00 00 03 |.^.....^........|
|00 27 00 00 00 00 00 05 00 1A 00 00 00 00 00 00 |.'..............|
|00 00 00 00 00 01 01 00 00 03 04 00 00 00 00 00 |................|
|00 00 00 00 00 00 00 00 00 00 00 0B DD 80 00 00 |................|
|01 00 03 2E 56 22 B9 09 57 61 72 20 43 72 65 73 |....V"..War Cres|
|74 00 32 00 00 00 00 00 00 00 00 00 00 00 00 00 |t.2.............|
|00 00 00 00 00 13 03 00 00 17 70 00 00 59 45 36 |..........p..YE6|
|22 C5 00 00 00 00 00 00 00 00 1F 00 28 50 00 00 |"...........(P..|
|01 01 00 00 00 00 00 00 00 00 00 00 00 00 09 60 |...............`|
|00 01 00 01 00 00 10 94 00 00 00 00 00 00 00 00 |................|
|17 53 61 67 65 27 73 20 43 68 61 72 6D 20 6F 66 |.Sage's Charm of|
|20 52 65 73 6F 6C 76 65 06 0F 00 5E 00 00 00 00 | Resolve...^....|
|00 0E 00 5E 00 00 00 00 00 10 00 5E 00 00 00 00 |...^.......^....|
|00 03 00 2B 00 00 00 00 00 04 00 23 00 00 00 00 |...+.......#....|
|00 21 00 01 00 00 00 00 00 00 00 00 00 00 00 01 |.!..............|
|01 00 00 03 04 00 00 00 00 00 00 00 00 00 00 00 |................|
|00 00 00 00 00 0B DD 80 00 00 01 00 03 2E 56 22 |..............V"|
|B9 09 57 61 72 20 43 72 65 73 74 00 32 00 00 00 |..War Crest.2...|
|00 00 00 00 00 00 00 00 00 00 00 00 00 00 00 14 |................|
|03 00 00 1B 58 00 00 59 45 37 01 78 00 00 00 00 |....X..YE7.x....|
|00 00 00 00 1C 00 28 50 00 00 00 01 00 00 00 00 |......(P........|
|00 00 00 00 00 00 00 00 0A F0 00 01 00 01 00 00 |................|
|10 94 00 00 00 00 00 00 00 00 1D 44 65 66 65 6E |...........Defen|
|64 65 72 27 73 20 42 65 6C 74 20 6F 66 20 44 69 |der's Belt of Di|
|73 63 69 70 6C 69 6E 65 06 0F 00 6E 00 00 00 00 |scipline...n....|
|00 0E 00 6E 00 00 00 00 00 10 00 6E 00 00 00 00 |...n.......n....|
|00 03 00 32 00 00 00 00 00 05 00 29 00 00 00 00 |...2.......)....|
|00 20 00 01 00 00 00 00 00 00 00 00 00 00 00 01 |. ..............|
|01 00 00 03 04 01 00 00 00 00 00 00 00 00 00 00 |................|
|00 00 00 00 00 0B DD 80 00 00 01 00 03 2E 56 22 |..............V"|
|B9 09 57 61 72 20 43 72 65 73 74 00 32 00 00 00 |..War Crest.2...|
|00 00 00 00 00 00 00 00 00 00 00 00 00 00 00 15 |................|
|03 00 00 17 70 00 00 59 45 38 03 C6 00 00 00 00 |....p..YE8......|
|00 00 00 00 1F 00 28 50 00 00 01 01 00 00 00 00 |......(P........|
|00 00 00 00 00 00 00 00 09 60 00 01 00 01 00 00 |.........`......|
|10 95 00 00 00 00 00 00 00 00 1C 4D 61 72 74 79 |...........Marty|
|72 27 73 20 42 61 6E 64 20 6F 66 20 74 68 65 20 |r's Band of the |
|50 68 61 6C 61 6E 78 06 0F 00 5E 00 00 00 00 00 |Phalanx...^.....|
|0E 00 5E 00 00 00 00 00 10 00 5E 00 00 00 00 00 |..^.......^.....|
|05 00 21 00 00 00 00 00 06 00 21 00 00 00 00 00 |..!.......!.....|
|60 00 1E 00 00 00 00 00 00 00 00 00 00 00 01 01 |`...............|
|00 00 03 04 00 00 00 00 00 00 00 00 00 00 00 00 |................|
|00 00 00 00 0B DD 80 00 00 01 00 03 2E 56 22 B9 |.............V".|
|09 57 61 72 20 43 72 65 73 74 00 32 00 00 00 00 |.War Crest.2....|
|00 00 00 00 00 00 00 00 00 00 00 00 00 00 16 03 |................|
|00 00 17 70 00 00 59 45 39 22 D7 00 00 00 00 00 |...p..YE9"......|
|00 00 00 1F 00 28 50 00 00 01 01 00 00 00 00 00 |.....(P.........|
|00 00 00 00 00 00 00 09 60 00 01 00 01 00 00 10 |........`.......|
|95 00 00 00 00 00 00 00 00 1F 44 65 66 65 6E 64 |..........Defend|
|65 72 27 73 20 52 69 6E 67 20 6F 66 20 50 65 72 |er's Ring of Per|
|73 65 76 65 72 61 6E 63 65 06 0F 00 5E 00 00 00 |severance...^...|
|00 00 0E 00 5E 00 00 00 00 00 10 00 5E 00 00 00 |....^.......^...|
|00 00 04 00 24 00 00 00 00 00 06 00 20 00 00 00 |....$....... ...|
|00 00 05 00 0C 00 00 00 00 00 00 00 00 00 00 00 |................|
|01 01 00 00 03 04 00 00 00 00 00 00 00 00 00 00 |................|
|00 00 00 00 00 00 0B DD 80 00 00 01 00 03 2E 56 |...............V|
|22 B9 09 57 61 72 20 43 72 65 73 74 00 32 00 00 |"..War Crest.2..|
|00 00 00 00 00 00 00 00 00 00 00 00 00 00 00 00 |................|
|17 03 00 00 17 70 00 00 59 45 3A 03 17 00 00 00 |.....p..YE:.....|
|00 00 00 00 00 1F 00 28 50 00 00 01 01 00 00 00 |.......(P.......|
|00 00 00 00 00 00 00 00 00 09 60 00 01 00 01 00 |..........`.....|
|00 10 95 00 00 00 00 00 00 00 00 22 53 68 69 65 |..........."Shie|
|6C 64 62 65 61 72 65 72 27 73 20 43 68 6F 6B 65 |ldbearer's Choke|
|72 20 6F 66 20 44 65 78 74 65 72 69 74 79 06 0F |r of Dexterity..|
|00 5E 00 00 00 00 00 0E 00 5E 00 00 00 00 00 10 |.^.......^......|
|00 5E 00 00 00 00 00 06 00 25 00 00 00 00 00 04 |.^.......%......|
|00 25 00 00 00 00 00 1C 00 01 00 00 00 00 00 00 |.%..............|
|00 00 00 00 00 01 01 00 00 03 04 00 00 00 00 00 |................|
|00 00 00 00 00 00 00 00 00 00 00 0B DD 80 00 00 |................|
|01 00 03 2E 56 22 B9 09 57 61 72 20 43 72 65 73 |....V"..War Cres|
|74 00 32 00 00 00 00 00 00 00 00 00 00 00 00 00 |t.2.............|
|00 00 00 00 00 18 03 00 00 17 70 00 00 59 45 3B |..........p..YE;|
|22 C6 00 00 00 00 00 00 00 00 1F 00 28 50 00 00 |"...........(P..|
|01 01 00 00 00 00 00 00 00 00 00 00 00 00 09 60 |...............`|
|00 01 00 01 00 00 10 95 00 00 00 00 00 00 00 00 |................|
|1A 44 65 66 65 6E 64 65 72 27 73 20 50 69 6E 20 |.Defender's Pin |
|6F 66 20 56 6F 6C 69 74 69 6F 6E 06 0F 00 5E 00 |of Volition...^.|
|00 00 00 00 0E 00 5E 00 00 00 00 00 10 00 5E 00 |......^.......^.|
|00 00 00 00 04 00 24 00 00 00 00 00 05 00 18 00 |......$.........|
|00 00 00 00 06 00 14 00 00 00 00 00 00 00 00 00 |................|
|00 00 01 01 00 00 03 04 00 00 00 00 00 00 00 00 |................|
|00 00 00 00 00 00 00 00 0B DD 80 00 00 01 00 03 |................|
|2E 56 22 B9 09 57 61 72 20 43 72 65 73 74 00 32 |.V"..War Crest.2|
|00 00 00 00 00 00 00 00 00 00 00 00 00 00 00 00 |................|
|00 00 19 03 00 00 1B 58 00 00 59 45 3C 01 78 00 |.......X..YE<.x.|
|00 00 00 00 00 00 00 1C 00 28 50 00 00 00 01 00 |.........(P.....|
|00 00 00 00 00 00 00 00 00 00 00 0A F0 00 01 00 |................|
|01 00 00 10 95 00 00 00 00 00 00 00 00 1A 53 65 |..............Se|
|6E 74 72 79 27 73 20 42 65 6C 74 20 6F 66 20 56 |ntry's Belt of V|
|69 67 69 6C 61 6E 63 65 06 0F 00 6E 00 00 00 00 |igilance...n....|
|00 0E 00 6E 00 00 00 00 00 10 00 6E 00 00 00 00 |...n.......n....|
|00 05 00 2C 00 00 00 00 00 54 00 01 00 00 00 00 |...,.....T......|
|00 04 00 2C 00 00 00 00 00 00 00 00 00 00 00 01 |...,............|
|01 00 00 03 04 01 00 00 00 00 00 00 00 00 00 00 |................|
|00 00 00 00 00 0B DD 80 00 00 01 00 03 2E 56 22 |..............V"|
|B9 09 57 61 72 20 43 72 65 73 74 00 32 00 00 00 |..War Crest.2...|
|00 00 00 00 00 00 00 00 00 00 00 00 00 00 00 00 |................|                                                
-------------------------------------------------------------------
[Client] packet : (0xC8) F_INTERFACE_COMMAND  Size = 18 
|------------------------------------------------|----------------|
|00 01 02 03 04 05 06 07 08 09 0A 0B 0C 0D 0E 0F |0123456789ABCDEF|
|------------------------------------------------|----------------|
|00 06 06 EA 00 2F FF FF 00 C8 05 00 10 91 00 00 |...../..........|
|00 00                                           |..              |
-------------------------------------------------------------------
[Client] packet : (0xC8) F_INTERFACE_COMMAND  Size = 18 
|------------------------------------------------|----------------|
|00 01 02 03 04 05 06 07 08 09 0A 0B 0C 0D 0E 0F |0123456789ABCDEF|
|------------------------------------------------|----------------|
|00 06 06 EB 00 2F FF FF 00 C8 05 00 10 92 00 00 |...../..........|
|E5 F6                                           |..              |
-------------------------------------------------------------------
[Client] packet : (0xC8) F_INTERFACE_COMMAND  Size = 18 
|------------------------------------------------|----------------|
|00 01 02 03 04 05 06 07 08 09 0A 0B 0C 0D 0E 0F |0123456789ABCDEF|
|------------------------------------------------|----------------|
|00 06 06 EC 00 2F FF FF 00 C8 05 00 10 93 00 00 |...../..........|
|8A 93                                           |..              |
-------------------------------------------------------------------
[Client] packet : (0xC8) F_INTERFACE_COMMAND  Size = 18 
|------------------------------------------------|----------------|
|00 01 02 03 04 05 06 07 08 09 0A 0B 0C 0D 0E 0F |0123456789ABCDEF|
|------------------------------------------------|----------------|
|00 06 06 ED 00 2F FF FF 00 C8 05 00 10 94 00 00 |...../..........|
|C4 1B                                           |..              |
-------------------------------------------------------------------
[Client] packet : (0xC8) F_INTERFACE_COMMAND  Size = 18 
|------------------------------------------------|----------------|
|00 01 02 03 04 05 06 07 08 09 0A 0B 0C 0D 0E 0F |0123456789ABCDEF|
|------------------------------------------------|----------------|
|00 06 06 EE 00 2F FF FF 00 C8 05 00 10 95 00 00 |...../..........|
|62 A0                                           |..              |
-------------------------------------------------------------------
[Server] packet : (0xC0) F_STORE_BUY_BACK  Size = 5 
|------------------------------------------------|----------------|
|00 01 02 03 04 05 06 07 08 09 0A 0B 0C 0D 0E 0F |0123456789ABCDEF|
|------------------------------------------------|----------------|
|00 02 C0 00 00                                  |.....           |
-------------------------------------------------------------------
[Server] packet : (0xD1) F_ITEM_SET_DATA  Size = 177 
|------------------------------------------------|----------------|
|00 01 02 03 04 05 06 07 08 09 0A 0B 0C 0D 0E 0F |0123456789ABCDEF|
|------------------------------------------------|----------------|
|00 AE D1 00 00 10 91 0E 53 6B 69 72 6D 69 73 68 |........Skirmish|
|65 72 20 4B 69 74 50 05 00 59 45 24 17 57 61 72 |er KitP..YE$.War|
|72 69 6F 72 27 73 20 42 61 6E 64 20 6F 66 20 4D |rior's Band of M|
|69 67 68 74 00 59 45 25 1B 47 6C 61 64 69 61 74 |ight.YE%.Gladiat|
|6F 72 27 73 20 43 69 72 63 6C 65 20 6F 66 20 42 |or's Circle of B|
|72 61 77 6E 00 59 45 26 19 44 75 65 6C 69 73 74 |rawn.YE&.Duelist|
|27 73 20 43 68 6F 6B 65 72 20 6F 66 20 53 6B 69 |'s Choker of Ski|
|6C 6C 00 59 45 27 16 57 61 72 72 69 6F 72 27 73 |ll.YE'.Warrior's|
|20 50 69 6E 20 6F 66 20 4D 69 67 68 74 00 59 45 | Pin of Might.YE|
|28 19 53 63 6F 75 74 27 73 20 42 65 6C 74 20 6F |(.Scout's Belt o|
|66 20 44 65 78 74 65 72 69 74 79 01 24 4C 00 04 |f Dexterity.$L..|
|00                                              |.               |
-------------------------------------------------------------------
[Server] packet : (0xD1) F_ITEM_SET_DATA  Size = 179 
|------------------------------------------------|----------------|
|00 01 02 03 04 05 06 07 08 09 0A 0B 0C 0D 0E 0F |0123456789ABCDEF|
|------------------------------------------------|----------------|
|00 B0 D1 00 00 10 92 09 42 6C 61 73 74 20 4B 69 |........Blast Ki|
|74 50 05 00 59 45 29 17 48 61 77 6B 65 79 65 27 |tP..YE).Hawkeye'|
|73 20 52 69 6E 67 20 6F 66 20 50 6F 77 65 72 00 |s Ring of Power.|
|59 45 2A 1A 4D 61 72 6B 6D 61 6E 27 73 20 42 61 |YE*.Markman's Ba|
|6E 64 20 6F 66 20 41 63 63 75 72 61 63 79 00 59 |nd of Accuracy.Y|
|45 2B 1B 53 63 6F 75 74 27 73 20 53 74 72 69 6E |E+.Scout's Strin|
|67 20 6F 66 20 44 65 78 74 65 72 69 74 79 00 59 |g of Dexterity.Y|
|45 2C 1D 4D 61 72 74 79 72 27 73 20 43 6C 69 70 |E,.Martyr's Clip|
|20 6F 66 20 50 65 72 73 65 76 65 72 61 6E 63 65 | of Perseverance|
|00 59 45 2D 18 43 6F 75 72 69 65 72 27 73 20 42 |.YE-.Courier's B|
|65 6C 74 20 6F 66 20 45 6E 65 72 67 79 01 24 4D |elt of Energy.$M|
|00 04 00                                        |...             |
-------------------------------------------------------------------
[Server] packet : (0xD1) F_ITEM_SET_DATA  Size = 191 
|------------------------------------------------|----------------|
|00 01 02 03 04 05 06 07 08 09 0A 0B 0C 0D 0E 0F |0123456789ABCDEF|
|------------------------------------------------|----------------|
|00 BC D1 00 00 10 93 0E 53 70 65 6C 6C 62 6F 75 |........Spellbou|
|6E 64 20 4B 69 74 50 05 00 59 45 2E 1A 4C 69 74 |nd KitP..YE..Lit|
|65 72 61 74 69 27 73 20 52 69 6E 67 20 6F 66 20 |erati's Ring of |
|49 6E 73 69 67 68 74 00 59 45 2F 1B 53 63 6F 75 |Insight.YE/.Scou|
|74 27 73 20 43 69 72 63 6C 65 20 6F 66 20 44 65 |t's Circle of De|
|78 74 65 72 69 74 79 00 59 45 30 1D 53 63 68 6F |xterity.YE0.Scho|
|6C 61 72 27 73 20 4E 65 63 6B 6C 61 63 65 20 6F |lar's Necklace o|
|66 20 50 6F 74 65 6E 63 79 00 59 45 31 1F 4C 69 |f Potency.YE1.Li|
|74 65 72 61 74 69 27 73 20 42 72 6F 6F 63 68 20 |terati's Brooch |
|6F 66 20 52 65 73 69 73 74 61 6E 63 65 00 59 45 |of Resistance.YE|
|32 17 4D 61 72 74 79 72 27 73 20 42 65 6C 74 20 |2.Martyr's Belt |
|6F 66 20 45 6E 65 72 67 79 01 24 4E 00 04 00    |............... |
-------------------------------------------------------------------
[Server] packet : (0xD1) F_ITEM_SET_DATA  Size = 185 
|------------------------------------------------|----------------|
|00 01 02 03 04 05 06 07 08 09 0A 0B 0C 0D 0E 0F |0123456789ABCDEF|
|------------------------------------------------|----------------|
|00 B6 D1 00 00 10 94 0B 4D 65 6E 64 69 6E 67 20 |........Mending |
|4B 69 74 50 05 00 59 45 33 15 53 61 67 65 27 73 |KitP..YE3.Sage's|
|20 52 69 6E 67 20 6F 66 20 48 65 61 6C 74 68 00 | Ring of Health.|
|59 45 34 1D 57 61 72 64 65 6E 27 73 20 43 69 72 |YE4.Warden's Cir|
|63 6C 65 20 6F 66 20 44 69 73 63 69 70 6C 69 6E |cle of Disciplin|
|65 00 59 45 35 1F 45 6D 70 61 74 68 27 73 20 4C |e.YE5.Empath's L|
|6F 63 6B 65 74 20 6F 66 20 50 65 72 73 65 76 65 |ocket of Perseve|
|72 61 6E 63 65 00 59 45 36 17 53 61 67 65 27 73 |rance.YE6.Sage's|
|20 43 68 61 72 6D 20 6F 66 20 52 65 73 6F 6C 76 | Charm of Resolv|
|65 00 59 45 37 1D 44 65 66 65 6E 64 65 72 27 73 |e.YE7.Defender's|
|20 42 65 6C 74 20 6F 66 20 44 69 73 63 69 70 6C | Belt of Discipl|
|69 6E 65 01 24 59 00 04 00                      |.........       |
-------------------------------------------------------------------
[Server] packet : (0xD1) F_ITEM_SET_DATA  Size = 200 
|------------------------------------------------|----------------|
|00 01 02 03 04 05 06 07 08 09 0A 0B 0C 0D 0E 0F |0123456789ABCDEF|
|------------------------------------------------|----------------|
|00 C5 D1 00 00 10 95 0E 44 65 66 65 6E 64 65 72 |........Defender|
|27 73 20 4B 69 74 50 05 00 59 45 38 1C 4D 61 72 |'s KitP..YE8.Mar|
|74 79 72 27 73 20 42 61 6E 64 20 6F 66 20 74 68 |tyr's Band of th|
|65 20 50 68 61 6C 61 6E 78 00 59 45 39 1F 44 65 |e Phalanx.YE9.De|
|66 65 6E 64 65 72 27 73 20 52 69 6E 67 20 6F 66 |fender's Ring of|
|20 50 65 72 73 65 76 65 72 61 6E 63 65 00 59 45 | Perseverance.YE|
|3A 22 53 68 69 65 6C 64 62 65 61 72 65 72 27 73 |:"Shieldbearer's|
|20 43 68 6F 6B 65 72 20 6F 66 20 44 65 78 74 65 | Choker of Dexte|
|72 69 74 79 00 59 45 3B 1A 44 65 66 65 6E 64 65 |rity.YE;.Defende|
|72 27 73 20 50 69 6E 20 6F 66 20 56 6F 6C 69 74 |r's Pin of Volit|
|69 6F 6E 00 59 45 3C 1A 53 65 6E 74 72 79 27 73 |ion.YE<.Sentry's|
|20 42 65 6C 74 20 6F 66 20 56 69 67 69 6C 61 6E | Belt of Vigilan|
|63 65 01 24 54 00 04 00                         |........        |
-------------------------------------------------------------------
[Client] packet : (0x01) UNKNOWN  Size = 32 
|------------------------------------------------|----------------|
|00 01 02 03 04 05 06 07 08 09 0A 0B 0C 0D 0E 0F |0123456789ABCDEF|
|------------------------------------------------|----------------|
|00 14 06 F1 00 2F 00 00 00 01 00 05 EF E1 00 00 |...../..........|
|00 00 00 00 00 00 00 00 00 86 00 00 28 BB 87 72 |............(..r|                                                
-------------------------------------------------------------------
[Server] packet : (0x00) UNKNOWN  Size = 23 
|------------------------------------------------|----------------|
|00 01 02 03 04 05 06 07 08 09 0A 0B 0C 0D 0E 0F |0123456789ABCDEF|
|------------------------------------------------|----------------|
|00 14 00 00 05 EF E1 83 73 EC 36 00 00 00 00 00 |........s.6.....|
|00 00 86 00 00 28 00                            |.......         |
-------------------------------------------------------------------
[Client] packet : (0x0B) F_PING  Size = 32 
|------------------------------------------------|----------------|
|00 01 02 03 04 05 06 07 08 09 0A 0B 0C 0D 0E 0F |0123456789ABCDEF|
|------------------------------------------------|----------------|
|00 14 06 F5 00 2F 00 00 00 0B 00 05 FF 26 A1 EF |...../.......&..|
|7F FF 0F 7F C1 FA 00 00 00 00 00 00 00 00 6F 58 |..............oX|                                                
-------------------------------------------------------------------
[Server] packet : (0x81) S_PONG  Size = 23 
|------------------------------------------------|----------------|
|00 01 02 03 04 05 06 07 08 09 0A 0B 0C 0D 0E 0F |0123456789ABCDEF|
|------------------------------------------------|----------------|
|00 14 81 00 05 FF 26 52 77 48 AD 00 00 00 00 00 |......&RwH......|
|00 06 F6 00 00 00 00                            |.......         |
-------------------------------------------------------------------
[Client] packet : (0x86) F_MAIL  Size = 16 
|------------------------------------------------|----------------|
|00 01 02 03 04 05 06 07 08 09 0A 0B 0C 0D 0E 0F |0123456789ABCDEF|
|------------------------------------------------|----------------|
|00 04 06 F7 00 2F FF FF 00 86 00 00 00 00 00 00 |...../..........|                                                
-------------------------------------------------------------------