
[Server] packet : (0x51) F_ANIMATION  Size = 9 
|------------------------------------------------|----------------|
|00 01 02 03 04 05 06 07 08 09 0A 0B 0C 0D 0E 0F |0123456789ABCDEF|
|------------------------------------------------|----------------|
|00 06 51 01 3B 00 AC 00 00                      |.........       |
-------------------------------------------------------------------
[Client] packet : (0x01) UNKNOWN  Size = 32 
|------------------------------------------------|----------------|
|00 01 02 03 04 05 06 07 08 09 0A 0B 0C 0D 0E 0F |0123456789ABCDEF|
|------------------------------------------------|----------------|
|00 14 5C 5A 00 DD 00 00 00 01 00 53 47 D0 00 00 |..\Z.......SG...|
|00 00 00 00 00 00 00 00 42 4A 00 00 20 80 E2 59 |........BJ.. ..Y|                                                
-------------------------------------------------------------------
[Server] packet : (0x00) UNKNOWN  Size = 23 
|------------------------------------------------|----------------|
|00 01 02 03 04 05 06 07 08 09 0A 0B 0C 0D 0E 0F |0123456789ABCDEF|
|------------------------------------------------|----------------|
|00 14 00 00 53 47 D0 AA D9 AA 21 00 00 00 00 00 |....SG....!.....|
|00 42 4A 00 00 20 00                            |.......         |
-------------------------------------------------------------------
[Server] packet : (0x51) F_ANIMATION  Size = 9 
|------------------------------------------------|----------------|
|00 01 02 03 04 05 06 07 08 09 0A 0B 0C 0D 0E 0F |0123456789ABCDEF|
|------------------------------------------------|----------------|
|00 06 51 01 3C 00 B0 00 00                      |.........       |
-------------------------------------------------------------------
[Client] packet : (0x37) F_GROUP_COMMAND  Size = 20 
|------------------------------------------------|----------------|
|00 01 02 03 04 05 06 07 08 09 0A 0B 0C 0D 0E 0F |0123456789ABCDEF|
|------------------------------------------------|----------------|
|00 08 5C 60 00 DD FF FF 00 37 00 00 00 00 06 00 |..\`.....7......|
|00 00 00 00                                     |....            |
-------------------------------------------------------------------
[Client] packet : (0x5A) F_PING_DATAGRAM  Size = 13 
|------------------------------------------------|----------------|
|00 01 02 03 04 05 06 07 08 09 0A 0B 0C 0D 0E 0F |0123456789ABCDEF|
|------------------------------------------------|----------------|
|00 01 5C 68 00 DD FF FF 00 5A 00 58 4F          |.............   |
-------------------------------------------------------------------
[Server] packet : (0x51) F_ANIMATION  Size = 9 
|------------------------------------------------|----------------|
|00 01 02 03 04 05 06 07 08 09 0A 0B 0C 0D 0E 0F |0123456789ABCDEF|
|------------------------------------------------|----------------|
|00 06 51 0D 2B 00 6C 00 00                      |.........       |
-------------------------------------------------------------------
[Server] packet : (0x1D) F_GUILD_DATA  Size = 29 
|------------------------------------------------|----------------|
|00 01 02 03 04 05 06 07 08 09 0A 0B 0C 0D 0E 0F |0123456789ABCDEF|
|------------------------------------------------|----------------|
|00 1A 1D 03 00 00 00 00 23 16 AA CE C8 18 8E 9F |........#.......|
|00 00 00 00 00 03 1B FE 9B 00 04 77 00          |.............   |
-------------------------------------------------------------------
[Server] packet : (0x95) UNKNOWN  Size = 110 
|------------------------------------------------|----------------|
|00 01 02 03 04 05 06 07 08 09 0A 0B 0C 0D 0E 0F |0123456789ABCDEF|
|------------------------------------------------|----------------|
|00 6B 95 04 06 89 5A 19 00 CB 5E 03 00 96 21 12 |.k....Z...^...!.|
|00 EC 2D 09 00 F8 A9 21 00 20 42 20 00 14 83 64 |..-....!. B ...d|
|19 00 21 15 1C 00 CB 5E 03 00 42 F0 16 00 54 BC |..!....^..B...T.|
|01 00 F6 69 19 00 AF 6E 1A 00 0B 1E 1A 00 1F B1 |...i...n........|
|25 00 25 98 22 00 F8 A9 21 00 90 85 02 00 4E 65 |%.%."...!.....Ne|
|13 00 9B 14 22 00 89 5A 19 00 DD A0 19 00 4D 91 |...."..Z......M.|
|1B 00 E7 85 1A 00 D9 D1 0D 00 EC 2D 09 00       |..............  |
-------------------------------------------------------------------
[Client] packet : (0x01) UNKNOWN  Size = 32 
|------------------------------------------------|----------------|
|00 01 02 03 04 05 06 07 08 09 0A 0B 0C 0D 0E 0F |0123456789ABCDEF|
|------------------------------------------------|----------------|
|00 14 5C 86 00 DD 00 00 00 01 00 53 97 13 00 23 |..\........S...#|
|39 B0 08 18 C0 4A 20 07 2E E8 90 38 7E 7E 32 52 |9....J ....8~~2R|                                                
-------------------------------------------------------------------
[Client] packet : (0x5A) F_PING_DATAGRAM  Size = 13 
|------------------------------------------------|----------------|
|00 01 02 03 04 05 06 07 08 09 0A 0B 0C 0D 0E 0F |0123456789ABCDEF|
|------------------------------------------------|----------------|
|00 01 5C 87 00 DD FF FF 00 5A 00 41 47          |.............   |
-------------------------------------------------------------------
[Server] packet : (0x00) UNKNOWN  Size = 23 
|------------------------------------------------|----------------|
|00 01 02 03 04 05 06 07 08 09 0A 0B 0C 0D 0E 0F |0123456789ABCDEF|
|------------------------------------------------|----------------|
|00 14 00 00 53 97 13 AA D9 F9 7D 00 00 00 00 20 |....S.....}.... |
|07 2E E8 90 38 7E 00                            |.......         |
-------------------------------------------------------------------
[Server] packet : (0xA9) F_UPDATE_HOT_SPOT  Size = 406 
|------------------------------------------------|----------------|
|00 01 02 03 04 05 06 07 08 09 0A 0B 0C 0D 0E 0F |0123456789ABCDEF|
|------------------------------------------------|----------------|
|01 93 A9 50 02 00 01 00 00 00 00 02 00 00 00 00 |...P............|
|03 00 00 00 00 04 00 00 00 00 05 00 00 00 00 06 |................|
|00 00 00 00 07 00 00 00 00 08 00 00 00 00 09 00 |................|
|00 00 00 0A 00 00 00 00 0B 00 00 00 00 1A 00 00 |................|
|00 00 1B 00 00 00 00 44 00 00 00 00 46 00 00 00 |.......D....F...|
|00 47 00 00 00 00 4A 00 00 00 00 4B 00 00 00 00 |.G....J....K....|
|58 00 00 00 00 64 00 00 00 00 65 00 00 00 00 66 |X....d....e....f|
|00 00 00 00 67 00 00 00 00 68 00 00 00 00 69 00 |....g....h....i.|
|00 00 00 6A 01 00 00 00 6B 00 00 00 00 6C 00 00 |...j....k....l..|
|00 00 6D 00 00 00 00 6E 00 00 00 00 75 00 00 00 |..m....n....u...|
|00 76 00 00 00 00 78 00 00 00 00 81 00 00 00 00 |.v....x.........|
|90 00 00 00 00 91 00 00 00 00 A1 00 00 00 00 A2 |................|
|00 00 00 00 AF 00 00 00 00 B2 00 00 00 00 BE 00 |................|
|00 00 00 BF 00 00 00 00 C0 00 00 00 00 C1 00 00 |................|
|00 00 C6 00 00 00 00 C8 00 00 00 00 C9 00 00 00 |................|
|00 CA 00 00 00 00 CB 01 00 04 00 CC 00 00 00 00 |................|
|CD 00 00 00 00 CE 00 00 00 00 CF 00 00 00 00 D0 |................|
|00 00 00 00 D1 00 00 00 00 D2 00 00 00 00 D3 00 |................|
|00 00 00 D5 00 00 00 00 D7 00 00 00 00 D8 00 00 |................|
|00 00 D9 00 00 00 00 DC 00 00 00 00 DD 00 00 00 |................|
|00 DE 00 00 00 00 E3 00 00 00 00 E4 00 00 00 00 |................|
|FA 00 00 00 00 FB 00 00 00 00 FC 00 00 00 00 FD |................|
|00 00 00 01 15 00 00 00 01 16 00 00 00 01 18 00 |................|
|00 00 01 1B 00 00 00 01 1C 00 00 00 01 1D 00 00 |................|
|00 01 1F 00 00 00 01 22 00 00 00 01 23 00 00 00 |......."....#...|
|01 24 00 00 00 00                               |......          |
-------------------------------------------------------------------
[Server] packet : (0x6F) F_LOCALIZED_STRING  Size = 26 
|------------------------------------------------|----------------|
|00 01 02 03 04 05 06 07 08 09 0A 0B 0C 0D 0E 0F |0123456789ABCDEF|
|------------------------------------------------|----------------|
|00 17 6F 00 00 00 00 02 84 00 00 00 01 01 00 0A |..o.............|
|57 61 72 65 6D 68 75 5E 46 00                   |..........      |
-------------------------------------------------------------------
[Server] packet : (0x29) F_SHOW_DIALOG  Size = 17 
|------------------------------------------------|----------------|
|00 01 02 03 04 05 06 07 08 09 0A 0B 0C 0D 0E 0F |0123456789ABCDEF|
|------------------------------------------------|----------------|
|00 0E 29 00 02 00 0A 57 61 72 65 6D 68 75 5E 46 |..)....Waremhu^F|
|00                                              |.               |
-------------------------------------------------------------------
[Server] packet : (0x1A) F_CAMPAIGN_STATUS  Size = 159 
|------------------------------------------------|----------------|
|00 01 02 03 04 05 06 07 08 09 0A 0B 0C 0D 0E 0F |0123456789ABCDEF|
|------------------------------------------------|----------------|
|00 9C 1A 00 09 00 67 00 CB 00 00 32 00 00 32 32 |......g....2..22|
|00 32 32 00 32 32 00 00 43 00 32 32 00 32 32 00 |.22.22..C.22.22.|
|32 32 00 00 00 00 32 32 00 32 32 00 32 32 00 00 |22....22.22.22..|
|00 00 00 00 00 00 00 00 00 00 00 00 00 00 00 00 |................|
|00 00 00 00 00 00 00 42 64 00 00 00 21 00 00 00 |.......Bd...!...|
|00 00 00 00 63 00 00 00 00 00 00 00 00 00 00 00 |....c...........|
|00 00 00 00 00 00 00 00 00 00 00 00 00 00 00 00 |................|
|00 00 00 00 00 00 00 00 00 00 00 00 00 00 00 00 |................|
|00 03 00 02 02 03 03 01 01 00 03 03 01 01 00 03 |................|
|FF 01 3C 28 0A 3C 00 00 00 03 84 00 00 02 00    |............... |
-------------------------------------------------------------------
[Client] packet : (0x37) F_GROUP_COMMAND  Size = 20 
|------------------------------------------------|----------------|
|00 01 02 03 04 05 06 07 08 09 0A 0B 0C 0D 0E 0F |0123456789ABCDEF|
|------------------------------------------------|----------------|
|00 08 5C 8E 00 DD FF FF 00 37 00 00 00 00 06 00 |..\......7......|
|00 00 00 00                                     |....            |
-------------------------------------------------------------------
[Server] packet : (0x51) F_ANIMATION  Size = 9 
|------------------------------------------------|----------------|
|00 01 02 03 04 05 06 07 08 09 0A 0B 0C 0D 0E 0F |0123456789ABCDEF|
|------------------------------------------------|----------------|
|00 06 51 0D 2B 00 6C 00 00                      |.........       |
-------------------------------------------------------------------
[Server] packet : (0x51) F_ANIMATION  Size = 9 
|------------------------------------------------|----------------|
|00 01 02 03 04 05 06 07 08 09 0A 0B 0C 0D 0E 0F |0123456789ABCDEF|
|------------------------------------------------|----------------|
|00 06 51 01 3C 00 B0 00 00                      |.........       |
-------------------------------------------------------------------