
[Server] packet : (0x51) F_ANIMATION  Size = 9 
|------------------------------------------------|----------------|
|00 01 02 03 04 05 06 07 08 09 0A 0B 0C 0D 0E 0F |0123456789ABCDEF|
|------------------------------------------------|----------------|
|00 06 51 00 66 00 AD 00 00                      |.........       |
-------------------------------------------------------------------
[Server] packet : (0x47) F_MONSTER_STATS  Size = 39 
|------------------------------------------------|----------------|
|00 01 02 03 04 05 06 07 08 09 0A 0B 0C 0D 0E 0F |0123456789ABCDEF|
|------------------------------------------------|----------------|
|00 24 47 0B DA 30 1E 49 6D 61 67 65 20 6F 66 20 |.$G..0.Image of |
|74 68 65 20 53 75 70 72 65 6D 65 20 50 61 74 72 |the Supreme Patr|
|69 61 72 63 68 00 00                            |.......         |
-------------------------------------------------------------------
[Server] packet : (0x72) F_CREATE_MONSTER  Size = 117 
|------------------------------------------------|----------------|
|00 01 02 03 04 05 06 07 08 09 0A 0B 0C 0D 0E 0F |0123456789ABCDEF|
|------------------------------------------------|----------------|
|00 72 72 0B DA 00 00 0E 2D 41 EA 00 06 AD 8D 00 |.rr.....-A......|
|02 11 2C 00 00 06 48 41 30 46 00 00 00 00 00 00 |..,...HA0F......|
|00 01 00 03 EC 00 00 00 00 B7 BA 00 01 00 00 02 |................|
|19 1C 00 49 6D 61 67 65 20 6F 66 20 74 68 65 20 |...Image of the |
|53 75 70 72 65 6D 65 20 50 61 74 72 69 61 72 63 |Supreme Patriarc|
|68 00 00 00 00 06 01 0A 00 00 00 12 05 00 0B DA |h...............|
|6D 8D 91 2C 41 EA 64 00 A1 00 00 00 00 06 2D 0E |m..,A.d.......-.|
|0B DA 00 00 00                                  |.....           |
-------------------------------------------------------------------
[Server] packet : (0x51) F_ANIMATION  Size = 9 
|------------------------------------------------|----------------|
|00 01 02 03 04 05 06 07 08 09 0A 0B 0C 0D 0E 0F |0123456789ABCDEF|
|------------------------------------------------|----------------|
|00 06 51 00 66 00 AD 00 00                      |.........       |
-------------------------------------------------------------------
[Server] packet : (0xDA) F_USE_ABILITY  Size = 23 
|------------------------------------------------|----------------|
|00 01 02 03 04 05 06 07 08 09 0A 0B 0C 0D 0E 0F |0123456789ABCDEF|
|------------------------------------------------|----------------|
|00 14 DA 00 00 17 0C 0B DA 04 9A 0B DA 01 01 00 |................|
|00 00 00 00 00 00 00                            |.......         |
-------------------------------------------------------------------
[Server] packet : (0xDE) F_OBJECT_EFFECT_STATE  Size = 9 
|------------------------------------------------|----------------|
|00 01 02 03 04 05 06 07 08 09 0A 0B 0C 0D 0E 0F |0123456789ABCDEF|
|------------------------------------------------|----------------|
|00 06 DE 0B DA 01 0C 01 00                      |.........       |
-------------------------------------------------------------------
[Server] packet : (0xDA) F_USE_ABILITY  Size = 23 
|------------------------------------------------|----------------|
|00 01 02 03 04 05 06 07 08 09 0A 0B 0C 0D 0E 0F |0123456789ABCDEF|
|------------------------------------------------|----------------|
|00 14 DA 00 00 24 83 27 26 09 B3 27 26 01 01 00 |.....$.'&..'&...|
|00 00 00 A1 00 00 00                            |.......         |
-------------------------------------------------------------------
[Server] packet : (0xDA) F_USE_ABILITY  Size = 23 
|------------------------------------------------|----------------|
|00 01 02 03 04 05 06 07 08 09 0A 0B 0C 0D 0E 0F |0123456789ABCDEF|
|------------------------------------------------|----------------|
|00 14 DA 00 00 24 83 27 26 09 B3 27 26 02 01 00 |.....$.'&..'&...|
|00 00 00 A1 00 00 00                            |.......         |
-------------------------------------------------------------------
[Server] packet : (0x06) F_CHAT  Size = 42 
|------------------------------------------------|----------------|
|00 01 02 03 04 05 06 07 08 09 0A 0B 0C 0D 0E 0F |0123456789ABCDEF|
|------------------------------------------------|----------------|
|00 27 06 03 36 07 00 00 00 00 0C 50 6C 75 6E 64 |.'..6......Plund|
|65 72 65 72 5E 6D 00 00 10 54 68 61 74 27 73 20 |erer^m...That's |
|61 6D 61 7A 69 6E 67 2E 00 00                   |..........      |
-------------------------------------------------------------------
[Server] packet : (0x51) F_ANIMATION  Size = 9 
|------------------------------------------------|----------------|
|00 01 02 03 04 05 06 07 08 09 0A 0B 0C 0D 0E 0F |0123456789ABCDEF|
|------------------------------------------------|----------------|
|00 06 51 0B DA 00 70 00 00                      |.........       |
-------------------------------------------------------------------
[Server] packet : (0xDA) F_USE_ABILITY  Size = 23 
|------------------------------------------------|----------------|
|00 01 02 03 04 05 06 07 08 09 0A 0B 0C 0D 0E 0F |0123456789ABCDEF|
|------------------------------------------------|----------------|
|00 14 DA 00 00 24 82 27 26 09 B2 27 26 01 01 00 |.....$.'&..'&...|
|00 00 00 A2 00 00 00                            |.......         |
-------------------------------------------------------------------
[Server] packet : (0xDA) F_USE_ABILITY  Size = 23 
|------------------------------------------------|----------------|
|00 01 02 03 04 05 06 07 08 09 0A 0B 0C 0D 0E 0F |0123456789ABCDEF|
|------------------------------------------------|----------------|
|00 14 DA 00 00 24 82 27 26 09 B2 27 26 02 01 00 |.....$.'&..'&...|
|00 00 00 A2 00 00 00                            |.......         |
-------------------------------------------------------------------
[Client] packet : (0x0B) F_PING  Size = 32 
|------------------------------------------------|----------------|
|00 01 02 03 04 05 06 07 08 09 0A 0B 0C 0D 0E 0F |0123456789ABCDEF|
|------------------------------------------------|----------------|
|00 14 DC EE 00 49 00 00 00 0B 00 AE 80 9C 7D 5C |.....I........}\|
|C2 09 90 A4 02 04 00 00 00 00 00 00 00 00 7F 05 |................|                                                
-------------------------------------------------------------------
[Server] packet : (0x81) S_PONG  Size = 23 
|------------------------------------------------|----------------|
|00 01 02 03 04 05 06 07 08 09 0A 0B 0C 0D 0E 0F |0123456789ABCDEF|
|------------------------------------------------|----------------|
|00 14 81 00 AE 80 9C 52 82 AF 03 00 00 00 00 00 |.......R........|
|00 DC EF 00 00 00 00                            |.......         |
-------------------------------------------------------------------
[Server] packet : (0x7E) F_SET_ABILITY_TIMER  Size = 15 
|------------------------------------------------|----------------|
|00 01 02 03 04 05 06 07 08 09 0A 0B 0C 0D 0E 0F |0123456789ABCDEF|
|------------------------------------------------|----------------|
|00 0C 7E 00 F5 00 00 00 00 00 00 00 00 00 00    |............... |
-------------------------------------------------------------------
[Client] packet : (0xB4) F_AUCTION_SEARCH_QUERY  Size = 52 
|------------------------------------------------|----------------|
|00 01 02 03 04 05 06 07 08 09 0A 0B 0C 0D 0E 0F |0123456789ABCDEF|
|------------------------------------------------|----------------|
|00 28 DC F0 00 49 FF FF 00 B4 00 00 00 03 00 00 |.(...I..........|
|00 00 00 00 00 00 00 00 00 00 00 00 00 00 01 00 |................|
|00 00 00 00 00 00 00 06 77 69 6C 74 65 64 00 00 |........wilted..|
|00 00 00 00                                     |....            |
-------------------------------------------------------------------
[Server] packet : (0xB7) F_AUCTION_SEARCH_RESULT  Size = 205 
|------------------------------------------------|----------------|
|00 01 02 03 04 05 06 07 08 09 0A 0B 0C 0D 0E 0F |0123456789ABCDEF|
|------------------------------------------------|----------------|
|00 CA B7 00 00 9E 22 00 01 01 00 00 00 00 00 71 |......"........q|
|67 F1 00 01 82 52 00 00 00 00 00 00 27 10 03 43 |g....R......'..C|
|68 6F 73 73 65 74 74 65 5E 4D 00 00 00 00 00 00 |hossette^M......|
|00 00 00 00 00 00 00 00 00 00 00 00 00 00 00 00 |................|
|00 00 00 00 00 00 00 00 00 00 00 00 00 00 00 FF |................|
|5F 39 00 00 01 4B B6 0F 30 00 00 00 00 00 00 00 |_9...K..0.......|
|00 00 00 00 01 00 00 00 00 00 00 00 00 00 00 00 |................|
|00 00 00 00 00 00 06 00 14 00 14 00 00 00 00 00 |................|
|00 00 00 00 00 00 00 10 57 69 6C 74 65 64 20 57 |........Wilted W|
|69 6C 64 20 57 65 65 64 00 00 00 06 08 00 05 07 |ild Weed........|
|00 04 01 00 00 02 00 00 04 00 00 0F 00 01 00 00 |................|
|00 00 01 00 00 03 02 00 08 00 00 00 00 00 00 00 |................|
|00 00 00 00 00 00 00 00 00 00 00 00 00          |.............   |
-------------------------------------------------------------------
[Server] packet : (0x6F) F_LOCALIZED_STRING  Size = 18 
|------------------------------------------------|----------------|
|00 01 02 03 04 05 06 07 08 09 0A 0B 0C 0D 0E 0F |0123456789ABCDEF|
|------------------------------------------------|----------------|
|00 0F 6F 02 1C 00 00 04 A6 00 00 00 01 01 00 02 |..o.............|
|31 00                                           |..              |
-------------------------------------------------------------------
[Server] packet : (0x0A) F_OBJECT_DEATH  Size = 15 
|------------------------------------------------|----------------|
|00 01 02 03 04 05 06 07 08 09 0A 0B 0C 0D 0E 0F |0123456789ABCDEF|
|------------------------------------------------|----------------|
|00 0C 0A 1E 36 02 00 00 00 00 00 00 00 00 00    |............... |
-------------------------------------------------------------------
[Client] packet : (0x01) UNKNOWN  Size = 32 
|------------------------------------------------|----------------|
|00 01 02 03 04 05 06 07 08 09 0A 0B 0C 0D 0E 0F |0123456789ABCDEF|
|------------------------------------------------|----------------|
|00 14 DC F3 00 49 00 00 00 01 00 AE 82 2A 20 07 |.....I.......* .|
|2A 68 90 38 40 04 00 23 3B F5 08 18 CA CE DC 25 |*h.8@..#;......%|                                                
-------------------------------------------------------------------
[Server] packet : (0x00) UNKNOWN  Size = 23 
|------------------------------------------------|----------------|
|00 01 02 03 04 05 06 07 08 09 0A 0B 0C 0D 0E 0F |0123456789ABCDEF|
|------------------------------------------------|----------------|
|00 14 00 00 AE 82 2A AF FB BA 2A 00 00 00 00 00 |......*...*.....|
|23 3B F5 08 18 CA 00                            |.......         |
-------------------------------------------------------------------
[Server] packet : (0xDA) F_USE_ABILITY  Size = 23 
|------------------------------------------------|----------------|
|00 01 02 03 04 05 06 07 08 09 0A 0B 0C 0D 0E 0F |0123456789ABCDEF|
|------------------------------------------------|----------------|
|00 14 DA 00 00 17 0C 14 FE 04 9A 14 FE 01 01 00 |................|
|00 00 00 00 00 00 00                            |.......         |
-------------------------------------------------------------------
[Server] packet : (0x0A) F_OBJECT_DEATH  Size = 15 
|------------------------------------------------|----------------|
|00 01 02 03 04 05 06 07 08 09 0A 0B 0C 0D 0E 0F |0123456789ABCDEF|
|------------------------------------------------|----------------|
|00 0C 0A 17 4E 00 00 00 00 00 00 00 00 00 00    |............... |
-------------------------------------------------------------------
[Client] packet : (0xBB) F_AUCTION_BID_ITEM  Size = 32 
|------------------------------------------------|----------------|
|00 01 02 03 04 05 06 07 08 09 0A 0B 0C 0D 0E 0F |0123456789ABCDEF|
|------------------------------------------------|----------------|
|00 14 DC F8 00 49 FF FF 00 BB 00 00 27 10 00 00 |.....I......'...|
|00 00 00 00 00 00 00 71 67 F1 00 01 00 00 00 00 |.......qg.......|                                                
-------------------------------------------------------------------
[Server] packet : (0x52) F_PLAYER_WEALTH  Size = 11 
|------------------------------------------------|----------------|
|00 01 02 03 04 05 06 07 08 09 0A 0B 0C 0D 0E 0F |0123456789ABCDEF|
|------------------------------------------------|----------------|
|00 08 52 00 00 00 00 00 00 9F 00                |...........     |
-------------------------------------------------------------------
[Server] packet : (0xCF) F_AUCTION_BID_STATUS  Size = 23 
|------------------------------------------------|----------------|
|00 01 02 03 04 05 06 07 08 09 0A 0B 0C 0D 0E 0F |0123456789ABCDEF|
|------------------------------------------------|----------------|
|00 14 CF 00 00 00 00 01 00 00 00 00 00 00 00 00 |................|
|71 67 F1 00 02 00 00                            |.......         |
-------------------------------------------------------------------
[Server] packet : (0x6F) F_LOCALIZED_STRING  Size = 13 
|------------------------------------------------|----------------|
|00 01 02 03 04 05 06 07 08 09 0A 0B 0C 0D 0E 0F |0123456789ABCDEF|
|------------------------------------------------|----------------|
|00 0A 6F 02 1C 00 00 04 99 00 00 00 00          |.............   |
-------------------------------------------------------------------
[Server] packet : (0x5E) F_SET_TARGET  Size = 9 
|------------------------------------------------|----------------|
|00 01 02 03 04 05 06 07 08 09 0A 0B 0C 0D 0E 0F |0123456789ABCDEF|
|------------------------------------------------|----------------|
|00 06 5E 00 00 27 26 06 00                      |.........       |
-------------------------------------------------------------------
[Server] packet : (0x51) F_ANIMATION  Size = 9 
|------------------------------------------------|----------------|
|00 01 02 03 04 05 06 07 08 09 0A 0B 0C 0D 0E 0F |0123456789ABCDEF|
|------------------------------------------------|----------------|
|00 06 51 01 07 00 00 00 00                      |.........       |
-------------------------------------------------------------------
[Server] packet : (0x6F) F_LOCALIZED_STRING  Size = 71 
|------------------------------------------------|----------------|
|00 01 02 03 04 05 06 07 08 09 0A 0B 0C 0D 0E 0F |0123456789ABCDEF|
|------------------------------------------------|----------------|
|00 44 6F 02 1C 00 00 04 B2 00 00 00 03 01 00 11 |.Do.............|
|57 69 6C 74 65 64 20 57 69 6C 64 20 57 65 65 64 |Wilted Wild Weed|
|00 01 00 0C 43 68 6F 73 73 65 74 74 65 5E 4D 00 |....Chossette^M.|
|00 00 00 04 7D 00 00 00 02 01 00 02 31 00 00 00 |....}.......1...|
|00 03 2B 00 00 00 00                            |.......         |
-------------------------------------------------------------------
[Client] packet : (0x0B) F_PING  Size = 32 
|------------------------------------------------|----------------|
|00 01 02 03 04 05 06 07 08 09 0A 0B 0C 0D 0E 0F |0123456789ABCDEF|
|------------------------------------------------|----------------|
|00 14 DC FB 00 49 00 00 00 0B 00 AE 94 37 E2 37 |.....I.......7.7|
|2B 7A B5 7F 7D 87 00 00 00 00 00 00 00 00 7F 05 |+z..}...........|                                                
-------------------------------------------------------------------
[Server] packet : (0x81) S_PONG  Size = 23 
|------------------------------------------------|----------------|
|00 01 02 03 04 05 06 07 08 09 0A 0B 0C 0D 0E 0F |0123456789ABCDEF|
|------------------------------------------------|----------------|
|00 14 81 00 AE 94 37 52 82 AF 08 00 00 00 00 00 |......7R........|
|00 DC FC 00 00 00 00                            |.......         |
-------------------------------------------------------------------
[Server] packet : (0xDA) F_USE_ABILITY  Size = 23 
|------------------------------------------------|----------------|
|00 01 02 03 04 05 06 07 08 09 0A 0B 0C 0D 0E 0F |0123456789ABCDEF|
|------------------------------------------------|----------------|
|00 14 DA 00 00 17 0C 0B DA 04 9A 0B DA 01 01 00 |................|
|00 00 00 00 00 00 00                            |.......         |
-------------------------------------------------------------------
[Client] packet : (0x5A) F_PING_DATAGRAM  Size = 13 
|------------------------------------------------|----------------|
|00 01 02 03 04 05 06 07 08 09 0A 0B 0C 0D 0E 0F |0123456789ABCDEF|
|------------------------------------------------|----------------|
|00 01 DC FF 00 49 FF FF 00 5A 00 42 E7          |.............   |
-------------------------------------------------------------------
[Server] packet : (0x51) F_ANIMATION  Size = 9 
|------------------------------------------------|----------------|
|00 01 02 03 04 05 06 07 08 09 0A 0B 0C 0D 0E 0F |0123456789ABCDEF|
|------------------------------------------------|----------------|
|00 06 51 02 A8 00 6C 00 00                      |.........       |
-------------------------------------------------------------------
[Server] packet : (0x06) F_CHAT  Size = 127 
|------------------------------------------------|----------------|
|00 01 02 03 04 05 06 07 08 09 0A 0B 0C 0D 0E 0F |0123456789ABCDEF|
|------------------------------------------------|----------------|
|00 7C 06 03 35 07 00 00 00 00 0C 50 6C 75 6E 64 |.|..5......Plund|
|65 72 65 72 5E 66 00 00 65 59 6F 75 20 6D 75 73 |erer^f..eYou mus|
|74 20 62 65 20 73 70 65 6E 64 69 6E 67 20 74 6F |t be spending to|
|6F 20 6D 75 63 68 20 74 69 6D 65 20 61 72 6F 75 |o much time arou|
|6E 64 20 74 68 65 20 65 6C 76 65 73 20 77 68 65 |nd the elves whe|
|6E 20 79 6F 75 20 73 74 61 72 74 20 77 6F 72 72 |n you start worr|
|79 69 6E 67 20 61 62 6F 75 74 20 77 68 61 74 27 |ying about what'|
|73 20 66 6F 72 20 64 69 6E 6E 65 72 2E 00 00    |............... |
-------------------------------------------------------------------