
[Client] packet : (0x01) UNKNOWN  Size = 32 
|------------------------------------------------|----------------|
|00 01 02 03 04 05 06 07 08 09 0A 0B 0C 0D 0E 0F |0123456789ABCDEF|
|------------------------------------------------|----------------|
|00 14 0B C0 00 36 00 00 00 01 00 0E 91 6C 00 00 |.....6.......l..|
|00 00 00 00 00 00 00 00 06 4C 00 00 36 94 6E 12 |.........L..6.n.|                                                
-------------------------------------------------------------------
[Server] packet : (0x00) UNKNOWN  Size = 23 
|------------------------------------------------|----------------|
|00 01 02 03 04 05 06 07 08 09 0A 0B 0C 0D 0E 0F |0123456789ABCDEF|
|------------------------------------------------|----------------|
|00 14 00 00 0E 91 6C B7 CC 92 95 00 00 00 00 00 |......l.........|
|00 06 4C 00 00 36 00                            |.......         |
-------------------------------------------------------------------
[Client] packet : (0xD9) F_USE_ITEM  Size = 20 
|------------------------------------------------|----------------|
|00 01 02 03 04 05 06 07 08 09 0A 0B 0C 0D 0E 0F |0123456789ABCDEF|
|------------------------------------------------|----------------|
|00 08 0B C3 00 36 FF FF 00 D9 00 2C 00 00 A8 01 |.....6.....,....|
|00 00 00 00                                     |....            |
-------------------------------------------------------------------
[Server] packet : (0x7E) F_SET_ABILITY_TIMER  Size = 15 
|------------------------------------------------|----------------|
|00 01 02 03 04 05 06 07 08 09 0A 0B 0C 0D 0E 0F |0123456789ABCDEF|
|------------------------------------------------|----------------|
|00 0C 7E 00 01 01 41 00 00 07 D0 3B 44 00 00    |............... |
-------------------------------------------------------------------
[Server] packet : (0xDA) F_USE_ABILITY  Size = 23 
|------------------------------------------------|----------------|
|00 01 02 03 04 05 06 07 08 09 0A 0B 0C 0D 0E 0F |0123456789ABCDEF|
|------------------------------------------------|----------------|
|00 14 DA 00 00 3B 44 20 C9 01 FD 20 C9 01 01 00 |.....;D ... ....|
|00 07 D0 00 00 00 00                            |.......         |
-------------------------------------------------------------------
[Server] packet : (0x1E) F_MAX_VELOCITY  Size = 7 
|------------------------------------------------|----------------|
|00 01 02 03 04 05 06 07 08 09 0A 0B 0C 0D 0E 0F |0123456789ABCDEF|
|------------------------------------------------|----------------|
|00 04 1E 00 64 01 00                            |.......         |
-------------------------------------------------------------------
[Server] packet : (0xD7) F_INIT_EFFECTS  Size = 14 
|------------------------------------------------|----------------|
|00 01 02 03 04 05 06 07 08 09 0A 0B 0C 0D 0E 0F |0123456789ABCDEF|
|------------------------------------------------|----------------|
|00 0B D7 01 02 00 00 20 C9 0B 00 2C 39 00       |..............  |
-------------------------------------------------------------------
[Server] packet : (0x7E) F_SET_ABILITY_TIMER  Size = 15 
|------------------------------------------------|----------------|
|00 01 02 03 04 05 06 07 08 09 0A 0B 0C 0D 0E 0F |0123456789ABCDEF|
|------------------------------------------------|----------------|
|00 0C 7E 39 2C 00 00 00 00 00 00 00 00 00 00    |............... |
-------------------------------------------------------------------
[Server] packet : (0x7E) F_SET_ABILITY_TIMER  Size = 15 
|------------------------------------------------|----------------|
|00 01 02 03 04 05 06 07 08 09 0A 0B 0C 0D 0E 0F |0123456789ABCDEF|
|------------------------------------------------|----------------|
|00 0C 7E 39 2C 00 00 00 00 00 00 00 00 00 00    |............... |
-------------------------------------------------------------------
[Client] packet : (0x0B) F_PING  Size = 32 
|------------------------------------------------|----------------|
|00 01 02 03 04 05 06 07 08 09 0A 0B 0C 0D 0E 0F |0123456789ABCDEF|
|------------------------------------------------|----------------|
|00 14 0B C6 00 36 00 00 00 0B 00 0E 9D 0C E8 80 |.....6..........|
|C2 4D 64 40 0E 11 00 00 00 00 00 00 00 00 02 E8 |.Md@............|                                                
-------------------------------------------------------------------
[Server] packet : (0x7E) F_SET_ABILITY_TIMER  Size = 15 
|------------------------------------------------|----------------|
|00 01 02 03 04 05 06 07 08 09 0A 0B 0C 0D 0E 0F |0123456789ABCDEF|
|------------------------------------------------|----------------|
|00 0C 7E 39 2C 00 00 00 00 00 00 00 00 00 00    |............... |
-------------------------------------------------------------------
[Server] packet : (0x81) S_PONG  Size = 23 
|------------------------------------------------|----------------|
|00 01 02 03 04 05 06 07 08 09 0A 0B 0C 0D 0E 0F |0123456789ABCDEF|
|------------------------------------------------|----------------|
|00 14 81 00 0E 9D 0C 52 84 AF 48 00 00 00 00 00 |.......R..H.....|
|00 0B C7 00 00 00 00                            |.......         |
-------------------------------------------------------------------
[Server] packet : (0x1A) F_CAMPAIGN_STATUS  Size = 159 
|------------------------------------------------|----------------|
|00 01 02 03 04 05 06 07 08 09 0A 0B 0C 0D 0E 0F |0123456789ABCDEF|
|------------------------------------------------|----------------|
|00 9C 1A 00 05 00 69 00 CD 00 00 32 32 00 32 32 |......i....22.22|
|00 32 32 00 32 32 00 22 21 00 32 32 00 32 32 00 |.22.22."!.22.22.|
|32 32 00 00 00 00 32 32 00 32 32 00 32 32 08 90 |22....22.22.22..|
|08 90 08 90 08 90 08 90 08 90 08 90 08 90 08 90 |................|
|08 90 08 90 08 90 00 64 63 00 00 32 00 00 32 00 |.......dc..2..2.|
|32 00 00 32 64 00 00 00 00 00 00 00 00 00 00 00 |2..2d...........|
|00 00 00 00 00 00 00 00 00 00 00 00 00 00 00 00 |................|
|00 00 00 00 00 00 00 00 00 00 00 00 00 00 00 00 |................|
|00 03 01 00 02 03 03 01 00 02 03 03 01 00 02 03 |................|
|FE 02 3C 28 0A 3C 00 00 00 03 84 00 00 00 00    |............... |
-------------------------------------------------------------------
[Server] packet : (0x7E) F_SET_ABILITY_TIMER  Size = 15 
|------------------------------------------------|----------------|
|00 01 02 03 04 05 06 07 08 09 0A 0B 0C 0D 0E 0F |0123456789ABCDEF|
|------------------------------------------------|----------------|
|00 0C 7E 39 2C 00 00 00 00 00 00 00 00 00 00    |............... |
-------------------------------------------------------------------
[Server] packet : (0x1B) F_REQ_CAMPAIGN_STATUS  Size = 15 
|------------------------------------------------|----------------|
|00 01 02 03 04 05 06 07 08 09 0A 0B 0C 0D 0E 0F |0123456789ABCDEF|
|------------------------------------------------|----------------|
|00 0C 1B 00 14 58 00 00 13 3E DC 00 0D 74 00    |............... |
-------------------------------------------------------------------
[Server] packet : (0xD7) F_INIT_EFFECTS  Size = 21 
|------------------------------------------------|----------------|
|00 01 02 03 04 05 06 07 08 09 0A 0B 0C 0D 0E 0F |0123456789ABCDEF|
|------------------------------------------------|----------------|
|00 12 D7 01 01 2D 3A 20 C9 0C 00 44 3B D8 04 C9 |.....-: ...D;...|
|20 01 00 0A 00                                  |.....           |
-------------------------------------------------------------------
[Server] packet : (0xDA) F_USE_ABILITY  Size = 23 
|------------------------------------------------|----------------|
|00 01 02 03 04 05 06 07 08 09 0A 0B 0C 0D 0E 0F |0123456789ABCDEF|
|------------------------------------------------|----------------|
|00 14 DA 00 00 3B 44 20 C9 01 FD 20 C9 02 01 00 |.....;D ... ....|
|00 00 36 00 00 00 00                            |.......         |
-------------------------------------------------------------------
[Server] packet : (0xB9) UNKNOWN  Size = 16 
|------------------------------------------------|----------------|
|00 01 02 03 04 05 06 07 08 09 0A 0B 0C 0D 0E 0F |0123456789ABCDEF|
|------------------------------------------------|----------------|
|00 0D B9 01 00 03 24 CE 00 00 00 00 00 00 0E 00 |......$.........|                                                
-------------------------------------------------------------------
[Server] packet : (0xAA) F_GET_ITEM  Size = 167 
|------------------------------------------------|----------------|
|00 01 02 03 04 05 06 07 08 09 0A 0B 0C 0D 0E 0F |0123456789ABCDEF|
|------------------------------------------------|----------------|
|00 A4 AA 01 00 00 00 00 2C 00 00 03 24 CE 1A 88 |........,...$...|
|00 00 00 00 00 00 00 00 00 00 01 01 00 00 00 04 |................|
|00 00 00 00 00 00 00 00 00 00 00 00 00 11 00 01 |................|
|00 01 00 00 00 00 00 00 00 00 00 00 00 00 19 4B |...............K|
|65 6D 6D 6C 65 72 27 73 20 41 72 74 68 72 69 74 |emmler's Arthrit|
|69 63 20 48 61 6E 64 20 00 00 01 00 00 3B 44 0E |ic Hand .....;D.|
|10 0E 10 00 00 00 24 52 69 67 68 74 2D 63 6C 69 |......$Right-cli|
|63 6B 20 6F 6E 20 69 74 65 6D 20 74 6F 20 61 63 |ck on item to ac|
|74 69 76 61 74 65 20 62 75 66 66 01 00 00 00 03 |tivate buff.....|
|06 20 08 01 00 00 00 00 00 00 00 00 00 00 00 00 |. ..............|
|00 00 00 00 00 00 00                            |.......         |
-------------------------------------------------------------------
[Server] packet : (0x7E) F_SET_ABILITY_TIMER  Size = 15 
|------------------------------------------------|----------------|
|00 01 02 03 04 05 06 07 08 09 0A 0B 0C 0D 0E 0F |0123456789ABCDEF|
|------------------------------------------------|----------------|
|00 0C 7E 00 01 01 00 00 00 00 00 00 00 00 00    |............... |
-------------------------------------------------------------------
[Server] packet : (0x5E) F_SET_TARGET  Size = 9 
|------------------------------------------------|----------------|
|00 01 02 03 04 05 06 07 08 09 0A 0B 0C 0D 0E 0F |0123456789ABCDEF|
|------------------------------------------------|----------------|
|00 06 5E 13 4F 1B E8 01 00                      |.........       |
-------------------------------------------------------------------
[Client] packet : (0xFE) F_PLAY_VOICE_OVER  Size = 16 
|------------------------------------------------|----------------|
|00 01 02 03 04 05 06 07 08 09 0A 0B 0C 0D 0E 0F |0123456789ABCDEF|
|------------------------------------------------|----------------|
|00 04 0B D0 00 36 FF FF 00 FE 02 00 00 00 58 3F |.....6........X?|                                                
-------------------------------------------------------------------
[Server] packet : (0x74) UNKNOWN  Size = 44 
|------------------------------------------------|----------------|
|00 01 02 03 04 05 06 07 08 09 0A 0B 0C 0D 0E 0F |0123456789ABCDEF|
|------------------------------------------------|----------------|
|00 29 74 01 01 00 00 00 04 02 00 00 02 00 03 00 |.)t.............|
|00 00 00 00 00 00 01 00 01 00 00 01 F4 00 00 01 |................|
|B5 02 00 01 00 00 01 F4 00 00 01 00             |............    |
-------------------------------------------------------------------
[Client] packet : (0x0B) F_PING  Size = 32 
|------------------------------------------------|----------------|
|00 01 02 03 04 05 06 07 08 09 0A 0B 0C 0D 0E 0F |0123456789ABCDEF|
|------------------------------------------------|----------------|
|00 14 0B D3 00 36 00 00 00 0B 00 0E B0 A4 FF 8C |.....6..........|
|84 06 14 20 33 B1 00 00 00 00 00 00 00 00 02 E8 |... 3...........|                                                
-------------------------------------------------------------------
[Server] packet : (0x81) S_PONG  Size = 23 
|------------------------------------------------|----------------|
|00 01 02 03 04 05 06 07 08 09 0A 0B 0C 0D 0E 0F |0123456789ABCDEF|
|------------------------------------------------|----------------|
|00 14 81 00 0E B0 A4 52 84 AF 4D 00 00 00 00 00 |.......R..M.....|
|00 0B D4 00 00 00 00                            |.......         |
-------------------------------------------------------------------