
[Client] packet : (0x0B) F_PING  Size = 32 
|------------------------------------------------|----------------|
|00 01 02 03 04 05 06 07 08 09 0A 0B 0C 0D 0E 0F |0123456789ABCDEF|
|------------------------------------------------|----------------|
|00 14 E0 82 00 49 00 00 00 0B 00 B1 E0 26 CF 3F |.....I.......&.?|
|BB BD C9 D9 C2 FE 00 00 00 00 00 00 00 00 E2 05 |................|                                                
-------------------------------------------------------------------
[Server] packet : (0x81) S_PONG  Size = 23 
|------------------------------------------------|----------------|
|00 01 02 03 04 05 06 07 08 09 0A 0B 0C 0D 0E 0F |0123456789ABCDEF|
|------------------------------------------------|----------------|
|00 14 81 00 B1 E0 26 52 82 AF E0 00 00 00 00 00 |......&R........|
|00 E0 83 00 00 00 00                            |.......         |
-------------------------------------------------------------------
[Client] packet : (0x16) F_REQUEST_INIT_OBJECT  Size = 16 
|------------------------------------------------|----------------|
|00 01 02 03 04 05 06 07 08 09 0A 0B 0C 0D 0E 0F |0123456789ABCDEF|
|------------------------------------------------|----------------|
|00 04 E0 84 00 49 00 00 00 16 28 3F 00 00 16 03 |.....I....(?....|                                                
-------------------------------------------------------------------
[Server] packet : (0x51) F_ANIMATION  Size = 9 
|------------------------------------------------|----------------|
|00 01 02 03 04 05 06 07 08 09 0A 0B 0C 0D 0E 0F |0123456789ABCDEF|
|------------------------------------------------|----------------|
|00 06 51 02 B1 00 00 00 00                      |.........       |
-------------------------------------------------------------------
[Server] packet : (0x72) F_CREATE_MONSTER  Size = 107 
|------------------------------------------------|----------------|
|00 01 02 03 04 05 06 07 08 09 0A 0B 0C 0D 0E 0F |0123456789ABCDEF|
|------------------------------------------------|----------------|
|00 68 72 28 3F 00 55 03 F7 43 EE 00 06 CF EF 00 |.hr(?.U..C......|
|02 16 1B 00 00 06 89 32 0B 00 00 00 00 00 00 00 |.......2........|
|00 00 00 03 E8 00 00 00 00 B7 CB 00 08 00 00 02 |................|
|18 19 00 45 6E 72 61 67 65 64 20 53 6F 75 6C 5E |...Enraged Soul^|
|66 00 04 CE 01 0A 00 00 00 1A 05 00 28 3F 8F EF |f...........(?..|
|96 1B 43 EE 64 01 A1 00 00 00 00 00 55 00 00 19 |..C.d.......U...|
|8F 1E 96 EE 43 A1 28 3F 00 00 00                |...........     |
-------------------------------------------------------------------
[Server] packet : (0xDE) F_OBJECT_EFFECT_STATE  Size = 9 
|------------------------------------------------|----------------|
|00 01 02 03 04 05 06 07 08 09 0A 0B 0C 0D 0E 0F |0123456789ABCDEF|
|------------------------------------------------|----------------|
|00 06 DE 28 3F 01 0C 01 00                      |.........       |
-------------------------------------------------------------------
[Server] packet : (0xA3) F_ACTIVE_EFFECTS  Size = 18 
|------------------------------------------------|----------------|
|00 01 02 03 04 05 06 07 08 09 0A 0B 0C 0D 0E 0F |0123456789ABCDEF|
|------------------------------------------------|----------------|
|00 0F A3 28 3F 01 0D 17 3F 28 01 00 03 01 BA EC |...(?...?(......|
|A3 00                                           |..              |
-------------------------------------------------------------------
[Client] packet : (0xFE) F_PLAY_VOICE_OVER  Size = 16 
|------------------------------------------------|----------------|
|00 01 02 03 04 05 06 07 08 09 0A 0B 0C 0D 0E 0F |0123456789ABCDEF|
|------------------------------------------------|----------------|
|00 04 E0 87 00 49 FF FF 00 FE 02 00 00 00 3D A0 |.....I........=.|                                                
-------------------------------------------------------------------
[Server] packet : (0x74) UNKNOWN  Size = 44 
|------------------------------------------------|----------------|
|00 01 02 03 04 05 06 07 08 09 0A 0B 0C 0D 0E 0F |0123456789ABCDEF|
|------------------------------------------------|----------------|
|00 29 74 01 01 00 00 00 04 02 00 00 02 00 03 00 |.)t.............|
|00 00 00 00 00 00 01 00 01 00 00 01 F4 00 00 01 |................|
|DA 02 00 01 00 00 01 F4 00 00 00 00             |............    |
-------------------------------------------------------------------
[Client] packet : (0xD2) F_INTERACT  Size = 24 
|------------------------------------------------|----------------|
|00 01 02 03 04 05 06 07 08 09 0A 0B 0C 0D 0E 0F |0123456789ABCDEF|
|------------------------------------------------|----------------|
|00 0C E0 8A 00 49 00 00 00 D2 00 00 01 9E 00 00 |.....I..........|
|00 00 00 00 00 00 00 00                         |........        |
-------------------------------------------------------------------
[Server] packet : (0x44) F_ACTION_COUNTER_UPDATE  Size = 11 
|------------------------------------------------|----------------|
|00 01 02 03 04 05 06 07 08 09 0A 0B 0C 0D 0E 0F |0123456789ABCDEF|
|------------------------------------------------|----------------|
|00 08 44 01 D7 00 00 00 00 00 00                |...........     |
-------------------------------------------------------------------
[Server] packet : (0x86) F_MAIL  Size = 6 
|------------------------------------------------|----------------|
|00 01 02 03 04 05 06 07 08 09 0A 0B 0C 0D 0E 0F |0123456789ABCDEF|
|------------------------------------------------|----------------|
|00 03 86 00 00 00                               |......          |
-------------------------------------------------------------------
[Server] packet : (0x86) F_MAIL  Size = 13 
|------------------------------------------------|----------------|
|00 01 02 03 04 05 06 07 08 09 0A 0B 0C 0D 0E 0F |0123456789ABCDEF|
|------------------------------------------------|----------------|
|00 0A 86 0E 00 00 00 00 1E 0A D7 A3 00          |.............   |
-------------------------------------------------------------------
[Client] packet : (0x5A) F_PING_DATAGRAM  Size = 13 
|------------------------------------------------|----------------|
|00 01 02 03 04 05 06 07 08 09 0A 0B 0C 0D 0E 0F |0123456789ABCDEF|
|------------------------------------------------|----------------|
|00 01 E0 8C 00 49 FF FF 00 5A 00 F9 D3          |.............   |
-------------------------------------------------------------------
[Client] packet : (0xD2) F_INTERACT  Size = 24 
|------------------------------------------------|----------------|
|00 01 02 03 04 05 06 07 08 09 0A 0B 0C 0D 0E 0F |0123456789ABCDEF|
|------------------------------------------------|----------------|
|00 0C E0 8C 00 49 00 00 00 D2 00 00 01 9E 00 00 |.....I..........|
|00 00 00 00 00 00 00 00                         |........        |
-------------------------------------------------------------------
[Server] packet : (0x51) F_ANIMATION  Size = 9 
|------------------------------------------------|----------------|
|00 01 02 03 04 05 06 07 08 09 0A 0B 0C 0D 0E 0F |0123456789ABCDEF|
|------------------------------------------------|----------------|
|00 06 51 02 B1 00 00 00 00                      |.........       |
-------------------------------------------------------------------
[Server] packet : (0x86) F_MAIL  Size = 6 
|------------------------------------------------|----------------|
|00 01 02 03 04 05 06 07 08 09 0A 0B 0C 0D 0E 0F |0123456789ABCDEF|
|------------------------------------------------|----------------|
|00 03 86 00 00 00                               |......          |
-------------------------------------------------------------------
[Server] packet : (0x86) F_MAIL  Size = 13 
|------------------------------------------------|----------------|
|00 01 02 03 04 05 06 07 08 09 0A 0B 0C 0D 0E 0F |0123456789ABCDEF|
|------------------------------------------------|----------------|
|00 0A 86 0E 00 00 00 00 1E 0A D7 A3 00          |.............   |
-------------------------------------------------------------------
[Server] packet : (0x86) F_MAIL  Size = 9 
|------------------------------------------------|----------------|
|00 01 02 03 04 05 06 07 08 09 0A 0B 0C 0D 0E 0F |0123456789ABCDEF|
|------------------------------------------------|----------------|
|00 06 86 0A 00 00 00 00 00                      |.........       |
-------------------------------------------------------------------
[Server] packet : (0x86) F_MAIL  Size = 62 
|------------------------------------------------|----------------|
|00 01 02 03 04 05 06 07 08 09 0A 0B 0C 0D 0E 0F |0123456789ABCDEF|
|------------------------------------------------|----------------|
|00 3B 86 0A 01 00 01 00 00 00 00 01 39 E0 CE 00 |.;..........9...|
|00 00 FF FF FF 25 FF FF FF 25 00 4F 19 25 0D 00 |.....%...%.O.%..|
|00 04 DC 00 00 00 00 00 01 00 00 00 04 DE 00 00 |................|
|00 00 00 00 00 00 00 00 27 10 00 00 00 00       |..............  |
-------------------------------------------------------------------
[Client] packet : (0x16) F_REQUEST_INIT_OBJECT  Size = 16 
|------------------------------------------------|----------------|
|00 01 02 03 04 05 06 07 08 09 0A 0B 0C 0D 0E 0F |0123456789ABCDEF|
|------------------------------------------------|----------------|
|00 04 E0 8F 00 49 00 00 00 16 10 4B 00 00 62 33 |.....I.....K..b3|                                                
-------------------------------------------------------------------
[Server] packet : (0x72) F_CREATE_MONSTER  Size = 115 
|------------------------------------------------|----------------|
|00 01 02 03 04 05 06 07 08 09 0A 0B 0C 0D 0E 0F |0123456789ABCDEF|
|------------------------------------------------|----------------|
|00 70 72 10 4B 00 EB 08 B8 42 14 00 06 C5 2C 00 |.pr.K....B....,.|
|02 1F FA 00 00 04 45 32 22 81 00 00 00 00 00 00 |......E2".......|
|00 01 00 03 E8 00 00 00 00 BA 0D 00 02 00 00 01 |................|
|19 00 50 75 72 73 75 69 6E 67 20 46 6C 65 73 68 |..Pursuing Flesh|
|68 6F 75 6E 64 5E 6D 00 00 00 00 08 01 0A 00 00 |hound^m.........|
|00 1A 05 00 10 4B 85 2C 9F FA 42 14 64 01 A1 00 |.....K.,..B.d...|
|00 00 00 08 EB 00 00 AE 89 7A 90 D2 41 A1 10 4B |.........z..A..K|
|00 00 00                                        |...             |
-------------------------------------------------------------------
[Client] packet : (0x0B) F_PING  Size = 32 
|------------------------------------------------|----------------|
|00 01 02 03 04 05 06 07 08 09 0A 0B 0C 0D 0E 0F |0123456789ABCDEF|
|------------------------------------------------|----------------|
|00 14 E0 93 00 49 00 00 00 0B 00 B1 F3 34 22 44 |.....I.......4"D|
|C6 40 06 63 28 01 00 00 00 00 00 00 00 00 7F 05 |.@.c(...........|                                                
-------------------------------------------------------------------
[Server] packet : (0x81) S_PONG  Size = 23 
|------------------------------------------------|----------------|
|00 01 02 03 04 05 06 07 08 09 0A 0B 0C 0D 0E 0F |0123456789ABCDEF|
|------------------------------------------------|----------------|
|00 14 81 00 B1 F3 34 52 82 AF E5 00 00 00 00 00 |......4R........|
|00 E0 94 00 00 00 00                            |.......         |
-------------------------------------------------------------------
[Client] packet : (0x16) F_REQUEST_INIT_OBJECT  Size = 16 
|------------------------------------------------|----------------|
|00 01 02 03 04 05 06 07 08 09 0A 0B 0C 0D 0E 0F |0123456789ABCDEF|
|------------------------------------------------|----------------|
|00 04 E0 95 00 49 00 00 00 16 0E EE 00 00 6D 57 |.....I........mW|                                                
-------------------------------------------------------------------
[Server] packet : (0x72) F_CREATE_MONSTER  Size = 101 
|------------------------------------------------|----------------|
|00 01 02 03 04 05 06 07 08 09 0A 0B 0C 0D 0E 0F |0123456789ABCDEF|
|------------------------------------------------|----------------|
|00 62 72 0E EE 00 00 07 37 42 18 00 06 C6 4E 00 |.br.....7B....N.|
|02 1D 14 00 00 06 88 32 0A 00 00 00 00 00 00 00 |.......2........|
|00 00 00 03 E8 00 00 00 00 B7 CA 00 02 00 00 02 |................|
|18 19 00 48 6F 72 72 69 66 69 65 64 20 53 6F 75 |...Horrified Sou|
|6C 5E 6D 00 04 CD 01 0A 00 00 00 12 05 00 0E EE |l^m.............|
|86 4E 9D 14 42 18 64 00 A1 04 00 00 00 00 37 07 |.N..B.d.......7.|
|0E EE 00 00 00                                  |.....           |
-------------------------------------------------------------------
[Server] packet : (0xDE) F_OBJECT_EFFECT_STATE  Size = 9 
|------------------------------------------------|----------------|
|00 01 02 03 04 05 06 07 08 09 0A 0B 0C 0D 0E 0F |0123456789ABCDEF|
|------------------------------------------------|----------------|
|00 06 DE 0E EE 01 0C 01 00                      |.........       |
-------------------------------------------------------------------
[Server] packet : (0xA3) F_ACTIVE_EFFECTS  Size = 18 
|------------------------------------------------|----------------|
|00 01 02 03 04 05 06 07 08 09 0A 0B 0C 0D 0E 0F |0123456789ABCDEF|
|------------------------------------------------|----------------|
|00 0F A3 0E EE 01 0C 17 EE 0E 01 00 03 01 B0 EC |................|
|A3 00                                           |..              |
-------------------------------------------------------------------
[Server] packet : (0x0A) F_OBJECT_DEATH  Size = 15 
|------------------------------------------------|----------------|
|00 01 02 03 04 05 06 07 08 09 0A 0B 0C 0D 0E 0F |0123456789ABCDEF|
|------------------------------------------------|----------------|
|00 0C 0A 13 7A 05 00 19 A0 00 00 00 00 00 00    |............... |
-------------------------------------------------------------------
[Server] packet : (0x51) F_ANIMATION  Size = 9 
|------------------------------------------------|----------------|
|00 01 02 03 04 05 06 07 08 09 0A 0B 0C 0D 0E 0F |0123456789ABCDEF|
|------------------------------------------------|----------------|
|00 06 51 02 B1 00 00 00 00                      |.........       |
-------------------------------------------------------------------
[Client] packet : (0x86) F_MAIL  Size = 23 
|------------------------------------------------|----------------|
|00 01 02 03 04 05 06 07 08 09 0A 0B 0C 0D 0E 0F |0123456789ABCDEF|
|------------------------------------------------|----------------|
|00 0B E0 98 00 49 FF FF 00 86 02 01 CE E0 39 01 |.....I........9.|
|00 00 00 00 00 00 00                            |.......         |
-------------------------------------------------------------------
[Server] packet : (0x5E) F_SET_TARGET  Size = 9 
|------------------------------------------------|----------------|
|00 01 02 03 04 05 06 07 08 09 0A 0B 0C 0D 0E 0F |0123456789ABCDEF|
|------------------------------------------------|----------------|
|00 06 5E 00 00 19 A0 05 00                      |.........       |
-------------------------------------------------------------------
[Client] packet : (0x86) F_MAIL  Size = 23 
|------------------------------------------------|----------------|
|00 01 02 03 04 05 06 07 08 09 0A 0B 0C 0D 0E 0F |0123456789ABCDEF|
|------------------------------------------------|----------------|
|00 0B E0 99 00 49 FF FF 00 86 02 01 CE E0 39 01 |.....I........9.|
|00 00 00 00 00 5E F9                            |.......         |
-------------------------------------------------------------------
[Server] packet : (0x86) F_MAIL  Size = 6 
|------------------------------------------------|----------------|
|00 01 02 03 04 05 06 07 08 09 0A 0B 0C 0D 0E 0F |0123456789ABCDEF|
|------------------------------------------------|----------------|
|00 03 86 0F 01 00                               |......          |
-------------------------------------------------------------------
[Server] packet : (0x86) F_MAIL  Size = 87 
|------------------------------------------------|----------------|
|00 01 02 03 04 05 06 07 08 09 0A 0B 0C 0D 0E 0F |0123456789ABCDEF|
|------------------------------------------------|----------------|
|00 54 86 0D 01 00 00 00 00 01 39 E0 CE 00 00 00 |.T........9.....|
|FF FF FF 21 FF FF FF 21 00 4F 19 21 0D 00 00 04 |...!...!.O.!....|
|DC 00 00 00 00 00 01 00 00 00 04 DE 00 00 00 00 |................|
|00 00 00 00 00 00 27 10 00 00 00 00 04 E4 00 00 |......'.........|
|00 01 01 00 11 57 69 6C 74 65 64 20 57 69 6C 64 |.....Wilted Wild|
|20 57 65 65 64 00 00                            |.......         |
-------------------------------------------------------------------
[Server] packet : (0x51) F_ANIMATION  Size = 9 
|------------------------------------------------|----------------|
|00 01 02 03 04 05 06 07 08 09 0A 0B 0C 0D 0E 0F |0123456789ABCDEF|
|------------------------------------------------|----------------|
|00 06 51 02 B1 00 00 00 00                      |.........       |
-------------------------------------------------------------------
[Client] packet : (0x86) F_MAIL  Size = 23 
|------------------------------------------------|----------------|
|00 01 02 03 04 05 06 07 08 09 0A 0B 0C 0D 0E 0F |0123456789ABCDEF|
|------------------------------------------------|----------------|
|00 0B E0 9D 00 49 FF FF 00 86 08 01 CE E0 39 01 |.....I........9.|
|00 00 00 00 00 00 00                            |.......         |
-------------------------------------------------------------------
[Server] packet : (0x86) F_MAIL  Size = 62 
|------------------------------------------------|----------------|
|00 01 02 03 04 05 06 07 08 09 0A 0B 0C 0D 0E 0F |0123456789ABCDEF|
|------------------------------------------------|----------------|
|00 3B 86 0A 01 00 01 00 00 00 00 01 39 E0 CE 00 |.;..........9...|
|00 00 FF FF FF 20 FF FF FF 20 00 4F 19 20 0D 00 |..... ... .O. ..|
|00 04 DC 00 00 00 00 00 01 00 00 00 04 DE 00 00 |................|
|00 00 00 00 00 00 00 00 27 10 00 00 00 00       |..............  |
-------------------------------------------------------------------
[Server] packet : (0x96) F_KEEP_STATUS  Size = 29 
|------------------------------------------------|----------------|
|00 01 02 03 04 05 06 07 08 09 0A 0B 0C 0D 0E 0F |0123456789ABCDEF|
|------------------------------------------------|----------------|
|00 1A 96 01 05 00 02 01 00 64 00 00 00 00 00 00 |.........d......|
|00 00 00 00 00 00 00 00 00 00 00 00 00          |.............   |
-------------------------------------------------------------------
[Server] packet : (0x86) F_MAIL  Size = 58 
|------------------------------------------------|----------------|
|00 01 02 03 04 05 06 07 08 09 0A 0B 0C 0D 0E 0F |0123456789ABCDEF|
|------------------------------------------------|----------------|
|00 37 86 0B 01 00 00 00 00 01 39 E0 CE 00 00 00 |.7........9.....|
|FF FF FF 1F FF FF FF 1F 00 4F 19 1F 0D 00 00 04 |.........O......|
|DC 00 00 00 00 00 01 00 00 00 04 E2 00 00 00 00 |................|
|00 00 00 00 00 00 00 00 00 00                   |..........      |
-------------------------------------------------------------------
[Client] packet : (0x01) UNKNOWN  Size = 32 
|------------------------------------------------|----------------|
|00 01 02 03 04 05 06 07 08 09 0A 0B 0C 0D 0E 0F |0123456789ABCDEF|
|------------------------------------------------|----------------|
|00 14 E0 A0 00 49 00 00 00 01 00 B1 FE 5E 20 07 |.....I.......^ .|
|2A 68 90 38 40 04 00 23 7B F5 08 18 CE DB 00 00 |*h.8@..#{.......|                                                
-------------------------------------------------------------------
[Server] packet : (0x86) F_MAIL  Size = 7 
|------------------------------------------------|----------------|
|00 01 02 03 04 05 06 07 08 09 0A 0B 0C 0D 0E 0F |0123456789ABCDEF|
|------------------------------------------------|----------------|
|00 04 86 09 01 00 00                            |.......         |
-------------------------------------------------------------------
[Server] packet : (0x86) F_MAIL  Size = 13 
|------------------------------------------------|----------------|
|00 01 02 03 04 05 06 07 08 09 0A 0B 0C 0D 0E 0F |0123456789ABCDEF|
|------------------------------------------------|----------------|
|00 0A 86 0C 01 00 00 00 00 01 39 E0 00          |.............   |
-------------------------------------------------------------------
[Server] packet : (0x86) F_MAIL  Size = 6 
|------------------------------------------------|----------------|
|00 01 02 03 04 05 06 07 08 09 0A 0B 0C 0D 0E 0F |0123456789ABCDEF|
|------------------------------------------------|----------------|
|00 03 86 0F 01 00                               |......          |
-------------------------------------------------------------------
[Server] packet : (0x52) F_PLAYER_WEALTH  Size = 11 
|------------------------------------------------|----------------|
|00 01 02 03 04 05 06 07 08 09 0A 0B 0C 0D 0E 0F |0123456789ABCDEF|
|------------------------------------------------|----------------|
|00 08 52 00 00 00 00 00 06 64 00                |...........     |
-------------------------------------------------------------------
[Server] packet : (0x44) F_ACTION_COUNTER_UPDATE  Size = 11 
|------------------------------------------------|----------------|
|00 01 02 03 04 05 06 07 08 09 0A 0B 0C 0D 0E 0F |0123456789ABCDEF|
|------------------------------------------------|----------------|
|00 08 44 01 E6 00 00 00 15 9D 00                |...........     |
-------------------------------------------------------------------
[Server] packet : (0x00) UNKNOWN  Size = 23 
|------------------------------------------------|----------------|
|00 01 02 03 04 05 06 07 08 09 0A 0B 0C 0D 0E 0F |0123456789ABCDEF|
|------------------------------------------------|----------------|
|00 14 00 00 B1 FE 5E AF FF 36 46 00 00 00 00 00 |......^..6F.....|
|23 7B F5 08 18 CE 00                            |.......         |
-------------------------------------------------------------------
[Client] packet : (0x0B) F_PING  Size = 32 
|------------------------------------------------|----------------|
|00 01 02 03 04 05 06 07 08 09 0A 0B 0C 0D 0E 0F |0123456789ABCDEF|
|------------------------------------------------|----------------|
|00 14 E0 A2 00 49 00 00 00 0B 00 B2 06 C6 61 EF |.....I........a.|
|3F B8 99 9E E6 DA 00 00 00 00 00 00 00 00 7F 05 |?...............|                                                
-------------------------------------------------------------------
[Server] packet : (0x81) S_PONG  Size = 23 
|------------------------------------------------|----------------|
|00 01 02 03 04 05 06 07 08 09 0A 0B 0C 0D 0E 0F |0123456789ABCDEF|
|------------------------------------------------|----------------|
|00 14 81 00 B2 06 C6 52 82 AF EA 00 00 00 00 00 |.......R........|
|00 E0 A3 00 00 00 00                            |.......         |
-------------------------------------------------------------------
[Server] packet : (0x5E) F_SET_TARGET  Size = 9 
|------------------------------------------------|----------------|
|00 01 02 03 04 05 06 07 08 09 0A 0B 0C 0D 0E 0F |0123456789ABCDEF|
|------------------------------------------------|----------------|
|00 06 5E 13 7A 19 A0 01 00                      |.........       |
-------------------------------------------------------------------
[Client] packet : (0x86) F_MAIL  Size = 16 
|------------------------------------------------|----------------|
|00 01 02 03 04 05 06 07 08 09 0A 0B 0C 0D 0E 0F |0123456789ABCDEF|
|------------------------------------------------|----------------|
|00 04 E0 A5 00 49 FF FF 00 86 00 00 00 00 00 00 |.....I..........|                                                
-------------------------------------------------------------------
[Server] packet : (0x86) F_MAIL  Size = 6 
|------------------------------------------------|----------------|
|00 01 02 03 04 05 06 07 08 09 0A 0B 0C 0D 0E 0F |0123456789ABCDEF|
|------------------------------------------------|----------------|
|00 03 86 00 00 00                               |......          |
-------------------------------------------------------------------
[Client] packet : (0x86) F_MAIL  Size = 16 
|------------------------------------------------|----------------|
|00 01 02 03 04 05 06 07 08 09 0A 0B 0C 0D 0E 0F |0123456789ABCDEF|
|------------------------------------------------|----------------|
|00 04 E0 A7 00 49 FF FF 00 86 00 00 00 00 00 00 |.....I..........|                                                
-------------------------------------------------------------------
[Server] packet : (0x86) F_MAIL  Size = 9 
|------------------------------------------------|----------------|
|00 01 02 03 04 05 06 07 08 09 0A 0B 0C 0D 0E 0F |0123456789ABCDEF|
|------------------------------------------------|----------------|
|00 06 86 0A 00 00 00 00 00                      |.........       |
-------------------------------------------------------------------
[Server] packet : (0x86) F_MAIL  Size = 9 
|------------------------------------------------|----------------|
|00 01 02 03 04 05 06 07 08 09 0A 0B 0C 0D 0E 0F |0123456789ABCDEF|
|------------------------------------------------|----------------|
|00 06 86 0A 01 00 00 00 00                      |.........       |
-------------------------------------------------------------------