
[Client] packet : (0x16) F_REQUEST_INIT_OBJECT  Size = 16 
|------------------------------------------------|----------------|
|00 01 02 03 04 05 06 07 08 09 0A 0B 0C 0D 0E 0F |0123456789ABCDEF|
|------------------------------------------------|----------------|
|00 04 08 7D 00 49 00 00 00 16 0A AF 00 00 98 83 |...}.I..........|                                                
-------------------------------------------------------------------
[Server] packet : (0xDA) F_USE_ABILITY  Size = 23 
|------------------------------------------------|----------------|
|00 01 02 03 04 05 06 07 08 09 0A 0B 0C 0D 0E 0F |0123456789ABCDEF|
|------------------------------------------------|----------------|
|00 14 DA 00 00 12 6D 37 57 03 EE 01 AD 02 01 00 |......m7W.......|
|00 00 11 00 00 00 00                            |.......         |
-------------------------------------------------------------------
[Server] packet : (0x72) F_CREATE_MONSTER  Size = 117 
|------------------------------------------------|----------------|
|00 01 02 03 04 05 06 07 08 09 0A 0B 0C 0D 0E 0F |0123456789ABCDEF|
|------------------------------------------------|----------------|
|00 72 72 0A AF 00 55 02 B7 43 B2 00 13 09 A4 00 |.rr...U..C......|
|0C E0 B1 00 00 04 00 32 1B 01 00 00 00 00 00 00 |.......2........|
|00 00 00 03 E8 00 00 00 00 59 22 00 06 00 00 01 |.........Y".....|
|19 00 4B 75 6C 69 61 6E 20 42 6F 6E 65 61 72 63 |..Kulian Bonearc|
|68 65 72 5E 6D 00 01 0A 00 00 00 1A 0D 00 0A AF |her^m...........|
|89 A4 60 B1 43 B2 64 01 66 00 00 00 00 00 55 00 |..`.C.d.f.....U.|
|00 DB 87 AE 61 B8 43 66 0A AF 00 02 00 0A 07 36 |....a.Cf.......6|
|00 0C 05 51 00                                  |.....           |
-------------------------------------------------------------------
[Server] packet : (0x51) F_ANIMATION  Size = 9 
|------------------------------------------------|----------------|
|00 01 02 03 04 05 06 07 08 09 0A 0B 0C 0D 0E 0F |0123456789ABCDEF|
|------------------------------------------------|----------------|
|00 06 51 01 B6 00 AC 00 00                      |.........       |
-------------------------------------------------------------------
[Client] packet : (0x0B) F_PING  Size = 32 
|------------------------------------------------|----------------|
|00 01 02 03 04 05 06 07 08 09 0A 0B 0C 0D 0E 0F |0123456789ABCDEF|
|------------------------------------------------|----------------|
|00 14 08 80 00 49 00 00 00 0B 00 0C 5D 6A 7D AB |.....I......]j}.|
|BD F5 CD D9 D3 5B 00 00 00 00 00 00 00 00 7F 05 |.....[..........|                                                
-------------------------------------------------------------------
[Server] packet : (0x81) S_PONG  Size = 23 
|------------------------------------------------|----------------|
|00 01 02 03 04 05 06 07 08 09 0A 0B 0C 0D 0E 0F |0123456789ABCDEF|
|------------------------------------------------|----------------|
|00 14 81 00 0C 5D 6A 52 82 85 81 00 00 00 00 00 |.....]jR........|
|00 08 81 00 00 00 00                            |.......         |
-------------------------------------------------------------------
[Client] packet : (0xFE) F_PLAY_VOICE_OVER  Size = 16 
|------------------------------------------------|----------------|
|00 01 02 03 04 05 06 07 08 09 0A 0B 0C 0D 0E 0F |0123456789ABCDEF|
|------------------------------------------------|----------------|
|00 04 08 82 00 49 FF FF 00 FE 02 00 00 00 7B A0 |.....I........{.|                                                
-------------------------------------------------------------------
[Server] packet : (0x74) UNKNOWN  Size = 44 
|------------------------------------------------|----------------|
|00 01 02 03 04 05 06 07 08 09 0A 0B 0C 0D 0E 0F |0123456789ABCDEF|
|------------------------------------------------|----------------|
|00 29 74 01 01 00 00 00 04 02 00 00 01 00 03 00 |.)t.............|
|00 00 00 00 00 00 01 00 01 00 00 01 F4 00 00 00 |................|
|66 02 00 01 00 00 01 F4 00 00 01 00             |............    |
-------------------------------------------------------------------
[Server] packet : (0xDA) F_USE_ABILITY  Size = 23 
|------------------------------------------------|----------------|
|00 01 02 03 04 05 06 07 08 09 0A 0B 0C 0D 0E 0F |0123456789ABCDEF|
|------------------------------------------------|----------------|
|00 14 DA 00 00 10 49 01 AD 02 12 37 57 01 01 00 |......I....7W...|
|00 00 00 00 00 00 00                            |.......         |
-------------------------------------------------------------------
[Server] packet : (0xDA) F_USE_ABILITY  Size = 23 
|------------------------------------------------|----------------|
|00 01 02 03 04 05 06 07 08 09 0A 0B 0C 0D 0E 0F |0123456789ABCDEF|
|------------------------------------------------|----------------|
|00 14 DA 00 00 10 49 01 AD 02 12 37 57 02 01 00 |......I....7W...|
|00 00 00 00 00 00 00                            |.......         |
-------------------------------------------------------------------
[Client] packet : (0xD2) F_INTERACT  Size = 24 
|------------------------------------------------|----------------|
|00 01 02 03 04 05 06 07 08 09 0A 0B 0C 0D 0E 0F |0123456789ABCDEF|
|------------------------------------------------|----------------|
|00 0C 08 86 00 49 00 00 00 D2 00 00 04 7A 00 00 |.....I.......z..|
|00 00 00 00 00 00 00 00                         |........        |
-------------------------------------------------------------------
[Server] packet : (0x44) F_ACTION_COUNTER_UPDATE  Size = 11 
|------------------------------------------------|----------------|
|00 01 02 03 04 05 06 07 08 09 0A 0B 0C 0D 0E 0F |0123456789ABCDEF|
|------------------------------------------------|----------------|
|00 08 44 01 D7 00 00 00 00 00 00                |...........     |
-------------------------------------------------------------------
[Server] packet : (0x86) F_MAIL  Size = 6 
|------------------------------------------------|----------------|
|00 01 02 03 04 05 06 07 08 09 0A 0B 0C 0D 0E 0F |0123456789ABCDEF|
|------------------------------------------------|----------------|
|00 03 86 00 00 00                               |......          |
-------------------------------------------------------------------
[Server] packet : (0x86) F_MAIL  Size = 13 
|------------------------------------------------|----------------|
|00 01 02 03 04 05 06 07 08 09 0A 0B 0C 0D 0E 0F |0123456789ABCDEF|
|------------------------------------------------|----------------|
|00 0A 86 0E 00 00 00 00 1E 0A D7 A3 00          |.............   |
-------------------------------------------------------------------
[Server] packet : (0x86) F_MAIL  Size = 412 
|------------------------------------------------|----------------|
|00 01 02 03 04 05 06 07 08 09 0A 0B 0C 0D 0E 0F |0123456789ABCDEF|
|------------------------------------------------|----------------|
|01 99 86 0A 00 00 05 00 00 00 00 01 39 DF 2D 00 |............9.-.|
|00 64 FF FF FD 9B FF FF FD 9B 00 27 8A 9B 00 00 |.d.........'....|
|09 48 61 73 61 72 64 5E 46 00 00 08 57 61 72 65 |.Hasard^F...Ware|
|6D 68 75 00 00 0D 63 6F 75 72 69 65 72 20 76 69 |mhu...courier vi|
|64 65 00 00 00 00 00 00 00 00 00 00 00 00 00 00 |de..............|
|00 01 39 DF 36 00 02 64 FF FF FE 40 FF FF FE 40 |..9.6..d...@...@|
|00 27 8B 40 00 00 09 48 61 73 61 72 64 5E 46 00 |.'.@...Hasard^F.|
|00 08 57 61 72 65 6D 68 75 00 00 09 74 65 73 74 |..Waremhu...test|
|20 30 30 32 00 00 00 00 00 00 00 00 00 00 01 00 | 002............|
|00 00 0B 38 00 00 00 00 01 39 DF 3E 00 02 64 FF |...8.....9.>..d.|
|FF FE 85 FF FF FE 85 00 27 8B 85 00 00 09 48 61 |........'.....Ha|
|73 61 72 64 5E 46 00 00 08 57 61 72 65 6D 68 75 |sard^F...Waremhu|
|00 00 09 74 65 73 74 20 30 30 33 00 00 00 00 00 |...test 003.....|
|00 00 07 D0 00 01 00 00 00 1B AE 00 00 00 00 01 |................|
|39 DF 40 00 02 64 FF FF FE EB FF FF FE EB 00 03 |9.@..d..........|
|F3 6B 00 00 09 48 61 73 61 72 64 5E 46 00 00 08 |.k...Hasard^F...|
|57 61 72 65 6D 68 75 00 00 09 74 65 73 74 20 30 |Waremhu...test 0|
|30 34 00 FF FF FF FF FF FF F8 30 00 01 00 00 00 |04........0.....|
|1A 78 00 00 00 00 01 39 DF 47 00 02 64 FF FF FF |.x.....9.G..d...|
|74 FF FF FF 74 00 27 8C 74 00 00 09 48 61 73 61 |t...t.'.t...Hasa|
|72 64 5E 46 00 00 08 57 61 72 65 6D 68 75 00 00 |rd^F...Waremhu..|
|09 74 65 73 74 20 30 30 35 00 00 00 00 00 00 00 |.test 005.......|
|00 00 00 0D 00 00 00 00 0F 38 00 00 01 97 00 00 |.........8......|
|01 87 00 00 1A 66 00 00 10 01 00 00 0F 38 00 00 |.....f.......8..|
|0F 54 00 00 0F 38 00 00 01 97 00 00 0F 21 00 00 |.T...8.......!..|
|0F 54 00 00 0F 21 00 00 03 12 00 00             |............    |
-------------------------------------------------------------------
[Server] packet : (0xDA) F_USE_ABILITY  Size = 23 
|------------------------------------------------|----------------|
|00 01 02 03 04 05 06 07 08 09 0A 0B 0C 0D 0E 0F |0123456789ABCDEF|
|------------------------------------------------|----------------|
|00 14 DA 00 00 01 AD 01 AD 00 00 37 57 02 00 00 |...........7W...|
|00 00 00 00 00 00 00                            |.......         |
-------------------------------------------------------------------
[Server] packet : (0xDA) F_USE_ABILITY  Size = 23 
|------------------------------------------------|----------------|
|00 01 02 03 04 05 06 07 08 09 0A 0B 0C 0D 0E 0F |0123456789ABCDEF|
|------------------------------------------------|----------------|
|00 14 DA 00 00 37 57 37 57 00 00 01 AD 02 00 00 |.....7W7W.......|
|05 00 00 00 00 00 00                            |.......         |
-------------------------------------------------------------------
[Server] packet : (0x86) F_MAIL  Size = 9 
|------------------------------------------------|----------------|
|00 01 02 03 04 05 06 07 08 09 0A 0B 0C 0D 0E 0F |0123456789ABCDEF|
|------------------------------------------------|----------------|
|00 06 86 0A 01 00 00 00 00                      |.........       |
-------------------------------------------------------------------
[Server] packet : (0xDA) F_USE_ABILITY  Size = 23 
|------------------------------------------------|----------------|
|00 01 02 03 04 05 06 07 08 09 0A 0B 0C 0D 0E 0F |0123456789ABCDEF|
|------------------------------------------------|----------------|
|00 14 DA 00 00 12 2B 37 57 04 73 01 AD 01 01 00 |......+7W.s.....|
|00 00 00 00 00 00 00                            |.......         |
-------------------------------------------------------------------
[Server] packet : (0xDA) F_USE_ABILITY  Size = 23 
|------------------------------------------------|----------------|
|00 01 02 03 04 05 06 07 08 09 0A 0B 0C 0D 0E 0F |0123456789ABCDEF|
|------------------------------------------------|----------------|
|00 14 DA 00 00 12 2B 37 57 04 73 01 AD 02 01 00 |......+7W.s.....|
|00 00 00 00 00 00 00                            |.......         |
-------------------------------------------------------------------
[Server] packet : (0x0A) F_OBJECT_DEATH  Size = 15 
|------------------------------------------------|----------------|
|00 01 02 03 04 05 06 07 08 09 0A 0B 0C 0D 0E 0F |0123456789ABCDEF|
|------------------------------------------------|----------------|
|00 0C 0A 07 54 00 00 00 00 00 00 00 00 00 00    |............... |
-------------------------------------------------------------------
[Server] packet : (0xDA) F_USE_ABILITY  Size = 23 
|------------------------------------------------|----------------|
|00 01 02 03 04 05 06 07 08 09 0A 0B 0C 0D 0E 0F |0123456789ABCDEF|
|------------------------------------------------|----------------|
|00 14 DA 00 00 10 49 01 AD 02 12 37 57 01 01 00 |......I....7W...|
|00 00 00 00 00 00 00                            |.......         |
-------------------------------------------------------------------
[Server] packet : (0xDA) F_USE_ABILITY  Size = 23 
|------------------------------------------------|----------------|
|00 01 02 03 04 05 06 07 08 09 0A 0B 0C 0D 0E 0F |0123456789ABCDEF|
|------------------------------------------------|----------------|
|00 14 DA 00 00 10 49 01 AD 02 12 37 57 02 01 00 |......I....7W...|
|00 00 00 00 00 00 00                            |.......         |
-------------------------------------------------------------------
[Server] packet : (0xDA) F_USE_ABILITY  Size = 23 
|------------------------------------------------|----------------|
|00 01 02 03 04 05 06 07 08 09 0A 0B 0C 0D 0E 0F |0123456789ABCDEF|
|------------------------------------------------|----------------|
|00 14 DA 00 00 01 AD 01 AD 00 00 37 57 02 00 00 |...........7W...|
|00 00 00 00 00 00 00                            |.......         |
-------------------------------------------------------------------
[Server] packet : (0xDA) F_USE_ABILITY  Size = 23 
|------------------------------------------------|----------------|
|00 01 02 03 04 05 06 07 08 09 0A 0B 0C 0D 0E 0F |0123456789ABCDEF|
|------------------------------------------------|----------------|
|00 14 DA 00 00 37 57 37 57 00 00 01 AD 02 00 00 |.....7W7W.......|
|00 00 00 00 00 00 00                            |.......         |
-------------------------------------------------------------------
[Client] packet : (0x5A) F_PING_DATAGRAM  Size = 13 
|------------------------------------------------|----------------|
|00 01 02 03 04 05 06 07 08 09 0A 0B 0C 0D 0E 0F |0123456789ABCDEF|
|------------------------------------------------|----------------|
|00 01 08 8E 00 49 FF FF 00 5A 00 76 13          |.............   |
-------------------------------------------------------------------
[Client] packet : (0x0B) F_PING  Size = 32 
|------------------------------------------------|----------------|
|00 01 02 03 04 05 06 07 08 09 0A 0B 0C 0D 0E 0F |0123456789ABCDEF|
|------------------------------------------------|----------------|
|00 14 08 8F 00 49 00 00 00 0B 00 0C 70 73 36 F7 |.....I......ps6.|
|BF FD B1 B9 F7 07 00 00 00 00 00 00 00 00 7F 05 |................|                                                
-------------------------------------------------------------------
[Server] packet : (0xDA) F_USE_ABILITY  Size = 23 
|------------------------------------------------|----------------|
|00 01 02 03 04 05 06 07 08 09 0A 0B 0C 0D 0E 0F |0123456789ABCDEF|
|------------------------------------------------|----------------|
|00 14 DA 00 00 12 02 37 57 04 68 37 57 01 01 00 |.......7W.h7W...|
|00 00 00 00 00 00 00                            |.......         |
-------------------------------------------------------------------
[Server] packet : (0xDA) F_USE_ABILITY  Size = 23 
|------------------------------------------------|----------------|
|00 01 02 03 04 05 06 07 08 09 0A 0B 0C 0D 0E 0F |0123456789ABCDEF|
|------------------------------------------------|----------------|
|00 14 DA 00 00 12 02 37 57 04 68 37 57 02 01 00 |.......7W.h7W...|
|00 00 00 00 00 00 00                            |.......         |
-------------------------------------------------------------------
[Server] packet : (0x81) S_PONG  Size = 23 
|------------------------------------------------|----------------|
|00 01 02 03 04 05 06 07 08 09 0A 0B 0C 0D 0E 0F |0123456789ABCDEF|
|------------------------------------------------|----------------|
|00 14 81 00 0C 70 73 52 82 85 86 00 00 00 00 00 |.....psR........|
|00 08 90 00 00 00 00                            |.......         |
-------------------------------------------------------------------
[Server] packet : (0xDA) F_USE_ABILITY  Size = 23 
|------------------------------------------------|----------------|
|00 01 02 03 04 05 06 07 08 09 0A 0B 0C 0D 0E 0F |0123456789ABCDEF|
|------------------------------------------------|----------------|
|00 14 DA 00 00 17 68 01 AD 03 EE 37 57 01 01 00 |......h....7W...|
|00 00 00 00 00 00 00                            |.......         |
-------------------------------------------------------------------
[Server] packet : (0xDA) F_USE_ABILITY  Size = 23 
|------------------------------------------------|----------------|
|00 01 02 03 04 05 06 07 08 09 0A 0B 0C 0D 0E 0F |0123456789ABCDEF|
|------------------------------------------------|----------------|
|00 14 DA 00 00 17 68 01 AD 03 EE 37 57 02 01 00 |......h....7W...|
|00 00 00 00 00 00 00                            |.......         |
-------------------------------------------------------------------
[Client] packet : (0x01) UNKNOWN  Size = 32 
|------------------------------------------------|----------------|
|00 01 02 03 04 05 06 07 08 09 0A 0B 0C 0D 0E 0F |0123456789ABCDEF|
|------------------------------------------------|----------------|
|00 14 08 91 00 49 00 00 00 01 00 0C 6D 38 00 00 |.....I......m8..|
|00 00 00 00 00 00 00 00 44 08 00 00 04 14 00 00 |........D.......|                                                
-------------------------------------------------------------------
[Server] packet : (0x00) UNKNOWN  Size = 23 
|------------------------------------------------|----------------|
|00 01 02 03 04 05 06 07 08 09 0A 0B 0C 0D 0E 0F |0123456789ABCDEF|
|------------------------------------------------|----------------|
|00 14 00 00 0C 6D 38 AF 59 7C 31 00 00 00 00 00 |.....m8.Y|1.....|
|00 44 08 00 00 04 00                            |.......         |
-------------------------------------------------------------------
[Client] packet : (0x86) F_MAIL  Size = 23 
|------------------------------------------------|----------------|
|00 01 02 03 04 05 06 07 08 09 0A 0B 0C 0D 0E 0F |0123456789ABCDEF|
|------------------------------------------------|----------------|
|00 0B 08 94 00 49 FF FF 00 86 02 00 2D DF 39 01 |.....I......-.9.|
|00 00 00 00 00 00 00                            |.......         |
-------------------------------------------------------------------
[Server] packet : (0x51) F_ANIMATION  Size = 9 
|------------------------------------------------|----------------|
|00 01 02 03 04 05 06 07 08 09 0A 0B 0C 0D 0E 0F |0123456789ABCDEF|
|------------------------------------------------|----------------|
|00 06 51 29 DF 00 00 00 00                      |.........       |
-------------------------------------------------------------------
[Server] packet : (0x71) F_CREATE_STATIC  Size = 53 
|------------------------------------------------|----------------|
|00 01 02 03 04 05 06 07 08 09 0A 0B 0C 0D 0E 0F |0123456789ABCDEF|
|------------------------------------------------|----------------|
|00 32 71 19 BF 00 00 04 2D 45 D1 00 13 0C 1C 00 |.2q.....-E......|
|0C FD 53 0D 7B 1E 00 00 00 57 13 00 01 01 00 00 |..S.{....W......|
|00 00 64 AF 59 80 04 00 00 00 00 08 46 69 72 65 |..d.Y.......Fire|
|77 61 6C 6C 00                                  |.....           |
-------------------------------------------------------------------
[Server] packet : (0x71) F_CREATE_STATIC  Size = 53 
|------------------------------------------------|----------------|
|00 01 02 03 04 05 06 07 08 09 0A 0B 0C 0D 0E 0F |0123456789ABCDEF|
|------------------------------------------------|----------------|
|00 32 71 1F DF 00 00 04 2D 45 D2 00 13 0C 22 00 |.2q.....-E....".|
|0C FC 65 0D 7B 1E 00 00 00 57 13 00 00 01 00 00 |..e.{....W......|
|00 00 64 AF 59 80 04 00 00 00 00 08 46 69 72 65 |..d.Y.......Fire|
|77 61 6C 6C 00                                  |.....           |
-------------------------------------------------------------------
[Server] packet : (0x71) F_CREATE_STATIC  Size = 53 
|------------------------------------------------|----------------|
|00 01 02 03 04 05 06 07 08 09 0A 0B 0C 0D 0E 0F |0123456789ABCDEF|
|------------------------------------------------|----------------|
|00 32 71 0C 3E 00 00 04 44 45 CF 00 13 0C 0C 00 |.2q.>...DE......|
|0C FE 41 0D 7B 1E 00 00 00 57 13 00 02 01 00 00 |..A.{....W......|
|00 00 64 AF 59 80 04 00 00 00 00 08 46 69 72 65 |..d.Y.......Fire|
|77 61 6C 6C 00                                  |.....           |
-------------------------------------------------------------------
[Server] packet : (0x72) F_CREATE_MONSTER  Size = 131 
|------------------------------------------------|----------------|
|00 01 02 03 04 05 06 07 08 09 0A 0B 0C 0D 0E 0F |0123456789ABCDEF|
|------------------------------------------------|----------------|
|00 80 72 29 DF 00 00 08 16 45 E8 00 13 0B F7 00 |..r).....E......|
|0C FF 01 00 00 06 9B 32 1C 81 00 00 00 00 20 00 |.......2...... .|
|00 01 00 03 E8 00 00 00 00 57 1E 00 00 00 00 02 |.........W......|
|18 19 00 52 61 76 65 6E 20 4D 69 6E 64 62 65 6E |...Raven Mindben|
|64 65 72 5E 66 00 00 00 00 42 02 28 01 0A 00 00 |der^f....B.(....|
|00 12 1D 00 29 DF 8B F7 7F 01 45 E8 64 00 66 00 |....).....E.d.f.|
|00 00 00 42 16 08 29 DF 00 06 00 0A 07 10 00 14 |...B..).........|
|0A AC 00 15 0A AE 00 16 0A AD 00 18 16 FA 00 1C |................|
|0A AB 00                                        |...             |
-------------------------------------------------------------------
[Server] packet : (0xDA) F_USE_ABILITY  Size = 23 
|------------------------------------------------|----------------|
|00 01 02 03 04 05 06 07 08 09 0A 0B 0C 0D 0E 0F |0123456789ABCDEF|
|------------------------------------------------|----------------|
|00 14 DA 00 00 10 49 01 AD 02 12 37 57 01 01 00 |......I....7W...|
|00 00 00 00 00 00 00                            |.......         |
-------------------------------------------------------------------
[Server] packet : (0xDA) F_USE_ABILITY  Size = 23 
|------------------------------------------------|----------------|
|00 01 02 03 04 05 06 07 08 09 0A 0B 0C 0D 0E 0F |0123456789ABCDEF|
|------------------------------------------------|----------------|
|00 14 DA 00 00 10 49 01 AD 02 12 37 57 02 01 00 |......I....7W...|
|00 00 00 00 00 00 00                            |.......         |
-------------------------------------------------------------------
[Server] packet : (0x86) F_MAIL  Size = 91 
|------------------------------------------------|----------------|
|00 01 02 03 04 05 06 07 08 09 0A 0B 0C 0D 0E 0F |0123456789ABCDEF|
|------------------------------------------------|----------------|
|00 58 86 0D 00 00 00 00 00 01 39 DF 2D 00 00 64 |.X........9.-..d|
|FF FF FD 96 FF FF FD 96 00 27 8A 96 00 00 09 48 |.........'.....H|
|61 73 61 72 64 5E 46 00 00 08 57 61 72 65 6D 68 |asard^F...Waremh|
|75 00 00 0D 63 6F 75 72 69 65 72 20 76 69 64 65 |u...courier vide|
|00 00 00 00 00 00 00 00 00 00 00 00 0D 63 6F 75 |.............cou|
|72 69 65 72 20 76 69 64 65 00 00                |...........     |
-------------------------------------------------------------------
[Server] packet : (0x86) F_MAIL  Size = 7 
|------------------------------------------------|----------------|
|00 01 02 03 04 05 06 07 08 09 0A 0B 0C 0D 0E 0F |0123456789ABCDEF|
|------------------------------------------------|----------------|
|00 04 86 09 00 00 00                            |.......         |
-------------------------------------------------------------------
[Server] packet : (0x86) F_MAIL  Size = 75 
|------------------------------------------------|----------------|
|00 01 02 03 04 05 06 07 08 09 0A 0B 0C 0D 0E 0F |0123456789ABCDEF|
|------------------------------------------------|----------------|
|00 48 86 0B 00 00 00 00 00 01 39 DF 2D 00 01 64 |.H........9.-..d|
|FF FF FD 95 FF FF FD 95 00 12 75 00 00 00 09 48 |..........u....H|
|61 73 61 72 64 5E 46 00 00 08 57 61 72 65 6D 68 |asard^F...Waremh|
|75 00 00 0D 63 6F 75 72 69 65 72 20 76 69 64 65 |u...courier vide|
|00 00 00 00 00 00 00 00 00 00 00                |...........     |
-------------------------------------------------------------------
[Server] packet : (0xDA) F_USE_ABILITY  Size = 23 
|------------------------------------------------|----------------|
|00 01 02 03 04 05 06 07 08 09 0A 0B 0C 0D 0E 0F |0123456789ABCDEF|
|------------------------------------------------|----------------|
|00 14 DA 00 00 01 AD 01 AD 00 00 37 57 02 00 00 |...........7W...|
|09 00 00 00 00 00 00                            |.......         |
-------------------------------------------------------------------
[Server] packet : (0xDA) F_USE_ABILITY  Size = 23 
|------------------------------------------------|----------------|
|00 01 02 03 04 05 06 07 08 09 0A 0B 0C 0D 0E 0F |0123456789ABCDEF|
|------------------------------------------------|----------------|
|00 14 DA 00 00 37 57 37 57 00 00 01 AD 02 00 00 |.....7W7W.......|
|00 00 00 00 00 00 00                            |.......         |
-------------------------------------------------------------------
[Server] packet : (0xDA) F_USE_ABILITY  Size = 23 
|------------------------------------------------|----------------|
|00 01 02 03 04 05 06 07 08 09 0A 0B 0C 0D 0E 0F |0123456789ABCDEF|
|------------------------------------------------|----------------|
|00 14 DA 00 00 12 6D 37 57 03 EE 01 AD 01 01 00 |......m7W.......|
|00 07 D0 00 00 00 00                            |.......         |
-------------------------------------------------------------------
[Server] packet : (0xDA) F_USE_ABILITY  Size = 23 
|------------------------------------------------|----------------|
|00 01 02 03 04 05 06 07 08 09 0A 0B 0C 0D 0E 0F |0123456789ABCDEF|
|------------------------------------------------|----------------|
|00 14 DA 00 00 17 68 01 AD 03 EE 37 57 01 01 00 |......h....7W...|
|00 00 00 00 00 00 00                            |.......         |
-------------------------------------------------------------------
[Server] packet : (0xDA) F_USE_ABILITY  Size = 23 
|------------------------------------------------|----------------|
|00 01 02 03 04 05 06 07 08 09 0A 0B 0C 0D 0E 0F |0123456789ABCDEF|
|------------------------------------------------|----------------|
|00 14 DA 00 00 17 68 01 AD 03 EE 37 57 02 01 00 |......h....7W...|
|00 00 00 00 00 00 00                            |.......         |
-------------------------------------------------------------------
[Client] packet : (0x0B) F_PING  Size = 32 
|------------------------------------------------|----------------|
|00 01 02 03 04 05 06 07 08 09 0A 0B 0C 0D 0E 0F |0123456789ABCDEF|
|------------------------------------------------|----------------|
|00 14 08 9B 00 49 00 00 00 0B 00 0C 83 FC 66 14 |.....I........f.|
|86 4F 35 45 25 04 00 00 00 00 00 00 00 00 7F 05 |.O5E%...........|                                                
-------------------------------------------------------------------
[Server] packet : (0x81) S_PONG  Size = 23 
|------------------------------------------------|----------------|
|00 01 02 03 04 05 06 07 08 09 0A 0B 0C 0D 0E 0F |0123456789ABCDEF|
|------------------------------------------------|----------------|
|00 14 81 00 0C 83 FC 52 82 85 8B 00 00 00 00 00 |.......R........|
|00 08 9C 00 00 00 00                            |.......         |
-------------------------------------------------------------------
[Server] packet : (0xDA) F_USE_ABILITY  Size = 23 
|------------------------------------------------|----------------|
|00 01 02 03 04 05 06 07 08 09 0A 0B 0C 0D 0E 0F |0123456789ABCDEF|
|------------------------------------------------|----------------|
|00 14 DA 00 00 12 6D 37 57 03 EE 01 AD 02 01 00 |......m7W.......|
|00 00 ED 00 00 00 00                            |.......         |
-------------------------------------------------------------------