
[Server] packet : (0x72) F_CREATE_MONSTER  Size = 129 
|------------------------------------------------|----------------|
|00 01 02 03 04 05 06 07 08 09 0A 0B 0C 0D 0E 0F |0123456789ABCDEF|
|------------------------------------------------|----------------|
|00 7E 72 30 4D 01 45 07 52 42 97 00 06 B7 54 00 |.~r0M.E.RB....T.|
|02 1D D9 00 00 07 99 32 28 80 00 00 00 00 00 00 |.......2(.......|
|00 01 00 00 00 00 00 00 00 00 00 00 00 00 00 01 |................|
|19 00 42 6C 61 63 6B 2D 46 65 61 74 68 65 72 65 |..Black-Feathere|
|64 20 54 7A 65 65 6E 74 63 68 20 46 61 6D 69 6C |d Tzeentch Famil|
|69 61 72 5E 4E 00 00 00 00 03 01 0A 00 19 69 1A |iar^N.........i.|
|05 00 30 4D 77 54 9D D9 42 97 64 41 A1 10 00 00 |..0MwT..B.dA....|
|00 03 45 01 00 54 77 D9 9D 97 42 A1 30 4D 00 00 |..E..Tw...B.0M..|
|00                                              |.               |
-------------------------------------------------------------------
[Server] packet : (0xDE) F_OBJECT_EFFECT_STATE  Size = 9 
|------------------------------------------------|----------------|
|00 01 02 03 04 05 06 07 08 09 0A 0B 0C 0D 0E 0F |0123456789ABCDEF|
|------------------------------------------------|----------------|
|00 06 DE 19 2D 01 0C 01 00                      |.........       |
-------------------------------------------------------------------
[Server] packet : (0xDE) F_OBJECT_EFFECT_STATE  Size = 9 
|------------------------------------------------|----------------|
|00 01 02 03 04 05 06 07 08 09 0A 0B 0C 0D 0E 0F |0123456789ABCDEF|
|------------------------------------------------|----------------|
|00 06 DE 19 2D 01 0C 00 00                      |.........       |
-------------------------------------------------------------------
[Server] packet : (0x0A) F_OBJECT_DEATH  Size = 15 
|------------------------------------------------|----------------|
|00 01 02 03 04 05 06 07 08 09 0A 0B 0C 0D 0E 0F |0123456789ABCDEF|
|------------------------------------------------|----------------|
|00 0C 0A 19 2D 00 00 00 00 00 00 00 00 00 00    |............... |
-------------------------------------------------------------------
[Client] packet : (0x7D) F_REQUEST_INIT_PLAYER  Size = 14 
|------------------------------------------------|----------------|
|00 01 02 03 04 05 06 07 08 09 0A 0B 0C 0D 0E 0F |0123456789ABCDEF|
|------------------------------------------------|----------------|
|00 02 DE 85 00 49 00 00 00 7D 00 21 FE FF       |..............  |
-------------------------------------------------------------------
[Server] packet : (0x51) F_ANIMATION  Size = 9 
|------------------------------------------------|----------------|
|00 01 02 03 04 05 06 07 08 09 0A 0B 0C 0D 0E 0F |0123456789ABCDEF|
|------------------------------------------------|----------------|
|00 06 51 08 DC 00 81 00 00                      |.........       |
-------------------------------------------------------------------
[Server] packet : (0xE3) F_CREATE_PLAYER  Size = 93 
|------------------------------------------------|----------------|
|00 01 02 03 04 05 06 07 08 09 0A 0B 0C 0D 0E 0F |0123456789ABCDEF|
|------------------------------------------------|----------------|
|00 5A E3 00 21 19 69 00 28 00 15 41 E1 00 A1 76 |.Z..!.i.(..A...v|
|C6 9C 61 06 C0 28 00 03 0A 29 19 06 00 00 05 08 |..a..(...)......|
|04 03 09 00 00 00 00 00 00 00 00 00 00 00 00 05 |................|
|01 4D 64 00 00 08 A8 00 00 00 00 0C 42 6C 61 73 |.Md.........Blas|
|74 70 72 6F 6F 66 5E 46 02 5E 4D 0D 54 68 65 20 |tproof^F.^M.The |
|57 61 6E 64 65 72 65 72 73 00 00 00 00          |.............   |
-------------------------------------------------------------------
[Server] packet : (0xA3) F_ACTIVE_EFFECTS  Size = 18 
|------------------------------------------------|----------------|
|00 01 02 03 04 05 06 07 08 09 0A 0B 0C 0D 0E 0F |0123456789ABCDEF|
|------------------------------------------------|----------------|
|00 0F A3 19 69 01 8B 61 69 19 01 00 03 01 AE EE |....i..ai.......|
|A3 00                                           |..              |
-------------------------------------------------------------------
[Server] packet : (0x51) F_ANIMATION  Size = 9 
|------------------------------------------------|----------------|
|00 01 02 03 04 05 06 07 08 09 0A 0B 0C 0D 0E 0F |0123456789ABCDEF|
|------------------------------------------------|----------------|
|00 06 51 00 4F 00 6C 00 00                      |.........       |
-------------------------------------------------------------------
[Server] packet : (0x51) F_ANIMATION  Size = 9 
|------------------------------------------------|----------------|
|00 01 02 03 04 05 06 07 08 09 0A 0B 0C 0D 0E 0F |0123456789ABCDEF|
|------------------------------------------------|----------------|
|00 06 51 01 C8 00 9B 00 00                      |.........       |
-------------------------------------------------------------------
[Client] packet : (0x0B) F_PING  Size = 32 
|------------------------------------------------|----------------|
|00 01 02 03 04 05 06 07 08 09 0A 0B 0C 0D 0E 0F |0123456789ABCDEF|
|------------------------------------------------|----------------|
|00 14 DE 88 00 49 00 00 00 0B 00 B0 0B C3 AF 17 |.....I..........|
|3A 6E 94 3F 51 54 00 00 00 00 00 00 00 00 7F 05 |:n.?QT..........|                                                
-------------------------------------------------------------------
[Server] packet : (0x81) S_PONG  Size = 23 
|------------------------------------------------|----------------|
|00 01 02 03 04 05 06 07 08 09 0A 0B 0C 0D 0E 0F |0123456789ABCDEF|
|------------------------------------------------|----------------|
|00 14 81 00 B0 0B C3 52 82 AF 68 00 00 00 00 00 |.......R..h.....|
|00 DE 89 00 00 00 00                            |.......         |
-------------------------------------------------------------------
[Server] packet : (0x0A) F_OBJECT_DEATH  Size = 15 
|------------------------------------------------|----------------|
|00 01 02 03 04 05 06 07 08 09 0A 0B 0C 0D 0E 0F |0123456789ABCDEF|
|------------------------------------------------|----------------|
|00 0C 0A 1E FB 05 00 37 1D 00 00 00 00 00 00    |............... |
-------------------------------------------------------------------
[Server] packet : (0x5E) F_SET_TARGET  Size = 9 
|------------------------------------------------|----------------|
|00 01 02 03 04 05 06 07 08 09 0A 0B 0C 0D 0E 0F |0123456789ABCDEF|
|------------------------------------------------|----------------|
|00 06 5E 00 00 0A C7 06 00                      |.........       |
-------------------------------------------------------------------
[Client] packet : (0xD2) F_INTERACT  Size = 24 
|------------------------------------------------|----------------|
|00 01 02 03 04 05 06 07 08 09 0A 0B 0C 0D 0E 0F |0123456789ABCDEF|
|------------------------------------------------|----------------|
|00 0C DE 8B 00 49 00 00 00 D2 00 00 01 9E 00 00 |.....I..........|
|00 00 00 00 00 00 00 00                         |........        |
-------------------------------------------------------------------
[Server] packet : (0x44) F_ACTION_COUNTER_UPDATE  Size = 11 
|------------------------------------------------|----------------|
|00 01 02 03 04 05 06 07 08 09 0A 0B 0C 0D 0E 0F |0123456789ABCDEF|
|------------------------------------------------|----------------|
|00 08 44 01 D7 00 00 00 00 00 00                |...........     |
-------------------------------------------------------------------
[Server] packet : (0x86) F_MAIL  Size = 6 
|------------------------------------------------|----------------|
|00 01 02 03 04 05 06 07 08 09 0A 0B 0C 0D 0E 0F |0123456789ABCDEF|
|------------------------------------------------|----------------|
|00 03 86 00 00 00                               |......          |
-------------------------------------------------------------------
[Server] packet : (0x86) F_MAIL  Size = 13 
|------------------------------------------------|----------------|
|00 01 02 03 04 05 06 07 08 09 0A 0B 0C 0D 0E 0F |0123456789ABCDEF|
|------------------------------------------------|----------------|
|00 0A 86 0E 00 00 00 00 1E 0A D7 A3 00          |.............   |
-------------------------------------------------------------------
[Client] packet : (0xD2) F_INTERACT  Size = 24 
|------------------------------------------------|----------------|
|00 01 02 03 04 05 06 07 08 09 0A 0B 0C 0D 0E 0F |0123456789ABCDEF|
|------------------------------------------------|----------------|
|00 0C DE 8D 00 49 00 00 00 D2 00 00 01 9E 00 00 |.....I..........|
|00 00 00 00 00 00 00 00                         |........        |
-------------------------------------------------------------------
[Client] packet : (0xFE) F_PLAY_VOICE_OVER  Size = 16 
|------------------------------------------------|----------------|
|00 01 02 03 04 05 06 07 08 09 0A 0B 0C 0D 0E 0F |0123456789ABCDEF|
|------------------------------------------------|----------------|
|00 04 DE 8E 00 49 FF FF 00 FE 02 00 00 00 3D A0 |.....I........=.|                                                
-------------------------------------------------------------------
[Server] packet : (0x86) F_MAIL  Size = 9 
|------------------------------------------------|----------------|
|00 01 02 03 04 05 06 07 08 09 0A 0B 0C 0D 0E 0F |0123456789ABCDEF|
|------------------------------------------------|----------------|
|00 06 86 0A 00 00 00 00 00                      |.........       |
-------------------------------------------------------------------
[Server] packet : (0x86) F_MAIL  Size = 6 
|------------------------------------------------|----------------|
|00 01 02 03 04 05 06 07 08 09 0A 0B 0C 0D 0E 0F |0123456789ABCDEF|
|------------------------------------------------|----------------|
|00 03 86 00 00 00                               |......          |
-------------------------------------------------------------------
[Server] packet : (0x86) F_MAIL  Size = 13 
|------------------------------------------------|----------------|
|00 01 02 03 04 05 06 07 08 09 0A 0B 0C 0D 0E 0F |0123456789ABCDEF|
|------------------------------------------------|----------------|
|00 0A 86 0E 00 00 00 00 1E 0A D7 A3 00          |.............   |
-------------------------------------------------------------------
[Server] packet : (0x74) UNKNOWN  Size = 44 
|------------------------------------------------|----------------|
|00 01 02 03 04 05 06 07 08 09 0A 0B 0C 0D 0E 0F |0123456789ABCDEF|
|------------------------------------------------|----------------|
|00 29 74 01 01 00 00 00 04 02 00 00 02 00 03 00 |.)t.............|
|00 00 00 00 00 00 01 00 01 00 00 01 F4 00 00 01 |................|
|D7 02 00 01 00 00 01 F4 00 00 00 00             |............    |
-------------------------------------------------------------------
[Server] packet : (0x86) F_MAIL  Size = 67 
|------------------------------------------------|----------------|
|00 01 02 03 04 05 06 07 08 09 0A 0B 0C 0D 0E 0F |0123456789ABCDEF|
|------------------------------------------------|----------------|
|00 40 86 0A 01 00 01 00 00 00 00 01 39 E0 CD 00 |.@..........9...|
|00 00 FF FF FF 9E FF FF FF 9E 00 4F 19 9E 0D 00 |...........O....|
|00 04 DC 00 00 00 00 00 01 00 00 00 04 E1 00 00 |................|
|00 00 00 00 00 00 00 00 00 00 00 01 00 00 00 0F |................|
|30 00 00                                        |...             |
-------------------------------------------------------------------
[Client] packet : (0x16) F_REQUEST_INIT_OBJECT  Size = 16 
|------------------------------------------------|----------------|
|00 01 02 03 04 05 06 07 08 09 0A 0B 0C 0D 0E 0F |0123456789ABCDEF|
|------------------------------------------------|----------------|
|00 04 DE 92 00 49 00 00 00 16 08 70 00 00 4A 00 |.....I.....p..J.|                                                
-------------------------------------------------------------------
[Client] packet : (0x01) UNKNOWN  Size = 32 
|------------------------------------------------|----------------|
|00 01 02 03 04 05 06 07 08 09 0A 0B 0C 0D 0E 0F |0123456789ABCDEF|
|------------------------------------------------|----------------|
|00 14 DE 93 00 49 00 00 00 01 00 B0 10 60 00 00 |.....I.......`..|
|00 00 00 00 00 00 00 00 42 4E 00 00 08 35 FA E2 |........BN...5..|                                                
-------------------------------------------------------------------
[Server] packet : (0x72) F_CREATE_MONSTER  Size = 109 
|------------------------------------------------|----------------|
|00 01 02 03 04 05 06 07 08 09 0A 0B 0C 0D 0E 0F |0123456789ABCDEF|
|------------------------------------------------|----------------|
|00 6A 72 08 70 00 EB 0F 37 42 1A 00 06 C6 3C 00 |.jr.p...7B....<.|
|02 1C D9 00 00 06 88 32 0A 00 00 00 00 00 00 00 |.......2........|
|00 00 00 03 E8 00 00 00 00 B7 CA 00 02 00 00 02 |................|
|18 19 00 48 6F 72 72 69 66 69 65 64 20 53 6F 75 |...Horrified Sou|
|6C 5E 6D 00 04 CD 01 0A 00 00 00 1A 05 00 08 70 |l^m............p|
|86 3C 9C D9 42 1A 64 01 A1 00 00 00 00 00 EB 00 |.<..B.d.........|
|00 6B 87 91 A0 14 42 A1 08 70 00 00 00          |.............   |
-------------------------------------------------------------------
[Server] packet : (0xDE) F_OBJECT_EFFECT_STATE  Size = 9 
|------------------------------------------------|----------------|
|00 01 02 03 04 05 06 07 08 09 0A 0B 0C 0D 0E 0F |0123456789ABCDEF|
|------------------------------------------------|----------------|
|00 06 DE 08 70 01 0C 01 00                      |.........       |
-------------------------------------------------------------------
[Server] packet : (0xA3) F_ACTIVE_EFFECTS  Size = 18 
|------------------------------------------------|----------------|
|00 01 02 03 04 05 06 07 08 09 0A 0B 0C 0D 0E 0F |0123456789ABCDEF|
|------------------------------------------------|----------------|
|00 0F A3 08 70 01 0C 17 70 08 01 00 03 01 A6 EE |....p...p.......|
|A3 00                                           |..              |
-------------------------------------------------------------------
[Server] packet : (0x00) UNKNOWN  Size = 23 
|------------------------------------------------|----------------|
|00 01 02 03 04 05 06 07 08 09 0A 0B 0C 0D 0E 0F |0123456789ABCDEF|
|------------------------------------------------|----------------|
|00 14 00 00 B0 10 60 AF FD 48 56 00 00 00 00 00 |......`..HV.....|
|00 42 4E 00 00 08 00                            |.......         |
-------------------------------------------------------------------
[Server] packet : (0x7E) F_SET_ABILITY_TIMER  Size = 15 
|------------------------------------------------|----------------|
|00 01 02 03 04 05 06 07 08 09 0A 0B 0C 0D 0E 0F |0123456789ABCDEF|
|------------------------------------------------|----------------|
|00 0C 7E 00 F5 00 00 00 00 00 00 00 00 00 00    |............... |
-------------------------------------------------------------------
[Server] packet : (0x51) F_ANIMATION  Size = 9 
|------------------------------------------------|----------------|
|00 01 02 03 04 05 06 07 08 09 0A 0B 0C 0D 0E 0F |0123456789ABCDEF|
|------------------------------------------------|----------------|
|00 06 51 00 83 00 AD 00 00                      |.........       |
-------------------------------------------------------------------
[Server] packet : (0x47) F_MONSTER_STATS  Size = 38 
|------------------------------------------------|----------------|
|00 01 02 03 04 05 06 07 08 09 0A 0B 0C 0D 0E 0F |0123456789ABCDEF|
|------------------------------------------------|----------------|
|00 23 47 38 E0 28 1D 49 6D 61 67 65 20 6F 66 20 |.#G8.(.Image of |
|52 65 69 6B 6D 61 72 73 68 61 6C 6C 20 48 65 6C |Reikmarshall Hel|
|62 6F 72 67 00 00                               |......          |
-------------------------------------------------------------------
[Server] packet : (0x72) F_CREATE_MONSTER  Size = 144 
|------------------------------------------------|----------------|
|00 01 02 03 04 05 06 07 08 09 0A 0B 0C 0D 0E 0F |0123456789ABCDEF|
|------------------------------------------------|----------------|
|00 8D 72 38 E0 00 00 0D 05 41 EA 00 06 AE 95 00 |..r8.....A......|
|02 0F 79 00 00 04 C2 3C 28 46 00 00 00 00 00 00 |..y....<(F......|
|00 01 00 03 EA 00 00 00 00 B7 BB 00 04 00 00 02 |................|
|19 1C 00 49 6D 61 67 65 20 6F 66 20 52 65 69 6B |...Image of Reik|
|6D 61 72 73 68 61 6C 6C 20 48 65 6C 62 6F 72 67 |marshall Helborg|
|00 00 00 00 06 01 0A 00 00 00 12 21 00 38 E0 6E |...........!.8.n|
|95 8F 79 41 EA 64 00 A1 00 00 00 00 06 05 0D 38 |..yA.d.........8|
|E0 00 07 00 0A 06 51 00 0B 05 62 00 14 0A 5F 00 |......Q...b..._.|
|15 0A 61 00 16 0A 60 00 18 0A 62 00 1C 0A 5E 00 |..a...`...b...^.|                                                
-------------------------------------------------------------------
[Server] packet : (0x72) F_CREATE_MONSTER  Size = 103 
|------------------------------------------------|----------------|
|00 01 02 03 04 05 06 07 08 09 0A 0B 0C 0D 0E 0F |0123456789ABCDEF|
|------------------------------------------------|----------------|
|00 64 72 0D 25 00 00 0E B6 41 D0 00 06 B6 71 00 |.dr.%....A....q.|
|01 FC 95 00 00 04 E4 34 23 82 00 00 00 00 00 00 |.......4#.......|
|00 00 00 03 E8 00 00 00 01 69 B8 00 01 00 00 01 |.........i......|
|19 00 5A 27 6B 61 72 20 47 6F 72 65 66 69 65 6E |..Z'kar Gorefien|
|64 5E 4D 00 01 0A 00 00 00 12 09 00 0D 25 76 71 |d^M..........%vq|
|7C 95 41 D0 64 00 A1 00 00 00 00 00 B6 0E 0D 25 ||.A.d..........%|
|00 01 00 0A 07 1E 00                            |.......         |
-------------------------------------------------------------------
[Server] packet : (0xA9) F_UPDATE_HOT_SPOT  Size = 406 
|------------------------------------------------|----------------|
|00 01 02 03 04 05 06 07 08 09 0A 0B 0C 0D 0E 0F |0123456789ABCDEF|
|------------------------------------------------|----------------|
|01 93 A9 50 02 00 01 00 00 00 00 02 00 00 00 00 |...P............|
|03 00 00 00 00 04 00 00 00 00 05 00 00 00 00 06 |................|
|00 00 00 00 07 00 00 00 00 08 00 00 00 00 09 00 |................|
|00 00 00 0A 00 00 00 00 0B 00 00 00 00 1A 00 00 |................|
|00 00 1B 00 00 00 00 44 00 00 00 00 46 00 00 00 |.......D....F...|
|00 47 00 00 00 00 4A 00 00 00 00 4B 00 00 00 00 |.G....J....K....|
|58 00 00 00 00 64 00 00 00 00 65 00 00 00 00 66 |X....d....e....f|
|00 00 00 00 67 00 00 00 00 68 00 00 00 00 69 00 |....g....h....i.|
|00 00 00 6A 00 00 00 00 6B 00 00 00 00 6C 00 00 |...j....k....l..|
|00 00 6D 00 00 00 00 6E 00 00 00 00 75 00 00 00 |..m....n....u...|
|00 76 00 00 00 00 78 00 00 00 00 81 00 00 00 00 |.v....x.........|
|90 00 00 00 00 91 00 00 00 00 A1 00 00 00 00 A2 |................|
|00 00 00 00 AF 00 00 00 00 B2 00 00 00 00 BE 00 |................|
|00 00 00 BF 00 00 00 00 C0 00 00 00 00 C1 00 00 |................|
|00 00 C6 00 00 00 00 C8 00 00 00 00 C9 00 00 00 |................|
|00 CA 00 00 00 00 CB 00 00 00 00 CC 00 00 00 00 |................|
|CD 02 00 00 00 CE 00 00 00 00 CF 00 00 00 00 D0 |................|
|00 00 00 00 D1 00 00 00 00 D2 00 00 00 00 D3 00 |................|
|00 00 00 D5 00 00 00 00 D7 00 00 00 00 D8 00 00 |................|
|00 00 D9 00 00 00 00 DC 00 00 00 00 DD 00 00 00 |................|
|00 DE 00 00 00 00 E3 00 00 00 00 E4 00 00 00 00 |................|
|FA 00 00 00 00 FB 00 00 00 00 FC 00 00 00 00 FD |................|
|00 00 00 01 15 00 00 00 01 16 00 00 00 01 18 00 |................|
|00 00 01 1B 00 00 00 01 1C 00 00 00 01 1D 00 00 |................|
|00 01 1F 00 00 00 01 22 00 00 00 01 23 00 00 00 |......."....#...|
|01 24 00 00 00 00                               |......          |
-------------------------------------------------------------------
[Server] packet : (0x51) F_ANIMATION  Size = 9 
|------------------------------------------------|----------------|
|00 01 02 03 04 05 06 07 08 09 0A 0B 0C 0D 0E 0F |0123456789ABCDEF|
|------------------------------------------------|----------------|
|00 06 51 00 83 00 AD 00 00                      |.........       |
-------------------------------------------------------------------
[Server] packet : (0xDA) F_USE_ABILITY  Size = 23 
|------------------------------------------------|----------------|
|00 01 02 03 04 05 06 07 08 09 0A 0B 0C 0D 0E 0F |0123456789ABCDEF|
|------------------------------------------------|----------------|
|00 14 DA 00 00 17 0C 38 E0 04 9A 38 E0 01 01 00 |.......8...8....|
|00 00 00 00 00 00 00                            |.......         |
-------------------------------------------------------------------
[Server] packet : (0xDE) F_OBJECT_EFFECT_STATE  Size = 9 
|------------------------------------------------|----------------|
|00 01 02 03 04 05 06 07 08 09 0A 0B 0C 0D 0E 0F |0123456789ABCDEF|
|------------------------------------------------|----------------|
|00 06 DE 38 E0 01 0C 01 00                      |.........       |
-------------------------------------------------------------------
[Client] packet : (0x0B) F_PING  Size = 32 
|------------------------------------------------|----------------|
|00 01 02 03 04 05 06 07 08 09 0A 0B 0C 0D 0E 0F |0123456789ABCDEF|
|------------------------------------------------|----------------|
|00 14 DE 98 00 49 00 00 00 0B 00 B0 1E 97 B3 2F |.....I........./|
|3A 6B FD FC C6 8F 00 00 00 00 00 00 00 00 8F 05 |:k..............|                                                
-------------------------------------------------------------------
[Server] packet : (0x81) S_PONG  Size = 23 
|------------------------------------------------|----------------|
|00 01 02 03 04 05 06 07 08 09 0A 0B 0C 0D 0E 0F |0123456789ABCDEF|
|------------------------------------------------|----------------|
|00 14 81 00 B0 1E 97 52 82 AF 6D 00 00 00 00 00 |.......R..m.....|
|00 DE 99 00 00 00 00                            |.......         |
-------------------------------------------------------------------
[Server] packet : (0x0A) F_OBJECT_DEATH  Size = 15 
|------------------------------------------------|----------------|
|00 01 02 03 04 05 06 07 08 09 0A 0B 0C 0D 0E 0F |0123456789ABCDEF|
|------------------------------------------------|----------------|
|00 0C 0A 27 79 05 00 21 89 00 00 00 00 00 00    |............... |
-------------------------------------------------------------------
[Server] packet : (0x51) F_ANIMATION  Size = 9 
|------------------------------------------------|----------------|
|00 01 02 03 04 05 06 07 08 09 0A 0B 0C 0D 0E 0F |0123456789ABCDEF|
|------------------------------------------------|----------------|
|00 06 51 38 E0 00 70 00 00                      |.........       |
-------------------------------------------------------------------
[Server] packet : (0xDA) F_USE_ABILITY  Size = 23 
|------------------------------------------------|----------------|
|00 01 02 03 04 05 06 07 08 09 0A 0B 0C 0D 0E 0F |0123456789ABCDEF|
|------------------------------------------------|----------------|
|00 14 DA 00 00 17 0C 08 DC 04 9A 08 DC 01 01 00 |................|
|00 00 00 00 00 00 00                            |.......         |
-------------------------------------------------------------------
[Server] packet : (0x51) F_ANIMATION  Size = 9 
|------------------------------------------------|----------------|
|00 01 02 03 04 05 06 07 08 09 0A 0B 0C 0D 0E 0F |0123456789ABCDEF|
|------------------------------------------------|----------------|
|00 06 51 01 07 00 00 00 00                      |.........       |
-------------------------------------------------------------------
[Client] packet : (0x86) F_MAIL  Size = 23 
|------------------------------------------------|----------------|
|00 01 02 03 04 05 06 07 08 09 0A 0B 0C 0D 0E 0F |0123456789ABCDEF|
|------------------------------------------------|----------------|
|00 0B DE A0 00 49 FF FF 00 86 02 01 CD E0 39 01 |.....I........9.|
|00 00 00 00 00 00 00                            |.......         |
-------------------------------------------------------------------
[Client] packet : (0x86) F_MAIL  Size = 23 
|------------------------------------------------|----------------|
|00 01 02 03 04 05 06 07 08 09 0A 0B 0C 0D 0E 0F |0123456789ABCDEF|
|------------------------------------------------|----------------|
|00 0B DE A1 00 49 FF FF 00 86 02 01 CD E0 39 01 |.....I........9.|
|00 00 00 00 00 71 B9                            |.......         |
-------------------------------------------------------------------
[Server] packet : (0x86) F_MAIL  Size = 214 
|------------------------------------------------|----------------|
|00 01 02 03 04 05 06 07 08 09 0A 0B 0C 0D 0E 0F |0123456789ABCDEF|
|------------------------------------------------|----------------|
|00 D3 86 0D 01 00 00 00 00 01 39 E0 CD 00 00 00 |..........9.....|
|FF FF FF 97 FF FF FF 97 00 4F 19 97 0D 00 00 04 |.........O......|
|DC 00 00 00 00 00 01 00 00 00 04 E1 00 00 00 00 |................|
|00 00 00 00 00 00 00 00 00 01 00 00 00 0F 30 00 |..............0.|
|00 04 E7 00 00 00 01 01 00 11 57 69 6C 74 65 64 |..........Wilted|
|20 57 69 6C 64 20 57 65 65 64 00 01 00 00 01 4B | Wild Weed.....K|
|B6 0F 30 00 00 00 00 00 00 00 00 00 00 00 01 00 |..0.............|
|00 00 00 00 00 00 00 00 00 00 00 00 00 00 00 00 |................|
|06 00 14 00 14 00 00 00 00 00 00 00 00 00 00 00 |................|
|00 10 57 69 6C 74 65 64 20 57 69 6C 64 20 57 65 |..Wilted Wild We|
|65 64 00 00 00 06 08 00 05 07 00 04 01 00 00 02 |ed..............|
|00 00 04 00 00 0F 00 01 00 00 00 00 01 00 00 03 |................|
|02 00 08 00 00 00 00 00 00 00 00 00 00 00 00 00 |................|
|00 00 00 00 00 00                               |......          |
-------------------------------------------------------------------
[Server] packet : (0x5E) F_SET_TARGET  Size = 9 
|------------------------------------------------|----------------|
|00 01 02 03 04 05 06 07 08 09 0A 0B 0C 0D 0E 0F |0123456789ABCDEF|
|------------------------------------------------|----------------|
|00 06 5E 03 8D 0A C7 02 00                      |.........       |
-------------------------------------------------------------------
[Server] packet : (0x86) F_MAIL  Size = 214 
|------------------------------------------------|----------------|
|00 01 02 03 04 05 06 07 08 09 0A 0B 0C 0D 0E 0F |0123456789ABCDEF|
|------------------------------------------------|----------------|
|00 D3 86 0D 01 00 00 00 00 01 39 E0 CD 00 00 00 |..........9.....|
|FF FF FF 97 FF FF FF 97 00 4F 19 97 0D 00 00 04 |.........O......|
|DC 00 00 00 00 00 01 00 00 00 04 E1 00 00 00 00 |................|
|00 00 00 00 00 00 00 00 00 01 00 00 00 0F 30 00 |..............0.|
|00 04 E7 00 00 00 01 01 00 11 57 69 6C 74 65 64 |..........Wilted|
|20 57 69 6C 64 20 57 65 65 64 00 01 00 00 01 4B | Wild Weed.....K|
|B6 0F 30 00 00 00 00 00 00 00 00 00 00 00 01 00 |..0.............|
|00 00 00 00 00 00 00 00 00 00 00 00 00 00 00 00 |................|
|06 00 14 00 14 00 00 00 00 00 00 00 00 00 00 00 |................|
|00 10 57 69 6C 74 65 64 20 57 69 6C 64 20 57 65 |..Wilted Wild We|
|65 64 00 00 00 06 08 00 05 07 00 04 01 00 00 02 |ed..............|
|00 00 04 00 00 0F 00 01 00 00 00 00 01 00 00 03 |................|
|02 00 08 00 00 00 00 00 00 00 00 00 00 00 00 00 |................|
|00 00 00 00 00 00                               |......          |
-------------------------------------------------------------------
[Client] packet : (0x86) F_MAIL  Size = 23 
|------------------------------------------------|----------------|
|00 01 02 03 04 05 06 07 08 09 0A 0B 0C 0D 0E 0F |0123456789ABCDEF|
|------------------------------------------------|----------------|
|00 0B DE A4 00 49 FF FF 00 86 08 01 CD E0 39 01 |.....I........9.|
|00 00 00 00 00 00 00                            |.......         |
-------------------------------------------------------------------
[Server] packet : (0x86) F_MAIL  Size = 67 
|------------------------------------------------|----------------|
|00 01 02 03 04 05 06 07 08 09 0A 0B 0C 0D 0E 0F |0123456789ABCDEF|
|------------------------------------------------|----------------|
|00 40 86 0A 01 00 01 00 00 00 00 01 39 E0 CD 00 |.@..........9...|
|00 00 FF FF FF 96 FF FF FF 96 00 4F 19 96 0D 00 |...........O....|
|00 04 DC 00 00 00 00 00 01 00 00 00 04 E1 00 00 |................|
|00 00 00 00 00 00 00 00 00 00 00 01 01 00 00 0F |................|
|30 00 00                                        |...             |
-------------------------------------------------------------------
[Client] packet : (0x0B) F_PING  Size = 32 
|------------------------------------------------|----------------|
|00 01 02 03 04 05 06 07 08 09 0A 0B 0C 0D 0E 0F |0123456789ABCDEF|
|------------------------------------------------|----------------|
|00 14 DE A6 00 49 00 00 00 0B 00 B0 32 D0 A0 DC |.....I......2...|
|C4 44 04 03 3E B0 00 00 00 00 00 00 00 00 7F 05 |.D..>...........|                                                
-------------------------------------------------------------------
[Client] packet : (0x16) F_REQUEST_INIT_OBJECT  Size = 16 
|------------------------------------------------|----------------|
|00 01 02 03 04 05 06 07 08 09 0A 0B 0C 0D 0E 0F |0123456789ABCDEF|
|------------------------------------------------|----------------|
|00 04 DE A7 00 49 00 00 00 16 12 B6 00 00 00 00 |.....I..........|                                                
-------------------------------------------------------------------
[Server] packet : (0x86) F_MAIL  Size = 58 
|------------------------------------------------|----------------|
|00 01 02 03 04 05 06 07 08 09 0A 0B 0C 0D 0E 0F |0123456789ABCDEF|
|------------------------------------------------|----------------|
|00 37 86 0B 01 00 00 00 00 01 39 E0 CD 00 00 00 |.7........9.....|
|FF FF FF 95 FF FF FF 95 00 4F 19 95 0D 00 00 04 |.........O......|
|DC 00 00 00 00 00 01 00 00 00 04 E2 00 00 00 00 |................|
|00 00 00 00 00 00 00 00 00 00                   |..........      |
-------------------------------------------------------------------
[Server] packet : (0x81) S_PONG  Size = 23 
|------------------------------------------------|----------------|
|00 01 02 03 04 05 06 07 08 09 0A 0B 0C 0D 0E 0F |0123456789ABCDEF|
|------------------------------------------------|----------------|
|00 14 81 00 B0 32 D0 52 82 AF 72 00 00 00 00 00 |.....2.R..r.....|
|00 DE A7 00 00 00 00                            |.......         |
-------------------------------------------------------------------
[Server] packet : (0x72) F_CREATE_MONSTER  Size = 104 
|------------------------------------------------|----------------|
|00 01 02 03 04 05 06 07 08 09 0A 0B 0C 0D 0E 0F |0123456789ABCDEF|
|------------------------------------------------|----------------|
|00 65 72 12 B6 00 55 08 A0 42 1E 00 06 C4 ED 00 |.er...U..B......|
|02 1D 9C 00 00 04 44 34 14 02 00 00 00 00 00 00 |......D4........|
|00 00 00 03 E8 00 00 00 00 B9 7E 00 00 00 00 01 |..........~.....|
|19 00 53 6F 75 6C 20 44 72 69 6E 6B 65 72 5E 66 |..Soul Drinker^f|
|00 01 0A 00 00 00 1A 05 00 12 B6 84 ED 9D 9C 42 |...............B|
|1E 64 01 A1 00 00 00 00 00 55 00 00 0D 86 25 99 |.d.......U....%.|
|06 42 A1 12 B6 00 00 00                         |........        |
-------------------------------------------------------------------
[Server] packet : (0x86) F_MAIL  Size = 7 
|------------------------------------------------|----------------|
|00 01 02 03 04 05 06 07 08 09 0A 0B 0C 0D 0E 0F |0123456789ABCDEF|
|------------------------------------------------|----------------|
|00 04 86 09 01 00 00                            |.......         |
-------------------------------------------------------------------
[Server] packet : (0x86) F_MAIL  Size = 13 
|------------------------------------------------|----------------|
|00 01 02 03 04 05 06 07 08 09 0A 0B 0C 0D 0E 0F |0123456789ABCDEF|
|------------------------------------------------|----------------|
|00 0A 86 0C 01 00 00 00 00 01 39 E0 00          |.............   |
-------------------------------------------------------------------
[Server] packet : (0x86) F_MAIL  Size = 6 
|------------------------------------------------|----------------|
|00 01 02 03 04 05 06 07 08 09 0A 0B 0C 0D 0E 0F |0123456789ABCDEF|
|------------------------------------------------|----------------|
|00 03 86 0F 01 00                               |......          |
-------------------------------------------------------------------
[Server] packet : (0x6F) F_LOCALIZED_STRING  Size = 39 
|------------------------------------------------|----------------|
|00 01 02 03 04 05 06 07 08 09 0A 0B 0C 0D 0E 0F |0123456789ABCDEF|
|------------------------------------------------|----------------|
|00 24 6F 02 20 00 00 05 23 00 00 00 02 01 00 11 |.$o. ...#.......|
|57 69 6C 74 65 64 20 57 69 6C 64 20 57 65 65 64 |Wilted Wild Weed|
|00 01 00 03 32 30 00                            |.......         |
-------------------------------------------------------------------
[Server] packet : (0xAA) F_GET_ITEM  Size = 131 
|------------------------------------------------|----------------|
|00 01 02 03 04 05 06 07 08 09 0A 0B 0C 0D 0E 0F |0123456789ABCDEF|
|------------------------------------------------|----------------|
|00 80 AA 01 00 00 00 00 39 00 00 01 4B B6 0F 30 |........9...K..0|
|00 00 00 00 00 00 00 00 00 00 00 01 00 00 00 00 |................|
|00 00 00 00 00 00 00 00 00 00 00 00 00 06 00 14 |................|
|00 14 00 00 00 00 00 00 00 00 00 00 00 00 10 57 |...............W|
|69 6C 74 65 64 20 57 69 6C 64 20 57 65 65 64 00 |ilted Wild Weed.|
|00 00 06 08 00 05 07 00 04 01 00 00 02 00 00 04 |................|
|00 00 0F 00 01 00 00 00 00 01 00 00 03 02 00 08 |................|
|00 00 00 00 00 00 00 00 00 00 00 00 00 00 00 00 |................|
|00 00 00                                        |...             |
-------------------------------------------------------------------
[Server] packet : (0xDE) F_OBJECT_EFFECT_STATE  Size = 9 
|------------------------------------------------|----------------|
|00 01 02 03 04 05 06 07 08 09 0A 0B 0C 0D 0E 0F |0123456789ABCDEF|
|------------------------------------------------|----------------|
|00 06 DE 0A C7 01 1A 00 00                      |.........       |
-------------------------------------------------------------------
[Server] packet : (0x0A) F_OBJECT_DEATH  Size = 15 
|------------------------------------------------|----------------|
|00 01 02 03 04 05 06 07 08 09 0A 0B 0C 0D 0E 0F |0123456789ABCDEF|
|------------------------------------------------|----------------|
|00 0C 0A 0A C7 00 00 00 00 00 00 00 00 00 00    |............... |
-------------------------------------------------------------------
[Client] packet : (0x5A) F_PING_DATAGRAM  Size = 13 
|------------------------------------------------|----------------|
|00 01 02 03 04 05 06 07 08 09 0A 0B 0C 0D 0E 0F |0123456789ABCDEF|
|------------------------------------------------|----------------|
|00 01 DE A9 00 49 FF FF 00 5A 00 73 11          |.............   |
-------------------------------------------------------------------
[Server] packet : (0x0A) F_OBJECT_DEATH  Size = 15 
|------------------------------------------------|----------------|
|00 01 02 03 04 05 06 07 08 09 0A 0B 0C 0D 0E 0F |0123456789ABCDEF|
|------------------------------------------------|----------------|
|00 0C 0A 15 7A 00 00 00 00 00 00 00 00 00 00    |............... |
-------------------------------------------------------------------
[Client] packet : (0x16) F_REQUEST_INIT_OBJECT  Size = 16 
|------------------------------------------------|----------------|
|00 01 02 03 04 05 06 07 08 09 0A 0B 0C 0D 0E 0F |0123456789ABCDEF|
|------------------------------------------------|----------------|
|00 04 DE AB 00 49 00 00 00 16 08 70 00 00 87 01 |.....I.....p....|                                                
-------------------------------------------------------------------
[Server] packet : (0x72) F_CREATE_MONSTER  Size = 109 
|------------------------------------------------|----------------|
|00 01 02 03 04 05 06 07 08 09 0A 0B 0C 0D 0E 0F |0123456789ABCDEF|
|------------------------------------------------|----------------|
|00 6A 72 08 70 00 EB 01 39 42 1A 00 06 C6 3C 00 |.jr.p...9B....<.|
|02 1C D9 00 00 06 88 32 0A 00 00 00 00 00 00 00 |.......2........|
|00 00 00 03 E8 00 00 00 00 B7 CA 00 02 00 00 02 |................|
|18 19 00 48 6F 72 72 69 66 69 65 64 20 53 6F 75 |...Horrified Sou|
|6C 5E 6D 00 04 CD 01 0A 00 00 00 1A 05 00 08 70 |l^m............p|
|86 3C 9C D9 42 1A 64 01 A1 00 00 00 00 00 EB 00 |.<..B.d.........|
|00 83 84 27 A0 16 42 A1 08 70 00 00 00          |.............   |
-------------------------------------------------------------------
[Server] packet : (0xDE) F_OBJECT_EFFECT_STATE  Size = 9 
|------------------------------------------------|----------------|
|00 01 02 03 04 05 06 07 08 09 0A 0B 0C 0D 0E 0F |0123456789ABCDEF|
|------------------------------------------------|----------------|
|00 06 DE 08 70 01 0C 01 00                      |.........       |
-------------------------------------------------------------------
[Server] packet : (0xA3) F_ACTIVE_EFFECTS  Size = 18 
|------------------------------------------------|----------------|
|00 01 02 03 04 05 06 07 08 09 0A 0B 0C 0D 0E 0F |0123456789ABCDEF|
|------------------------------------------------|----------------|
|00 0F A3 08 70 01 0C 17 70 08 01 00 03 01 94 EE |....p...p.......|
|A3 00                                           |..              |
-------------------------------------------------------------------