
[Server] packet : (0x51) F_ANIMATION  Size = 9 
|------------------------------------------------|----------------|
|00 01 02 03 04 05 06 07 08 09 0A 0B 0C 0D 0E 0F |0123456789ABCDEF|
|------------------------------------------------|----------------|
|00 06 51 00 F4 00 00 00 00                      |.........       |
-------------------------------------------------------------------
[Client] packet : (0x01) UNKNOWN  Size = 32 
|------------------------------------------------|----------------|
|00 01 02 03 04 05 06 07 08 09 0A 0B 0C 0D 0E 0F |0123456789ABCDEF|
|------------------------------------------------|----------------|
|00 14 8B BF 00 1F 00 00 00 01 00 79 21 32 20 07 |...........y!2 .|
|2A 68 90 38 40 04 00 23 7F F0 08 18 E3 6B 6C 5D |*h.8@..#.....kl]|                                                
-------------------------------------------------------------------
[Server] packet : (0x00) UNKNOWN  Size = 23 
|------------------------------------------------|----------------|
|00 01 02 03 04 05 06 07 08 09 0A 0B 0C 0D 0E 0F |0123456789ABCDEF|
|------------------------------------------------|----------------|
|00 14 00 00 79 21 32 7C 5D AF 1A 00 00 00 00 00 |....y!2|].......|
|23 7F F0 08 18 E3 00                            |.......         |
-------------------------------------------------------------------
[Client] packet : (0x0B) F_PING  Size = 32 
|------------------------------------------------|----------------|
|00 01 02 03 04 05 06 07 08 09 0A 0B 0C 0D 0E 0F |0123456789ABCDEF|
|------------------------------------------------|----------------|
|00 14 8B C1 00 1F 00 00 00 0B 00 79 28 3E D9 2B |...........y(>.+|
|F9 BA 1B 3B FB EF 00 00 00 00 00 00 00 00 C0 88 |...;............|                                                
-------------------------------------------------------------------
[Server] packet : (0x81) S_PONG  Size = 23 
|------------------------------------------------|----------------|
|00 01 02 03 04 05 06 07 08 09 0A 0B 0C 0D 0E 0F |0123456789ABCDEF|
|------------------------------------------------|----------------|
|00 14 81 00 79 28 3E 52 75 78 51 00 00 00 00 00 |....y(>RuxQ.....|
|00 8B C2 00 00 00 00                            |.......         |
-------------------------------------------------------------------
[Server] packet : (0x96) F_KEEP_STATUS  Size = 29 
|------------------------------------------------|----------------|
|00 01 02 03 04 05 06 07 08 09 0A 0B 0C 0D 0E 0F |0123456789ABCDEF|
|------------------------------------------------|----------------|
|00 1A 96 09 01 00 01 02 00 64 00 00 00 00 00 00 |.........d......|
|00 00 00 00 00 00 00 00 00 00 00 00 00          |.............   |
-------------------------------------------------------------------
[Client] packet : (0xD2) F_INTERACT  Size = 24 
|------------------------------------------------|----------------|
|00 01 02 03 04 05 06 07 08 09 0A 0B 0C 0D 0E 0F |0123456789ABCDEF|
|------------------------------------------------|----------------|
|00 0C 8B C6 00 1F 00 00 00 D2 00 00 00 90 00 00 |................|
|00 00 00 00 00 00 00 00                         |........        |
-------------------------------------------------------------------
[Client] packet : (0xE8) F_CLIENT_DATA  Size = 20 
|------------------------------------------------|----------------|
|00 01 02 03 04 05 06 07 08 09 0A 0B 0C 0D 0E 0F |0123456789ABCDEF|
|------------------------------------------------|----------------|
|00 08 8B C8 00 1F 00 00 00 E8 00 18 00 04 6E 21 |..............n!|
|01 00 00 00                                     |....            |
-------------------------------------------------------------------
[Client] packet : (0xE8) F_CLIENT_DATA  Size = 20 
|------------------------------------------------|----------------|
|00 01 02 03 04 05 06 07 08 09 0A 0B 0C 0D 0E 0F |0123456789ABCDEF|
|------------------------------------------------|----------------|
|00 08 8B C9 00 1F 00 00 00 E8 00 A4 00 04 4E 38 |..............N8|
|01 00 D9 42                                     |....            |
-------------------------------------------------------------------
[Client] packet : (0xE8) F_CLIENT_DATA  Size = 20 
|------------------------------------------------|----------------|
|00 01 02 03 04 05 06 07 08 09 0A 0B 0C 0D 0E 0F |0123456789ABCDEF|
|------------------------------------------------|----------------|
|00 08 8B CA 00 1F 00 00 00 E8 00 24 00 04 74 21 |...........$..t!|
|01 00 89 7D                                     |....            |
-------------------------------------------------------------------
[Server] packet : (0x7E) F_SET_ABILITY_TIMER  Size = 15 
|------------------------------------------------|----------------|
|00 01 02 03 04 05 06 07 08 09 0A 0B 0C 0D 0E 0F |0123456789ABCDEF|
|------------------------------------------------|----------------|
|00 0C 7E 00 01 01 00 00 00 00 00 00 00 00 00    |............... |
-------------------------------------------------------------------
[Server] packet : (0xE9) F_INTERACT_RESPONSE  Size = 94 
|------------------------------------------------|----------------|
|00 01 02 03 04 05 06 07 08 09 0A 0B 0C 0D 0E 0F |0123456789ABCDEF|
|------------------------------------------------|----------------|
|00 5B E9 00 00 90 00 00 40 22 00 51 4D 79 73 74 |.[......@".QMyst|
|69 63 61 6C 20 74 61 6C 69 73 6D 61 6E 73 2C 20 |ical talismans, |
|63 72 79 70 74 69 63 20 73 69 67 69 6C 73 20 61 |cryptic sigils a|
|6E 64 20 72 75 6E 65 64 20 61 6D 75 6C 65 74 73 |nd runed amulets|
|2C 20 61 6C 6C 20 63 61 6E 20 62 65 20 68 61 64 |, all can be had|
|20 66 6F 72 20 61 20 70 72 69 63 65 21 00       |..............  |
-------------------------------------------------------------------
[Client] packet : (0xD2) F_INTERACT  Size = 24 
|------------------------------------------------|----------------|
|00 01 02 03 04 05 06 07 08 09 0A 0B 0C 0D 0E 0F |0123456789ABCDEF|
|------------------------------------------------|----------------|
|00 0C 8B CD 00 1F 00 00 00 D2 00 00 00 90 00 09 |................|
|00 00 00 00 00 00 00 00                         |........        |
-------------------------------------------------------------------
[Server] packet : (0xBF) F_INIT_STORE  Size = 4986 
|------------------------------------------------|----------------|
|00 01 02 03 04 05 06 07 08 09 0A 0B 0C 0D 0E 0F |0123456789ABCDEF|
|------------------------------------------------|----------------|
|13 77 BF 00 00 00 11 01 00 00 00 01 03 00 00 00 |.w..............|
|00 00 00 1E 98 73 20 98 00 00 00 00 00 00 00 00 |.....s .........|
|00 17 00 00 00 00 00 03 00 00 00 00 00 00 00 00 |................|
|00 00 00 00 00 00 00 00 00 00 00 14 00 01 00 00 |................|
|00 00 00 00 00 00 00 00 00 00 17 56 69 6F 6C 65 |...........Viole|
|6E 74 20 4D 79 72 6D 69 64 6F 6E 27 73 20 53 6F |nt Myrmidon's So|
|75 6C 01 01 00 1E 00 00 00 38 40 00 00 00 00 00 |ul.......8@.....|
|7F 54 68 69 73 20 74 61 6C 69 73 6D 61 6E 20 63 |.This talisman c|
|61 6E 20 6F 6E 6C 79 20 62 65 20 75 73 65 64 20 |an only be used |
|77 69 74 68 20 61 20 6E 6F 72 6D 61 6C 20 76 65 |with a normal ve|
|73 73 65 6C 20 77 65 61 70 6F 6E 2E 20 43 54 4C |ssel weapon. CTL|
|2B 52 69 67 68 74 20 43 6C 69 63 6B 20 74 6F 20 |+Right Click to |
|63 6F 6E 76 65 72 74 20 62 65 74 77 65 65 6E 20 |convert between |
|6E 6F 72 6D 61 6C 20 6F 72 20 6C 61 72 67 65 20 |normal or large |
|77 65 61 70 6F 6E 20 76 65 72 73 69 6F 6E 73 2E |weapon versions.|
|00 01 00 00 03 0A A0 00 00 00 00 00 00 00 00 00 |................|
|00 00 00 00 00 00 00 00 00 00 00 01 00 03 2E 19 |................|
|1E 29 0D 47 6F 6C 64 65 6E 20 53 63 61 72 61 62 |.).Golden Scarab|
|00 02 00 00 00 00 00 00 00 00 00 00 00 00 00 00 |................|
|00 00 00 00 02 03 00 00 00 00 00 00 1E 98 74 20 |..............t |
|9B 00 00 00 00 00 00 00 00 00 17 00 00 00 00 00 |................|
|03 00 00 00 00 00 00 00 00 00 00 00 00 00 00 00 |................|
|00 00 00 00 14 00 01 00 00 00 00 00 00 00 00 00 |................|
|00 00 00 1A 44 65 74 65 72 6D 69 6E 65 64 20 4D |....Determined M|
|79 72 6D 69 64 6F 6E 27 73 20 53 6F 75 6C 01 03 |yrmidon's Soul..|
|00 1E 00 00 00 38 40 00 00 00 00 00 7F 54 68 69 |.....8@......Thi|
|73 20 74 61 6C 69 73 6D 61 6E 20 63 61 6E 20 6F |s talisman can o|
|6E 6C 79 20 62 65 20 75 73 65 64 20 77 69 74 68 |nly be used with|
|20 61 20 6E 6F 72 6D 61 6C 20 76 65 73 73 65 6C | a normal vessel|
|20 77 65 61 70 6F 6E 2E 20 43 54 4C 2B 52 69 67 | weapon. CTL+Rig|
|68 74 20 43 6C 69 63 6B 20 74 6F 20 63 6F 6E 76 |ht Click to conv|
|65 72 74 20 62 65 74 77 65 65 6E 20 6E 6F 72 6D |ert between norm|
|61 6C 20 6F 72 20 6C 61 72 67 65 20 77 65 61 70 |al or large weap|
|6F 6E 20 76 65 72 73 69 6F 6E 73 2E 00 01 00 00 |on versions.....|
|03 0A A0 00 00 00 00 00 00 00 00 00 00 00 00 00 |................|
|00 00 00 00 00 00 00 01 00 03 2E 19 1E 29 0D 47 |.............).G|
|6F 6C 64 65 6E 20 53 63 61 72 61 62 00 02 00 00 |olden Scarab....|
|00 00 00 00 00 00 00 00 00 00 00 00 00 00 00 00 |................|
|03 03 00 00 00 00 00 00 1E 98 75 20 99 00 00 00 |..........u ....|
|00 00 00 00 00 00 17 00 00 00 00 00 03 00 00 00 |................|
|00 00 00 00 00 00 00 00 00 00 00 00 00 00 00 00 |................|
|14 00 01 00 00 00 00 00 00 00 00 00 00 00 00 18 |................|
|48 61 72 64 65 6E 65 64 20 4D 79 72 6D 69 64 6F |Hardened Myrmido|
|6E 27 73 20 53 6F 75 6C 01 04 00 1E 00 00 00 38 |n's Soul.......8|
|40 00 00 00 00 00 7F 54 68 69 73 20 74 61 6C 69 |@......This tali|
|73 6D 61 6E 20 63 61 6E 20 6F 6E 6C 79 20 62 65 |sman can only be|
|20 75 73 65 64 20 77 69 74 68 20 61 20 6E 6F 72 | used with a nor|
|6D 61 6C 20 76 65 73 73 65 6C 20 77 65 61 70 6F |mal vessel weapo|
|6E 2E 20 43 54 4C 2B 52 69 67 68 74 20 43 6C 69 |n. CTL+Right Cli|
|63 6B 20 74 6F 20 63 6F 6E 76 65 72 74 20 62 65 |ck to convert be|
|74 77 65 65 6E 20 6E 6F 72 6D 61 6C 20 6F 72 20 |tween normal or |
|6C 61 72 67 65 20 77 65 61 70 6F 6E 20 76 65 72 |large weapon ver|
|73 69 6F 6E 73 2E 00 01 00 00 03 0A A0 00 00 00 |sions...........|
|00 00 00 00 00 00 00 00 00 00 00 00 00 00 00 00 |................|
|00 01 00 03 2E 19 1E 29 0D 47 6F 6C 64 65 6E 20 |.......).Golden |
|53 63 61 72 61 62 00 02 00 00 00 00 00 00 00 00 |Scarab..........|
|00 00 00 00 00 00 00 00 00 00 04 03 00 00 00 00 |................|
|00 00 1E 98 76 20 9C 00 00 00 00 00 00 00 00 00 |....v ..........|
|17 00 00 00 00 00 03 00 00 00 00 00 00 00 00 00 |................|
|00 00 00 00 00 00 00 00 00 00 14 00 01 00 00 00 |................|
|00 00 00 00 00 00 00 00 00 18 45 6E 64 75 72 69 |..........Enduri|
|6E 67 20 4D 79 72 6D 69 64 6F 6E 27 73 20 53 6F |ng Myrmidon's So|
|75 6C 01 05 00 1E 00 00 00 38 40 00 00 00 00 00 |ul.......8@.....|
|7F 54 68 69 73 20 74 61 6C 69 73 6D 61 6E 20 63 |.This talisman c|
|61 6E 20 6F 6E 6C 79 20 62 65 20 75 73 65 64 20 |an only be used |
|77 69 74 68 20 61 20 6E 6F 72 6D 61 6C 20 76 65 |with a normal ve|
|73 73 65 6C 20 77 65 61 70 6F 6E 2E 20 43 54 4C |ssel weapon. CTL|
|2B 52 69 67 68 74 20 43 6C 69 63 6B 20 74 6F 20 |+Right Click to |
|63 6F 6E 76 65 72 74 20 62 65 74 77 65 65 6E 20 |convert between |
|6E 6F 72 6D 61 6C 20 6F 72 20 6C 61 72 67 65 20 |normal or large |
|77 65 61 70 6F 6E 20 76 65 72 73 69 6F 6E 73 2E |weapon versions.|
|00 01 00 00 03 0A A0 00 00 00 00 00 00 00 00 00 |................|
|00 00 00 00 00 00 00 00 00 00 00 01 00 03 2E 19 |................|
|1E 29 0D 47 6F 6C 64 65 6E 20 53 63 61 72 61 62 |.).Golden Scarab|
|00 02 00 00 00 00 00 00 00 00 00 00 00 00 00 00 |................|
|00 00 00 00 05 03 00 00 00 00 00 00 1E 98 77 20 |..............w |
|8D 00 00 00 00 00 00 00 00 00 17 00 00 00 00 00 |................|
|03 00 00 00 00 00 00 00 00 00 00 00 00 00 00 00 |................|
|00 00 00 00 14 00 01 00 00 00 00 00 00 00 00 00 |................|
|00 00 00 16 4E 69 6D 62 6C 65 20 4D 79 72 6D 69 |....Nimble Myrmi|
|64 6F 6E 27 73 20 53 6F 75 6C 01 06 00 1E 00 00 |don's Soul......|
|00 38 40 00 00 00 00 00 7F 54 68 69 73 20 74 61 |.8@......This ta|
|6C 69 73 6D 61 6E 20 63 61 6E 20 6F 6E 6C 79 20 |lisman can only |
|62 65 20 75 73 65 64 20 77 69 74 68 20 61 20 6E |be used with a n|
|6F 72 6D 61 6C 20 76 65 73 73 65 6C 20 77 65 61 |ormal vessel wea|
|70 6F 6E 2E 20 43 54 4C 2B 52 69 67 68 74 20 43 |pon. CTL+Right C|
|6C 69 63 6B 20 74 6F 20 63 6F 6E 76 65 72 74 20 |lick to convert |
|62 65 74 77 65 65 6E 20 6E 6F 72 6D 61 6C 20 6F |between normal o|
|72 20 6C 61 72 67 65 20 77 65 61 70 6F 6E 20 76 |r large weapon v|
|65 72 73 69 6F 6E 73 2E 00 01 00 00 03 0A A0 00 |ersions.........|
|00 00 00 00 00 00 00 00 00 00 00 00 00 00 00 00 |................|
|00 00 00 01 00 03 2E 19 1E 29 0D 47 6F 6C 64 65 |.........).Golde|
|6E 20 53 63 61 72 61 62 00 02 00 00 00 00 00 00 |n Scarab........|
|00 00 00 00 00 00 00 00 00 00 00 00 06 03 00 00 |................|
|00 00 00 00 1E 98 78 20 9A 00 00 00 00 00 00 00 |......x ........|
|00 00 17 00 00 00 00 00 03 00 00 00 00 00 00 00 |................|
|00 00 00 00 00 00 00 00 00 00 00 00 14 00 01 00 |................|
|00 00 00 00 00 00 00 00 00 00 00 19 44 65 78 65 |............Dexe|
|72 74 6F 75 73 20 4D 79 72 6D 69 64 6F 6E 27 73 |rtous Myrmidon's|
|20 53 6F 75 6C 01 07 00 1E 00 00 00 38 40 00 00 | Soul.......8@..|
|00 00 00 7F 54 68 69 73 20 74 61 6C 69 73 6D 61 |....This talisma|
|6E 20 63 61 6E 20 6F 6E 6C 79 20 62 65 20 75 73 |n can only be us|
|65 64 20 77 69 74 68 20 61 20 6E 6F 72 6D 61 6C |ed with a normal|
|20 76 65 73 73 65 6C 20 77 65 61 70 6F 6E 2E 20 | vessel weapon. |
|43 54 4C 2B 52 69 67 68 74 20 43 6C 69 63 6B 20 |CTL+Right Click |
|74 6F 20 63 6F 6E 76 65 72 74 20 62 65 74 77 65 |to convert betwe|
|65 6E 20 6E 6F 72 6D 61 6C 20 6F 72 20 6C 61 72 |en normal or lar|
|67 65 20 77 65 61 70 6F 6E 20 76 65 72 73 69 6F |ge weapon versio|
|6E 73 2E 00 01 00 00 03 0A A0 00 00 00 00 00 00 |ns..............|
|00 00 00 00 00 00 00 00 00 00 00 00 00 00 01 00 |................|
|03 2E 19 1E 29 0D 47 6F 6C 64 65 6E 20 53 63 61 |....).Golden Sca|
|72 61 62 00 02 00 00 00 00 00 00 00 00 00 00 00 |rab.............|
|00 00 00 00 00 00 00 07 03 00 00 00 00 00 00 1E |................|
|98 79 20 83 00 00 00 00 00 00 00 00 00 17 00 00 |.y .............|
|00 00 00 03 00 00 00 00 00 00 00 00 00 00 00 00 |................|
|00 00 00 00 00 00 00 14 00 01 00 00 00 00 00 00 |................|
|00 00 00 00 00 00 17 46 6F 63 75 73 65 64 20 4D |.......Focused M|
|79 72 6D 69 64 6F 6E 27 73 20 53 6F 75 6C 01 08 |yrmidon's Soul..|
|00 1E 00 00 00 38 40 00 00 00 00 00 7F 54 68 69 |.....8@......Thi|
|73 20 74 61 6C 69 73 6D 61 6E 20 63 61 6E 20 6F |s talisman can o|
|6E 6C 79 20 62 65 20 75 73 65 64 20 77 69 74 68 |nly be used with|
|20 61 20 6E 6F 72 6D 61 6C 20 76 65 73 73 65 6C | a normal vessel|
|20 77 65 61 70 6F 6E 2E 20 43 54 4C 2B 52 69 67 | weapon. CTL+Rig|
|68 74 20 43 6C 69 63 6B 20 74 6F 20 63 6F 6E 76 |ht Click to conv|
|65 72 74 20 62 65 74 77 65 65 6E 20 6E 6F 72 6D |ert between norm|
|61 6C 20 6F 72 20 6C 61 72 67 65 20 77 65 61 70 |al or large weap|
|6F 6E 20 76 65 72 73 69 6F 6E 73 2E 00 01 00 00 |on versions.....|
|03 0A A0 00 00 00 00 00 00 00 00 00 00 00 00 00 |................|
|00 00 00 00 00 00 00 01 00 03 2E 19 1E 29 0D 47 |.............).G|
|6F 6C 64 65 6E 20 53 63 61 72 61 62 00 02 00 00 |olden Scarab....|
|00 00 00 00 00 00 00 00 00 00 00 00 00 00 00 00 |................|
|08 03 00 00 00 00 00 00 1E 98 7A 20 8E 00 00 00 |..........z ....|
|00 00 00 00 00 00 17 00 00 00 00 00 03 00 00 00 |................|
|00 00 00 00 00 00 00 00 00 00 00 00 00 00 00 00 |................|
|14 00 01 00 00 00 00 00 00 00 00 00 00 00 00 13 |................|
|53 6C 79 20 4D 79 72 6D 69 64 6F 6E 27 73 20 53 |Sly Myrmidon's S|
|6F 75 6C 01 09 00 1E 00 00 00 38 40 00 00 00 00 |oul.......8@....|
|00 7F 54 68 69 73 20 74 61 6C 69 73 6D 61 6E 20 |..This talisman |
|63 61 6E 20 6F 6E 6C 79 20 62 65 20 75 73 65 64 |can only be used|
|20 77 69 74 68 20 61 20 6E 6F 72 6D 61 6C 20 76 | with a normal v|
|65 73 73 65 6C 20 77 65 61 70 6F 6E 2E 20 43 54 |essel weapon. CT|
|4C 2B 52 69 67 68 74 20 43 6C 69 63 6B 20 74 6F |L+Right Click to|
|20 63 6F 6E 76 65 72 74 20 62 65 74 77 65 65 6E | convert between|
|20 6E 6F 72 6D 61 6C 20 6F 72 20 6C 61 72 67 65 | normal or large|
|20 77 65 61 70 6F 6E 20 76 65 72 73 69 6F 6E 73 | weapon versions|
|2E 00 01 00 00 03 0A A0 00 00 00 00 00 00 00 00 |................|
|00 00 00 00 00 00 00 00 00 00 00 00 01 00 03 2E |................|
|19 1E 29 0D 47 6F 6C 64 65 6E 20 53 63 61 72 61 |..).Golden Scara|
|62 00 02 00 00 00 00 00 00 00 00 00 00 00 00 00 |b...............|
|00 00 00 00 00 09 03 00 00 00 00 00 00 1E 98 7B |...............{|
|20 90 00 00 00 00 00 00 00 00 00 17 00 00 00 00 | ...............|
|00 03 00 00 00 00 00 00 00 00 00 00 00 00 00 00 |................|
|00 00 00 00 00 14 00 01 00 00 00 00 00 00 00 00 |................|
|00 00 00 00 16 44 61 72 6B 20 48 69 65 72 6F 70 |.....Dark Hierop|
|68 61 6E 74 27 73 20 53 6F 75 6C 01 50 00 3C 00 |hant's Soul.P.<.|
|00 00 38 40 00 00 00 00 00 7F 54 68 69 73 20 74 |..8@......This t|
|61 6C 69 73 6D 61 6E 20 63 61 6E 20 6F 6E 6C 79 |alisman can only|
|20 62 65 20 75 73 65 64 20 77 69 74 68 20 61 20 | be used with a |
|6E 6F 72 6D 61 6C 20 76 65 73 73 65 6C 20 77 65 |normal vessel we|
|61 70 6F 6E 2E 20 43 54 4C 2B 52 69 67 68 74 20 |apon. CTL+Right |
|43 6C 69 63 6B 20 74 6F 20 63 6F 6E 76 65 72 74 |Click to convert|
|20 62 65 74 77 65 65 6E 20 6E 6F 72 6D 61 6C 20 | between normal |
|6F 72 20 6C 61 72 67 65 20 77 65 61 70 6F 6E 20 |or large weapon |
|76 65 72 73 69 6F 6E 73 2E 00 01 00 00 03 0A A0 |versions........|
|00 00 00 00 00 00 00 00 00 00 00 00 00 00 00 00 |................|
|00 00 00 00 01 00 03 2E 19 1E 29 0D 47 6F 6C 64 |..........).Gold|
|65 6E 20 53 63 61 72 61 62 00 02 00 00 00 00 00 |en Scarab.......|
|00 00 00 00 00 00 00 00 00 00 00 00 00 0A 03 00 |................|
|00 00 00 00 00 1E 98 7C 20 8F 00 00 00 00 00 00 |.......| .......|
|00 00 00 17 00 00 00 00 00 03 00 00 00 00 00 00 |................|
|00 00 00 00 00 00 00 00 00 00 00 00 00 14 00 01 |................|
|00 00 00 00 00 00 00 00 00 00 00 00 1B 54 6F 72 |.............Tor|
|6D 65 6E 74 65 64 20 48 69 65 72 6F 70 68 61 6E |mented Hierophan|
|74 27 73 20 53 6F 75 6C 01 51 00 3C 00 00 00 38 |t's Soul.Q.<...8|
|40 00 00 00 00 00 7F 54 68 69 73 20 74 61 6C 69 |@......This tali|
|73 6D 61 6E 20 63 61 6E 20 6F 6E 6C 79 20 62 65 |sman can only be|
|20 75 73 65 64 20 77 69 74 68 20 61 20 6E 6F 72 | used with a nor|
|6D 61 6C 20 76 65 73 73 65 6C 20 77 65 61 70 6F |mal vessel weapo|
|6E 2E 20 43 54 4C 2B 52 69 67 68 74 20 43 6C 69 |n. CTL+Right Cli|
|63 6B 20 74 6F 20 63 6F 6E 76 65 72 74 20 62 65 |ck to convert be|
|74 77 65 65 6E 20 6E 6F 72 6D 61 6C 20 6F 72 20 |tween normal or |
|6C 61 72 67 65 20 77 65 61 70 6F 6E 20 76 65 72 |large weapon ver|
|73 69 6F 6E 73 2E 00 01 00 00 03 0A A0 00 00 00 |sions...........|
|00 00 00 00 00 00 00 00 00 00 00 00 00 00 00 00 |................|
|00 01 00 03 2E 19 1E 29 0D 47 6F 6C 64 65 6E 20 |.......).Golden |
|53 63 61 72 61 62 00 02 00 00 00 00 00 00 00 00 |Scarab..........|
|00 00 00 00 00 00 00 00 00 00 0B 03 00 00 00 00 |................|
|00 00 1E 98 7D 20 97 00 00 00 00 00 00 00 00 00 |....} ..........|
|17 00 00 00 00 00 03 00 00 00 00 00 00 00 00 00 |................|
|00 00 00 00 00 00 00 00 00 00 14 00 01 00 00 00 |................|
|00 00 00 00 00 00 00 00 00 1A 43 72 65 65 70 69 |..........Creepi|
|6E 67 20 48 69 65 72 6F 70 68 61 6E 74 27 73 20 |ng Hierophant's |
|53 6F 75 6C 01 52 00 3C 00 00 00 38 40 00 00 00 |Soul.R.<...8@...|
|00 00 7F 54 68 69 73 20 74 61 6C 69 73 6D 61 6E |...This talisman|
|20 63 61 6E 20 6F 6E 6C 79 20 62 65 20 75 73 65 | can only be use|
|64 20 77 69 74 68 20 61 20 6E 6F 72 6D 61 6C 20 |d with a normal |
|76 65 73 73 65 6C 20 77 65 61 70 6F 6E 2E 20 43 |vessel weapon. C|
|54 4C 2B 52 69 67 68 74 20 43 6C 69 63 6B 20 74 |TL+Right Click t|
|6F 20 63 6F 6E 76 65 72 74 20 62 65 74 77 65 65 |o convert betwee|
|6E 20 6E 6F 72 6D 61 6C 20 6F 72 20 6C 61 72 67 |n normal or larg|
|65 20 77 65 61 70 6F 6E 20 76 65 72 73 69 6F 6E |e weapon version|
|73 2E 00 01 00 00 03 0A A0 00 00 00 00 00 00 00 |s...............|
|00 00 00 00 00 00 00 00 00 00 00 00 00 01 00 03 |................|
|2E 19 1E 29 0D 47 6F 6C 64 65 6E 20 53 63 61 72 |...).Golden Scar|
|61 62 00 02 00 00 00 00 00 00 00 00 00 00 00 00 |ab..............|
|00 00 00 00 00 00 0C 03 00 00 00 00 00 00 1E 98 |................|
|7E 20 8C 00 00 00 00 00 00 00 00 00 17 00 00 00 |~ ..............|
|00 00 03 00 00 00 00 00 00 00 00 00 00 00 00 00 |................|
|00 00 00 00 00 00 14 00 01 00 00 00 00 00 00 00 |................|
|00 00 00 00 00 1C 50 61 73 73 69 6F 6E 61 74 65 |......Passionate|
|20 48 69 65 72 6F 70 68 61 6E 74 27 73 20 53 6F | Hierophant's So|
|75 6C 01 5E 00 3C 00 00 00 38 40 00 00 00 00 00 |ul.^.<...8@.....|
|7F 54 68 69 73 20 74 61 6C 69 73 6D 61 6E 20 63 |.This talisman c|
|61 6E 20 6F 6E 6C 79 20 62 65 20 75 73 65 64 20 |an only be used |
|77 69 74 68 20 61 20 6E 6F 72 6D 61 6C 20 76 65 |with a normal ve|
|73 73 65 6C 20 77 65 61 70 6F 6E 2E 20 43 54 4C |ssel weapon. CTL|
|2B 52 69 67 68 74 20 43 6C 69 63 6B 20 74 6F 20 |+Right Click to |
|63 6F 6E 76 65 72 74 20 62 65 74 77 65 65 6E 20 |convert between |
|6E 6F 72 6D 61 6C 20 6F 72 20 6C 61 72 67 65 20 |normal or large |
|77 65 61 70 6F 6E 20 76 65 72 73 69 6F 6E 73 2E |weapon versions.|
|00 01 00 00 03 0A A0 00 00 00 00 00 00 00 00 00 |................|
|00 00 00 00 00 00 00 00 00 00 00 01 00 03 2E 19 |................|
|1E 29 0D 47 6F 6C 64 65 6E 20 53 63 61 72 61 62 |.).Golden Scarab|
|00 02 00 00 00 00 00 00 00 00 00 00 00 00 00 00 |................|
|00 00 00 00 0D 03 00 00 00 00 00 00 1E 98 7F 20 |............... |
|91 00 00 00 00 00 00 00 00 00 17 00 00 00 00 00 |................|
|03 00 00 00 00 00 00 00 00 1E 00 00 00 00 00 00 |................|
|00 00 00 00 14 00 01 00 00 00 00 00 00 00 00 00 |................|
|00 00 00 18 52 65 73 74 6C 65 73 73 20 4F 76 65 |....Restless Ove|
|72 6C 6F 72 64 27 73 20 53 6F 75 6C 00 01 46 58 |rlord's Soul..FX|
|00 00 38 40 00 00 00 00 7F 54 68 69 73 20 74 61 |..8@.....This ta|
|6C 69 73 6D 61 6E 20 63 61 6E 20 6F 6E 6C 79 20 |lisman can only |
|62 65 20 75 73 65 64 20 77 69 74 68 20 61 20 6E |be used with a n|
|6F 72 6D 61 6C 20 76 65 73 73 65 6C 20 77 65 61 |ormal vessel wea|
|70 6F 6E 2E 20 43 54 4C 2B 52 69 67 68 74 20 43 |pon. CTL+Right C|
|6C 69 63 6B 20 74 6F 20 63 6F 6E 76 65 72 74 20 |lick to convert |
|62 65 74 77 65 65 6E 20 6E 6F 72 6D 61 6C 20 6F |between normal o|
|72 20 6C 61 72 67 65 20 77 65 61 70 6F 6E 20 76 |r large weapon v|
|65 72 73 69 6F 6E 73 2E 00 01 00 00 03 0A A0 00 |ersions.........|
|00 00 00 00 00 00 00 00 00 00 00 00 00 00 00 00 |................|
|00 00 00 01 00 03 2E 19 1E 29 0D 47 6F 6C 64 65 |.........).Golde|
|6E 20 53 63 61 72 61 62 00 02 00 00 00 00 00 00 |n Scarab........|
|00 00 00 00 00 00 00 00 00 00 00 00 0E 03 00 00 |................|
|00 00 00 00 1E 98 80 20 92 00 00 00 00 00 00 00 |....... ........|
|00 00 17 00 00 00 00 00 03 00 00 00 00 00 00 00 |................|
|00 1E 00 00 00 00 00 00 00 00 00 00 14 00 01 00 |................|
|00 00 00 00 00 00 00 00 00 00 00 19 53 75 66 66 |............Suff|
|65 72 69 6E 67 20 4F 76 65 72 6C 6F 72 64 27 73 |ering Overlord's|
|20 53 6F 75 6C 00 02 3D 0D 00 00 38 40 27 6B 00 | Soul..=...8@'k.|
|00 38 40 00 00 00 00 5F 4E 65 68 65 6B 68 61 72 |.8@...._Nehekhar|
|61 6E 20 53 6F 75 6C 3A 20 53 65 66 75 20 2D 20 |an Soul: Sefu - |
|54 68 65 20 74 72 61 70 70 65 64 20 73 6F 75 6C |The trapped soul|
|20 6F 66 20 61 20 4E 65 68 65 6B 68 61 72 61 6E | of a Nehekharan|
|20 64 77 65 6C 6C 73 20 77 69 74 68 69 6E 20 61 | dwells within a|
|6E 20 61 72 74 69 66 61 63 74 20 6D 61 72 6B 65 |n artifact marke|
|64 20 53 65 66 75 2E 00 01 00 00 03 0A A0 00 00 |d Sefu..........|
|00 00 00 00 00 00 00 00 00 00 00 00 00 00 00 00 |................|
|00 00 01 00 03 2E 19 1E 29 0D 47 6F 6C 64 65 6E |........).Golden|
|20 53 63 61 72 61 62 00 02 00 00 00 00 00 00 00 | Scarab.........|
|00 00 00 00 00 00 00 00 00 00 00 0F 03 00 00 00 |................|
|00 00 00 1E 98 81 20 88 00 00 00 00 00 00 00 00 |...... .........|
|00 17 00 00 00 00 00 03 00 00 00 00 00 00 00 00 |................|
|1E 00 00 00 00 00 00 00 00 00 00 14 00 01 00 00 |................|
|00 00 00 00 00 00 00 00 00 00 1A 46 6F 72 62 65 |...........Forbe|
|61 72 69 6E 67 20 4F 76 65 72 6C 6F 72 64 27 73 |aring Overlord's|
|20 53 6F 75 6C 00 01 3D 41 00 00 38 40 00 00 00 | Soul..=A..8@...|
|00 7F 54 68 69 73 20 74 61 6C 69 73 6D 61 6E 20 |..This talisman |
|63 61 6E 20 6F 6E 6C 79 20 62 65 20 75 73 65 64 |can only be used|
|20 77 69 74 68 20 61 20 6E 6F 72 6D 61 6C 20 76 | with a normal v|
|65 73 73 65 6C 20 77 65 61 70 6F 6E 2E 20 43 54 |essel weapon. CT|
|4C 2B 52 69 67 68 74 20 43 6C 69 63 6B 20 74 6F |L+Right Click to|
|20 63 6F 6E 76 65 72 74 20 62 65 74 77 65 65 6E | convert between|
|20 6E 6F 72 6D 61 6C 20 6F 72 20 6C 61 72 67 65 | normal or large|
|20 77 65 61 70 6F 6E 20 76 65 72 73 69 6F 6E 73 | weapon versions|
|2E 00 01 00 00 03 0A A0 00 00 00 00 00 00 00 00 |................|
|00 00 00 00 00 00 00 00 00 00 00 00 01 00 03 2E |................|
|19 1E 29 0D 47 6F 6C 64 65 6E 20 53 63 61 72 61 |..).Golden Scara|
|62 00 02 00 00 00 00 00 00 00 00 00 00 00 00 00 |b...............|
|00 00 00 00 00 10 03 00 00 00 00 00 00 1E 98 85 |................|
|20 85 00 00 00 00 00 00 00 00 00 17 00 00 00 00 | ...............|
|00 03 00 00 00 00 00 00 00 00 1E 00 00 00 00 00 |................|
|00 00 00 00 00 14 00 01 00 00 00 00 00 00 00 00 |................|
|00 00 00 00 18 53 65 6C 66 6C 65 73 73 20 43 72 |.....Selfless Cr|
|75 73 61 64 65 72 27 73 20 53 6F 75 6C 00 01 28 |usader's Soul..(|
|32 00 00 38 40 00 00 00 00 5F 4E 65 68 65 6B 68 |2..8@...._Nehekh|
|61 72 61 6E 20 53 6F 75 6C 3A 20 53 65 66 75 20 |aran Soul: Sefu |
|2D 20 54 68 65 20 74 72 61 70 70 65 64 20 73 6F |- The trapped so|
|75 6C 20 6F 66 20 61 20 4E 65 68 65 6B 68 61 72 |ul of a Nehekhar|
|61 6E 20 64 77 65 6C 6C 73 20 77 69 74 68 69 6E |an dwells within|
|20 61 6E 20 61 72 74 69 66 61 63 74 20 6D 61 72 | an artifact mar|
|6B 65 64 20 53 65 66 75 2E 00 01 00 00 03 0A A0 |ked Sefu........|
|00 00 00 00 00 00 00 00 00 00 00 00 00 00 00 00 |................|
|00 00 00 00 01 00 03 2E 19 1E 29 0D 47 6F 6C 64 |..........).Gold|
|65 6E 20 53 63 61 72 61 62 00 02 00 00 00 00 00 |en Scarab.......|
|00 00 00 00 00 00 00 00 00 00 00 00 00 11 03 00 |................|
|00 00 00 00 00 1E 98 87 20 87 00 00 00 00 00 00 |........ .......|
|00 00 00 17 00 00 00 00 00 03 00 00 00 00 00 00 |................|
|00 00 1E 00 00 00 00 00 00 00 00 00 00 14 00 01 |................|
|00 00 00 00 00 00 00 00 00 00 00 00 16 53 69 63 |.............Sic|
|6B 6C 79 20 43 72 75 73 61 64 65 72 27 73 20 53 |kly Crusader's S|
|6F 75 6C 00 02 27 F6 00 00 38 40 3D 0D 00 00 38 |oul..'...8@=...8|
|40 00 00 00 00 5F 4E 65 68 65 6B 68 61 72 61 6E |@...._Nehekharan|
|20 53 6F 75 6C 3A 20 53 65 66 75 20 2D 20 54 68 | Soul: Sefu - Th|
|65 20 74 72 61 70 70 65 64 20 73 6F 75 6C 20 6F |e trapped soul o|
|66 20 61 20 4E 65 68 65 6B 68 61 72 61 6E 20 64 |f a Nehekharan d|
|77 65 6C 6C 73 20 77 69 74 68 69 6E 20 61 6E 20 |wells within an |
|61 72 74 69 66 61 63 74 20 6D 61 72 6B 65 64 20 |artifact marked |
|53 65 66 75 2E 00 01 00 00 03 0A A0 00 00 00 00 |Sefu............|
|00 00 00 00 00 00 00 00 00 00 00 00 00 00 00 00 |................|
|01 00 03 2E 19 1E 29 0D 47 6F 6C 64 65 6E 20 53 |......).Golden S|
|63 61 72 61 62 00 02 00 00 00 00 00 00 00 00 00 |carab...........|
|00 00 00 00 00 00 00 00 00 00                   |..........      |
-------------------------------------------------------------------
[Server] packet : (0xC0) F_STORE_BUY_BACK  Size = 5 
|------------------------------------------------|----------------|
|00 01 02 03 04 05 06 07 08 09 0A 0B 0C 0D 0E 0F |0123456789ABCDEF|
|------------------------------------------------|----------------|
|00 02 C0 00 00                                  |.....           |
-------------------------------------------------------------------
[Client] packet : (0x0B) F_PING  Size = 32 
|------------------------------------------------|----------------|
|00 01 02 03 04 05 06 07 08 09 0A 0B 0C 0D 0E 0F |0123456789ABCDEF|
|------------------------------------------------|----------------|
|00 14 8B D1 00 1F 00 00 00 0B 00 79 3B 4A 46 73 |...........y;JFs|
|7F F4 AB DB F4 FF 00 00 00 00 00 00 00 00 C0 88 |................|                                                
-------------------------------------------------------------------
[Server] packet : (0x81) S_PONG  Size = 23 
|------------------------------------------------|----------------|
|00 01 02 03 04 05 06 07 08 09 0A 0B 0C 0D 0E 0F |0123456789ABCDEF|
|------------------------------------------------|----------------|
|00 14 81 00 79 3B 4A 52 75 78 56 00 00 00 00 00 |....y;JRuxV.....|
|00 8B D2 00 00 00 00                            |.......         |
-------------------------------------------------------------------
[Client] packet : (0x5A) F_PING_DATAGRAM  Size = 13 
|------------------------------------------------|----------------|
|00 01 02 03 04 05 06 07 08 09 0A 0B 0C 0D 0E 0F |0123456789ABCDEF|
|------------------------------------------------|----------------|
|00 01 8B D7 00 1F FF FF 00 5A 00 27 AA          |.............   |
-------------------------------------------------------------------
[Client] packet : (0x01) UNKNOWN  Size = 32 
|------------------------------------------------|----------------|
|00 01 02 03 04 05 06 07 08 09 0A 0B 0C 0D 0E 0F |0123456789ABCDEF|
|------------------------------------------------|----------------|
|00 14 8B DB 00 1F 00 00 00 01 00 79 49 29 00 00 |...........yI)..|
|00 00 00 00 00 00 00 00 51 83 00 00 07 41 00 00 |........Q....A..|                                                
-------------------------------------------------------------------
[Server] packet : (0x00) UNKNOWN  Size = 23 
|------------------------------------------------|----------------|
|00 01 02 03 04 05 06 07 08 09 0A 0B 0C 0D 0E 0F |0123456789ABCDEF|
|------------------------------------------------|----------------|
|00 14 00 00 79 49 29 7C 5D D6 79 00 00 00 00 00 |....yI)|].y.....|
|00 51 83 00 00 07 00                            |.......         |
-------------------------------------------------------------------
[Client] packet : (0x0B) F_PING  Size = 32 
|------------------------------------------------|----------------|
|00 01 02 03 04 05 06 07 08 09 0A 0B 0C 0D 0E 0F |0123456789ABCDEF|
|------------------------------------------------|----------------|
|00 14 8B DD 00 1F 00 00 00 0B 00 79 50 8C 96 CC |...........yP...|
|80 48 92 E0 15 05 00 00 00 00 00 00 00 00 2C BE |.H............,.|                                                
-------------------------------------------------------------------
[Server] packet : (0x81) S_PONG  Size = 23 
|------------------------------------------------|----------------|
|00 01 02 03 04 05 06 07 08 09 0A 0B 0C 0D 0E 0F |0123456789ABCDEF|
|------------------------------------------------|----------------|
|00 14 81 00 79 50 8C 52 75 78 5B 00 00 00 00 00 |....yP.Rux[.....|
|00 8B DE 00 00 00 00                            |.......         |
-------------------------------------------------------------------
[Client] packet : (0x0B) F_PING  Size = 32 
|------------------------------------------------|----------------|
|00 01 02 03 04 05 06 07 08 09 0A 0B 0C 0D 0E 0F |0123456789ABCDEF|
|------------------------------------------------|----------------|
|00 14 8B E8 00 1F 00 00 00 0B 00 79 64 16 FD EF |...........yd...|
|FB F3 7C DA D6 4A 00 00 00 00 00 00 00 00 C0 88 |..|..J..........|                                                
-------------------------------------------------------------------
[Server] packet : (0x81) S_PONG  Size = 23 
|------------------------------------------------|----------------|
|00 01 02 03 04 05 06 07 08 09 0A 0B 0C 0D 0E 0F |0123456789ABCDEF|
|------------------------------------------------|----------------|
|00 14 81 00 79 64 16 52 75 78 60 00 00 00 00 00 |....yd.Rux`.....|
|00 8B E9 00 00 00 00                            |.......         |
-------------------------------------------------------------------
[Server] packet : (0x51) F_ANIMATION  Size = 9 
|------------------------------------------------|----------------|
|00 01 02 03 04 05 06 07 08 09 0A 0B 0C 0D 0E 0F |0123456789ABCDEF|
|------------------------------------------------|----------------|
|00 06 51 00 F4 00 00 00 00                      |.........       |
-------------------------------------------------------------------
[Server] packet : (0x1A) F_CAMPAIGN_STATUS  Size = 159 
|------------------------------------------------|----------------|
|00 01 02 03 04 05 06 07 08 09 0A 0B 0C 0D 0E 0F |0123456789ABCDEF|
|------------------------------------------------|----------------|
|00 9C 1A 00 03 00 67 00 CD 00 00 00 00 00 32 32 |......g.......22|
|00 32 32 00 32 32 00 00 64 00 32 32 00 32 32 00 |.22.22..d.22.22.|
|32 32 00 00 64 00 32 32 00 32 32 00 32 32 F6 84 |22..d.22.22.22..|
|F6 84 F6 84 F6 84 F6 84 F6 84 F6 84 F6 84 C8 90 |................|
|F6 84 F6 84 F6 84 00 00 00 00 00 00 00 00 00 00 |................|
|00 00 00 00 00 00 00 00 00 01 00 00 00 01 00 00 |................|
|00 00 00 00 00 00 00 00 00 00 00 00 00 00 00 00 |................|
|00 00 00 00 00 00 00 00 00 00 00 00 00 00 00 00 |................|
|00 03 01 01 00 03 03 01 01 00 03 03 01 00 02 03 |................|
|00 00 00 00 0A 3C 00 00 00 03 84 00 00 00 00    |............... |
-------------------------------------------------------------------
[Server] packet : (0x51) F_ANIMATION  Size = 9 
|------------------------------------------------|----------------|
|00 01 02 03 04 05 06 07 08 09 0A 0B 0C 0D 0E 0F |0123456789ABCDEF|
|------------------------------------------------|----------------|
|00 06 51 00 F4 00 00 00 00                      |.........       |
-------------------------------------------------------------------
[Client] packet : (0x01) UNKNOWN  Size = 32 
|------------------------------------------------|----------------|
|00 01 02 03 04 05 06 07 08 09 0A 0B 0C 0D 0E 0F |0123456789ABCDEF|
|------------------------------------------------|----------------|
|00 14 8B F3 00 1F 00 00 00 01 00 79 73 76 20 07 |...........ysv .|
|2A 68 90 38 40 04 00 23 7F F4 08 18 C7 5B B3 38 |*h.8@..#.....[.8|                                                
-------------------------------------------------------------------
[Client] packet : (0x0B) F_PING  Size = 32 
|------------------------------------------------|----------------|
|00 01 02 03 04 05 06 07 08 09 0A 0B 0C 0D 0E 0F |0123456789ABCDEF|
|------------------------------------------------|----------------|
|00 14 8B F5 00 1F 00 00 00 0B 00 79 77 A6 64 23 |...........yw.d#|
|79 B3 8A D9 CD CF 00 00 00 00 00 00 00 00 C0 88 |y...............|                                                
-------------------------------------------------------------------
[Server] packet : (0x81) S_PONG  Size = 23 
|------------------------------------------------|----------------|
|00 01 02 03 04 05 06 07 08 09 0A 0B 0C 0D 0E 0F |0123456789ABCDEF|
|------------------------------------------------|----------------|
|00 14 81 00 79 77 A6 52 75 78 65 00 00 00 00 00 |....yw.Ruxe.....|
|00 8B F6 00 00 00 00                            |.......         |
-------------------------------------------------------------------
[Server] packet : (0x00) UNKNOWN  Size = 23 
|------------------------------------------------|----------------|
|00 01 02 03 04 05 06 07 08 09 0A 0B 0C 0D 0E 0F |0123456789ABCDEF|
|------------------------------------------------|----------------|
|00 14 00 00 79 73 76 7C 5E 00 AE 00 00 00 00 00 |....ysv|^.......|
|23 7F F4 08 18 C7 00                            |.......         |
-------------------------------------------------------------------
[Client] packet : (0x86) F_MAIL  Size = 16 
|------------------------------------------------|----------------|
|00 01 02 03 04 05 06 07 08 09 0A 0B 0C 0D 0E 0F |0123456789ABCDEF|
|------------------------------------------------|----------------|
|00 04 8B F8 00 1F FF FF 00 86 00 00 00 00 00 00 |................|                                                
-------------------------------------------------------------------