
[Server] packet : (0xDA) F_USE_ABILITY  Size = 23 
|------------------------------------------------|----------------|
|00 01 02 03 04 05 06 07 08 09 0A 0B 0C 0D 0E 0F |0123456789ABCDEF|
|------------------------------------------------|----------------|
|00 14 DA 00 00 01 26 01 26 00 00 1C 55 02 00 00 |......&.&...U...|
|00 00 00 00 00 00 00                            |.......         |
-------------------------------------------------------------------
[Server] packet : (0xDA) F_USE_ABILITY  Size = 23 
|------------------------------------------------|----------------|
|00 01 02 03 04 05 06 07 08 09 0A 0B 0C 0D 0E 0F |0123456789ABCDEF|
|------------------------------------------------|----------------|
|00 14 DA 00 00 1C 55 1C 55 00 00 01 26 02 00 00 |......U.U...&...|
|00 00 00 00 00 00 00                            |.......         |
-------------------------------------------------------------------
[Client] packet : (0x0B) F_PING  Size = 32 
|------------------------------------------------|----------------|
|00 01 02 03 04 05 06 07 08 09 0A 0B 0C 0D 0E 0F |0123456789ABCDEF|
|------------------------------------------------|----------------|
|00 14 6E C7 00 1E 00 00 00 0B 00 73 61 FD 97 F0 |..n........sa...|
|11 93 4F 07 92 F1 00 00 00 00 00 00 00 00 FE 14 |..O.............|                                                
-------------------------------------------------------------------
[Server] packet : (0x81) S_PONG  Size = 23 
|------------------------------------------------|----------------|
|00 01 02 03 04 05 06 07 08 09 0A 0B 0C 0D 0E 0F |0123456789ABCDEF|
|------------------------------------------------|----------------|
|00 14 81 00 73 61 FD 52 74 B9 68 00 00 00 00 00 |....sa.Rt.h.....|
|00 6E C8 00 00 00 00                            |.......         |
-------------------------------------------------------------------
[Server] packet : (0xDA) F_USE_ABILITY  Size = 23 
|------------------------------------------------|----------------|
|00 01 02 03 04 05 06 07 08 09 0A 0B 0C 0D 0E 0F |0123456789ABCDEF|
|------------------------------------------------|----------------|
|00 14 DA 00 00 01 24 01 24 00 00 1C 55 02 00 00 |......$.$...U...|
|09 00 00 00 00 00 00                            |.......         |
-------------------------------------------------------------------
[Client] packet : (0x01) UNKNOWN  Size = 32 
|------------------------------------------------|----------------|
|00 01 02 03 04 05 06 07 08 09 0A 0B 0C 0D 0E 0F |0123456789ABCDEF|
|------------------------------------------------|----------------|
|00 14 6E CA 00 1E 00 00 00 01 00 73 5F 42 20 07 |..n........s_B .|
|2A 68 90 38 40 04 00 23 3D FF 08 18 C8 CB B6 F4 |*h.8@..#=.......|                                                
-------------------------------------------------------------------
[Server] packet : (0xDA) F_USE_ABILITY  Size = 23 
|------------------------------------------------|----------------|
|00 01 02 03 04 05 06 07 08 09 0A 0B 0C 0D 0E 0F |0123456789ABCDEF|
|------------------------------------------------|----------------|
|00 14 DA 00 00 01 19 01 19 00 00 18 54 02 00 00 |............T...|
|00 00 00 00 00 00 00                            |.......         |
-------------------------------------------------------------------
[Server] packet : (0xDA) F_USE_ABILITY  Size = 23 
|------------------------------------------------|----------------|
|00 01 02 03 04 05 06 07 08 09 0A 0B 0C 0D 0E 0F |0123456789ABCDEF|
|------------------------------------------------|----------------|
|00 14 DA 00 00 01 17 01 17 00 00 09 B9 02 00 00 |................|
|00 00 00 00 00 00 00                            |.......         |
-------------------------------------------------------------------
[Server] packet : (0x00) UNKNOWN  Size = 23 
|------------------------------------------------|----------------|
|00 01 02 03 04 05 06 07 08 09 0A 0B 0C 0D 0E 0F |0123456789ABCDEF|
|------------------------------------------------|----------------|
|00 14 00 00 73 5F 42 79 73 B6 9F 00 00 00 00 00 |....s_Bys.......|
|23 3D FF 08 18 C8 00                            |.......         |
-------------------------------------------------------------------
[Server] packet : (0xDA) F_USE_ABILITY  Size = 23 
|------------------------------------------------|----------------|
|00 01 02 03 04 05 06 07 08 09 0A 0B 0C 0D 0E 0F |0123456789ABCDEF|
|------------------------------------------------|----------------|
|00 14 DA 00 00 01 26 01 26 00 00 1C 55 02 00 00 |......&.&...U...|
|00 00 00 00 00 00 00                            |.......         |
-------------------------------------------------------------------
[Server] packet : (0xDA) F_USE_ABILITY  Size = 23 
|------------------------------------------------|----------------|
|00 01 02 03 04 05 06 07 08 09 0A 0B 0C 0D 0E 0F |0123456789ABCDEF|
|------------------------------------------------|----------------|
|00 14 DA 00 00 18 54 18 54 00 00 01 19 02 00 00 |......T.T.......|
|09 00 00 00 00 00 00                            |.......         |
-------------------------------------------------------------------
[Server] packet : (0xDA) F_USE_ABILITY  Size = 23 
|------------------------------------------------|----------------|
|00 01 02 03 04 05 06 07 08 09 0A 0B 0C 0D 0E 0F |0123456789ABCDEF|
|------------------------------------------------|----------------|
|00 14 DA 00 00 01 24 01 24 00 00 1C 55 02 00 00 |......$.$...U...|
|05 00 00 00 00 00 00                            |.......         |
-------------------------------------------------------------------
[Server] packet : (0xDA) F_USE_ABILITY  Size = 23 
|------------------------------------------------|----------------|
|00 01 02 03 04 05 06 07 08 09 0A 0B 0C 0D 0E 0F |0123456789ABCDEF|
|------------------------------------------------|----------------|
|00 14 DA 00 00 01 17 01 17 00 00 09 B9 02 00 00 |................|
|00 00 00 00 00 00 00                            |.......         |
-------------------------------------------------------------------
[Server] packet : (0xDA) F_USE_ABILITY  Size = 23 
|------------------------------------------------|----------------|
|00 01 02 03 04 05 06 07 08 09 0A 0B 0C 0D 0E 0F |0123456789ABCDEF|
|------------------------------------------------|----------------|
|00 14 DA 00 00 01 19 01 19 00 00 18 54 02 00 00 |............T...|
|00 00 00 00 00 00 00                            |.......         |
-------------------------------------------------------------------
[Server] packet : (0x0A) F_OBJECT_DEATH  Size = 15 
|------------------------------------------------|----------------|
|00 01 02 03 04 05 06 07 08 09 0A 0B 0C 0D 0E 0F |0123456789ABCDEF|
|------------------------------------------------|----------------|
|00 0C 0A 30 10 00 00 00 00 00 00 00 00 00 00    |............... |
-------------------------------------------------------------------
[Client] packet : (0x5A) F_PING_DATAGRAM  Size = 13 
|------------------------------------------------|----------------|
|00 01 02 03 04 05 06 07 08 09 0A 0B 0C 0D 0E 0F |0123456789ABCDEF|
|------------------------------------------------|----------------|
|00 01 6E D0 00 1E FF FF 00 5A 00 62 8F          |.............   |
-------------------------------------------------------------------
[Server] packet : (0xDA) F_USE_ABILITY  Size = 23 
|------------------------------------------------|----------------|
|00 01 02 03 04 05 06 07 08 09 0A 0B 0C 0D 0E 0F |0123456789ABCDEF|
|------------------------------------------------|----------------|
|00 14 DA 00 00 01 26 01 26 00 00 1C 55 02 00 00 |......&.&...U...|
|00 00 00 00 00 00 00                            |.......         |
-------------------------------------------------------------------
[Server] packet : (0x0A) F_OBJECT_DEATH  Size = 15 
|------------------------------------------------|----------------|
|00 01 02 03 04 05 06 07 08 09 0A 0B 0C 0D 0E 0F |0123456789ABCDEF|
|------------------------------------------------|----------------|
|00 0C 0A 35 A5 00 00 00 00 00 00 00 00 00 00    |............... |
-------------------------------------------------------------------
[Server] packet : (0xDA) F_USE_ABILITY  Size = 23 
|------------------------------------------------|----------------|
|00 01 02 03 04 05 06 07 08 09 0A 0B 0C 0D 0E 0F |0123456789ABCDEF|
|------------------------------------------------|----------------|
|00 14 DA 00 00 1C 55 1C 55 00 00 01 26 02 00 00 |......U.U...&...|
|00 00 00 00 00 00 00                            |.......         |
-------------------------------------------------------------------
[Client] packet : (0xE8) F_CLIENT_DATA  Size = 20 
|------------------------------------------------|----------------|
|00 01 02 03 04 05 06 07 08 09 0A 0B 0C 0D 0E 0F |0123456789ABCDEF|
|------------------------------------------------|----------------|
|00 08 6E D2 00 1E 00 00 00 E8 00 34 00 04 6C 21 |..n........4..l!|
|01 00 00 00                                     |....            |
-------------------------------------------------------------------
[Server] packet : (0xDA) F_USE_ABILITY  Size = 23 
|------------------------------------------------|----------------|
|00 01 02 03 04 05 06 07 08 09 0A 0B 0C 0D 0E 0F |0123456789ABCDEF|
|------------------------------------------------|----------------|
|00 14 DA 00 00 01 24 01 24 00 00 1C 55 02 00 00 |......$.$...U...|
|05 00 00 00 00 00 00                            |.......         |
-------------------------------------------------------------------
[Client] packet : (0xE8) F_CLIENT_DATA  Size = 20 
|------------------------------------------------|----------------|
|00 01 02 03 04 05 06 07 08 09 0A 0B 0C 0D 0E 0F |0123456789ABCDEF|
|------------------------------------------------|----------------|
|00 08 6E D7 00 1E 00 00 00 E8 00 34 00 04 6B 21 |..n........4..k!|
|01 00 00 00                                     |....            |
-------------------------------------------------------------------
[Client] packet : (0x0B) F_PING  Size = 32 
|------------------------------------------------|----------------|
|00 01 02 03 04 05 06 07 08 09 0A 0B 0C 0D 0E 0F |0123456789ABCDEF|
|------------------------------------------------|----------------|
|00 14 6E D8 00 1E 00 00 00 0B 00 73 75 14 F1 94 |..n........su...|
|C4 0D 57 24 23 00 00 00 00 00 00 00 00 00 FE 14 |..W$#...........|                                                
-------------------------------------------------------------------
[Server] packet : (0x81) S_PONG  Size = 23 
|------------------------------------------------|----------------|
|00 01 02 03 04 05 06 07 08 09 0A 0B 0C 0D 0E 0F |0123456789ABCDEF|
|------------------------------------------------|----------------|
|00 14 81 00 73 75 14 52 74 B9 6C 00 00 00 00 00 |....su.Rt.l.....|
|00 6E D9 00 00 00 00                            |.......         |
-------------------------------------------------------------------
[Server] packet : (0xDA) F_USE_ABILITY  Size = 23 
|------------------------------------------------|----------------|
|00 01 02 03 04 05 06 07 08 09 0A 0B 0C 0D 0E 0F |0123456789ABCDEF|
|------------------------------------------------|----------------|
|00 14 DA 00 00 01 17 01 17 00 00 09 B9 02 00 00 |................|
|00 00 00 00 00 00 00                            |.......         |
-------------------------------------------------------------------
[Server] packet : (0xDA) F_USE_ABILITY  Size = 23 
|------------------------------------------------|----------------|
|00 01 02 03 04 05 06 07 08 09 0A 0B 0C 0D 0E 0F |0123456789ABCDEF|
|------------------------------------------------|----------------|
|00 14 DA 00 00 01 19 01 19 00 00 18 54 02 00 00 |............T...|
|00 00 00 00 00 00 00                            |.......         |
-------------------------------------------------------------------
[Client] packet : (0xD2) F_INTERACT  Size = 24 
|------------------------------------------------|----------------|
|00 01 02 03 04 05 06 07 08 09 0A 0B 0C 0D 0E 0F |0123456789ABCDEF|
|------------------------------------------------|----------------|
|00 0C 6E D9 00 1E 00 00 00 D2 00 00 03 1D 00 00 |..n.............|
|00 00 00 00 00 00 00 00                         |........        |
-------------------------------------------------------------------
[Server] packet : (0x7E) F_SET_ABILITY_TIMER  Size = 15 
|------------------------------------------------|----------------|
|00 01 02 03 04 05 06 07 08 09 0A 0B 0C 0D 0E 0F |0123456789ABCDEF|
|------------------------------------------------|----------------|
|00 0C 7E 00 01 01 00 00 00 00 00 00 00 00 00    |............... |
-------------------------------------------------------------------
[Server] packet : (0xE9) F_INTERACT_RESPONSE  Size = 11 
|------------------------------------------------|----------------|
|00 01 02 03 04 05 06 07 08 09 0A 0B 0C 0D 0E 0F |0123456789ABCDEF|
|------------------------------------------------|----------------|
|00 08 E9 00 03 1D 00 00 00 02 00                |...........     |
-------------------------------------------------------------------
[Client] packet : (0xD2) F_INTERACT  Size = 24 
|------------------------------------------------|----------------|
|00 01 02 03 04 05 06 07 08 09 0A 0B 0C 0D 0E 0F |0123456789ABCDEF|
|------------------------------------------------|----------------|
|00 0C 6E DB 00 1E 00 00 00 D2 00 00 03 1D 00 09 |..n.............|
|00 00 00 00 00 00 9A D3                         |........        |
-------------------------------------------------------------------
[Server] packet : (0xD7) F_INIT_EFFECTS  Size = 26 
|------------------------------------------------|----------------|
|00 01 02 03 04 05 06 07 08 09 0A 0B 0C 0D 0E 0F |0123456789ABCDEF|
|------------------------------------------------|----------------|
|00 17 D7 01 00 00 00 03 1D 01 00 5C 17 F0 C6 93 |...........\....|
|02 1D 03 02 00 90 03 01 02 00                   |..........      |
-------------------------------------------------------------------
[Server] packet : (0xBF) F_INIT_STORE  Size = 734 
|------------------------------------------------|----------------|
|00 01 02 03 04 05 06 07 08 09 0A 0B 0C 0D 0E 0F |0123456789ABCDEF|
|------------------------------------------------|----------------|
|02 DB BF 00 00 00 03 01 01 00 00 00 01 00 00 C3 |................|
|50 00 00 02 D9 E2 24 85 00 00 00 00 00 00 00 00 |P.....$.........|
|00 00 02 01 00 00 00 01 00 16 00 00 00 00 00 00 |................|
|00 00 00 00 4E 20 00 01 00 01 00 00 00 00 00 00 |....N ..........|
|00 00 00 00 00 00 12 45 6E 73 6C 61 76 65 64 20 |.......Enslaved |
|50 61 63 6B 20 4D 75 6C 65 00 00 01 00 00 3A E0 |Pack Mule.....:.|
|00 00 00 00 00 00 00 48 54 68 69 73 20 69 74 65 |.......HThis ite|
|6D 20 77 69 6C 6C 20 73 75 6D 6D 6F 6E 20 79 6F |m will summon yo|
|75 72 20 6D 69 67 68 74 79 20 73 74 65 65 64 2E |ur mighty steed.|
|20 54 6F 20 64 69 73 6D 6F 75 6E 74 2C 20 61 63 | To dismount, ac|
|74 69 76 61 74 65 20 74 68 65 20 69 74 65 6D 2E |tivate the item.|
|01 01 00 00 03 06 20 08 00 00 00 00 00 00 00 00 |...... .........|
|00 00 00 00 00 00 00 00 00 00 00 01 00 03 25 28 |..............%(|
|01 B5 16 44 65 65 64 20 66 6F 72 20 53 74 61 72 |...Deed for Star|
|74 65 72 20 4D 6F 75 6E 74 00 01 00 00 00 00 00 |ter Mount.......|
|00 00 00 00 00 00 00 00 00 00 00 00 00 01 03 00 |................|
|00 C3 50 00 00 02 D9 E3 24 85 00 00 00 00 00 00 |..P.....$.......|
|00 00 00 00 02 01 00 00 00 01 00 00 00 00 70 00 |..............p.|
|00 00 00 00 00 00 4E 20 00 01 00 01 00 00 00 00 |......N ........|
|00 00 00 00 00 00 00 00 12 45 6E 73 6C 61 76 65 |.........Enslave|
|64 20 50 61 63 6B 20 4D 75 6C 65 00 00 01 00 00 |d Pack Mule.....|
|3A E0 00 00 00 00 00 00 00 48 54 68 69 73 20 69 |:........HThis i|
|74 65 6D 20 77 69 6C 6C 20 73 75 6D 6D 6F 6E 20 |tem will summon |
|79 6F 75 72 20 6D 69 67 68 74 79 20 73 74 65 65 |your mighty stee|
|64 2E 20 54 6F 20 64 69 73 6D 6F 75 6E 74 2C 20 |d. To dismount, |
|61 63 74 69 76 61 74 65 20 74 68 65 20 69 74 65 |activate the ite|
|6D 2E 01 01 00 00 03 06 20 08 00 00 00 00 00 00 |m....... .......|
|00 00 00 00 00 00 00 00 00 00 00 00 00 01 00 03 |................|
|25 28 01 B5 16 44 65 65 64 20 66 6F 72 20 53 74 |%(...Deed for St|
|61 72 74 65 72 20 4D 6F 75 6E 74 00 01 00 00 00 |arter Mount.....|
|00 00 00 00 00 00 00 00 00 00 00 00 00 00 00 02 |................|
|01 00 00 C3 50 00 00 02 D9 E4 24 A4 00 00 00 00 |....P.....$.....|
|00 00 00 00 00 00 02 01 00 00 00 01 00 00 00 00 |................|
|80 00 00 00 00 00 00 00 4E 20 00 01 00 01 00 00 |........N ......|
|00 00 00 00 00 00 00 00 00 00 0E 55 6E 61 64 6F |...........Unado|
|72 6E 65 64 20 44 69 73 6B 00 00 01 00 00 3A E1 |rned Disk.....:.|
|00 00 00 00 00 00 00 48 54 68 69 73 20 69 74 65 |.......HThis ite|
|6D 20 77 69 6C 6C 20 73 75 6D 6D 6F 6E 20 79 6F |m will summon yo|
|75 72 20 6D 69 67 68 74 79 20 73 74 65 65 64 2E |ur mighty steed.|
|20 54 6F 20 64 69 73 6D 6F 75 6E 74 2C 20 61 63 | To dismount, ac|
|74 69 76 61 74 65 20 74 68 65 20 69 74 65 6D 2E |tivate the item.|
|01 01 00 00 03 06 20 08 00 00 00 00 00 00 00 00 |...... .........|
|00 00 00 00 00 00 00 00 00 00 00 01 00 03 25 28 |..............%(|
|01 B5 16 44 65 65 64 20 66 6F 72 20 53 74 61 72 |...Deed for Star|
|74 65 72 20 4D 6F 75 6E 74 00 01 00 00 00 00 00 |ter Mount.......|
|00 00 00 00 00 00 00 00 00 00 00 00 00 00       |..............  |
-------------------------------------------------------------------
[Server] packet : (0xC0) F_STORE_BUY_BACK  Size = 5 
|------------------------------------------------|----------------|
|00 01 02 03 04 05 06 07 08 09 0A 0B 0C 0D 0E 0F |0123456789ABCDEF|
|------------------------------------------------|----------------|
|00 02 C0 00 00                                  |.....           |
-------------------------------------------------------------------
[Server] packet : (0xDA) F_USE_ABILITY  Size = 23 
|------------------------------------------------|----------------|
|00 01 02 03 04 05 06 07 08 09 0A 0B 0C 0D 0E 0F |0123456789ABCDEF|
|------------------------------------------------|----------------|
|00 14 DA 00 00 01 26 01 26 00 00 1C 55 02 00 00 |......&.&...U...|
|09 00 00 00 00 00 00                            |.......         |
-------------------------------------------------------------------
[Client] packet : (0x16) F_REQUEST_INIT_OBJECT  Size = 16 
|------------------------------------------------|----------------|
|00 01 02 03 04 05 06 07 08 09 0A 0B 0C 0D 0E 0F |0123456789ABCDEF|
|------------------------------------------------|----------------|
|00 04 6E DD 00 1E 00 00 00 16 32 41 00 00 69 09 |..n.......2A..i.|                                                
-------------------------------------------------------------------
[Server] packet : (0xDA) F_USE_ABILITY  Size = 23 
|------------------------------------------------|----------------|
|00 01 02 03 04 05 06 07 08 09 0A 0B 0C 0D 0E 0F |0123456789ABCDEF|
|------------------------------------------------|----------------|
|00 14 DA 00 00 18 54 18 54 00 00 01 19 02 00 00 |......T.T.......|
|00 00 00 00 00 00 00                            |.......         |
-------------------------------------------------------------------
[Server] packet : (0x72) F_CREATE_MONSTER  Size = 136 
|------------------------------------------------|----------------|
|00 01 02 03 04 05 06 07 08 09 0A 0B 0C 0D 0E 0F |0123456789ABCDEF|
|------------------------------------------------|----------------|
|00 85 72 32 41 00 00 04 CC 19 D1 00 0D 1E C9 00 |..r2A...........|
|0C CD D4 00 00 04 C2 32 02 41 00 00 00 00 08 00 |.......2.A......|
|00 00 00 03 E8 00 00 00 00 36 EC 00 04 00 00 01 |.........6......|
|19 00 54 68 6F 72 73 68 61 66 6E 20 4D 69 6C 69 |..Thorshafn Mili|
|74 69 61 6D 61 6E 5E 6D 00 01 0A 00 00 00 12 25 |tiaman^m.......%|
|00 32 41 9E C9 4D D4 19 D1 64 00 64 00 00 00 00 |.2A..M...d.d....|
|00 CC 04 32 41 01 08 00 0A 05 2D 00 0C 05 6A 00 |...2A.....-...j.|
|14 09 BE 00 15 09 C2 00 16 09 BD 00 18 09 C0 00 |................|
|19 09 C1 00 1C 09 BF 00                         |........        |
-------------------------------------------------------------------
[Server] packet : (0xDA) F_USE_ABILITY  Size = 23 
|------------------------------------------------|----------------|
|00 01 02 03 04 05 06 07 08 09 0A 0B 0C 0D 0E 0F |0123456789ABCDEF|
|------------------------------------------------|----------------|
|00 14 DA 00 00 01 24 01 24 00 00 1C 55 02 00 00 |......$.$...U...|
|09 00 00 00 00 00 00                            |.......         |
-------------------------------------------------------------------
[Server] packet : (0xDA) F_USE_ABILITY  Size = 23 
|------------------------------------------------|----------------|
|00 01 02 03 04 05 06 07 08 09 0A 0B 0C 0D 0E 0F |0123456789ABCDEF|
|------------------------------------------------|----------------|
|00 14 DA 00 00 01 19 01 19 00 00 18 54 02 00 00 |............T...|
|00 00 00 00 00 00 00                            |.......         |
-------------------------------------------------------------------
[Server] packet : (0xDA) F_USE_ABILITY  Size = 23 
|------------------------------------------------|----------------|
|00 01 02 03 04 05 06 07 08 09 0A 0B 0C 0D 0E 0F |0123456789ABCDEF|
|------------------------------------------------|----------------|
|00 14 DA 00 00 01 17 01 17 00 00 09 B9 02 00 00 |................|
|09 00 00 00 00 00 00                            |.......         |
-------------------------------------------------------------------
[Server] packet : (0x1A) F_CAMPAIGN_STATUS  Size = 159 
|------------------------------------------------|----------------|
|00 01 02 03 04 05 06 07 08 09 0A 0B 0C 0D 0E 0F |0123456789ABCDEF|
|------------------------------------------------|----------------|
|00 9C 1A 00 09 00 69 00 D1 00 00 00 00 00 32 32 |......i.......22|
|00 32 32 00 32 32 00 64 00 00 32 32 00 32 32 00 |.22.22.d..22.22.|
|32 32 00 00 00 00 32 32 00 32 32 00 32 32 F6 44 |22....22.22.22.D|
|F6 44 F6 44 F6 44 F6 44 F6 44 F6 44 F6 44 F6 44 |.D.D.D.D.D.D.D.D|
|F6 44 F6 44 F6 44 00 64 64 00 00 64 00 00 64 64 |.D.D.D.dd..d..dd|
|00 00 00 00 00 00 00 00 00 01 00 00 00 00 00 00 |................|
|00 00 00 00 00 00 00 00 00 00 00 00 00 00 00 00 |................|
|00 00 00 00 00 00 00 00 00 00 00 00 00 00 00 00 |................|
|00 03 00 02 02 03 03 01 00 02 03 03 00 02 02 03 |................|
|02 FE 64 00 0A 3C 00 00 00 03 84 00 00 01 00    |............... |
-------------------------------------------------------------------
[Server] packet : (0xDA) F_USE_ABILITY  Size = 23 
|------------------------------------------------|----------------|
|00 01 02 03 04 05 06 07 08 09 0A 0B 0C 0D 0E 0F |0123456789ABCDEF|
|------------------------------------------------|----------------|
|00 14 DA 00 00 01 26 01 26 00 00 1C 55 02 00 00 |......&.&...U...|
|00 00 00 00 00 00 00                            |.......         |
-------------------------------------------------------------------
[Server] packet : (0xDA) F_USE_ABILITY  Size = 23 
|------------------------------------------------|----------------|
|00 01 02 03 04 05 06 07 08 09 0A 0B 0C 0D 0E 0F |0123456789ABCDEF|
|------------------------------------------------|----------------|
|00 14 DA 00 00 1C 55 1C 55 00 00 01 26 02 00 00 |......U.U...&...|
|00 00 00 00 00 00 00                            |.......         |
-------------------------------------------------------------------
[Server] packet : (0xDA) F_USE_ABILITY  Size = 23 
|------------------------------------------------|----------------|
|00 01 02 03 04 05 06 07 08 09 0A 0B 0C 0D 0E 0F |0123456789ABCDEF|
|------------------------------------------------|----------------|
|00 14 DA 00 00 01 24 01 24 00 00 1C 55 02 00 00 |......$.$...U...|
|00 00 00 00 00 00 00                            |.......         |
-------------------------------------------------------------------
[Client] packet : (0x16) F_REQUEST_INIT_OBJECT  Size = 16 
|------------------------------------------------|----------------|
|00 01 02 03 04 05 06 07 08 09 0A 0B 0C 0D 0E 0F |0123456789ABCDEF|
|------------------------------------------------|----------------|
|00 04 6E E4 00 1E 00 00 00 16 27 F2 00 00 66 3B |..n.......'...f;|                                                
-------------------------------------------------------------------
[Server] packet : (0x72) F_CREATE_MONSTER  Size = 103 
|------------------------------------------------|----------------|
|00 01 02 03 04 05 06 07 08 09 0A 0B 0C 0D 0E 0F |0123456789ABCDEF|
|------------------------------------------------|----------------|
|00 64 72 27 F2 00 00 0F C4 1E 4B 00 0D 1E 48 00 |.dr'......K...H.|
|0C A0 2B 00 00 04 56 3C 02 00 00 00 00 00 00 00 |..+...V<........|
|00 00 00 03 E8 00 00 00 00 37 FA 00 00 00 00 01 |.........7......|
|19 00 54 75 73 6B 67 6F 72 5E 6D 00 01 0A 00 00 |..Tuskgor^m.....|
|00 12 11 00 27 F2 9E 48 20 2B 1E 4B 64 00 64 00 |....'..H +.Kd.d.|
|00 00 00 00 C4 0F 27 F2 00 03 00 16 0C 6F 00 19 |......'......o..|
|0C 6E 00 1A 0C 70 00                            |.......         |
-------------------------------------------------------------------
[Server] packet : (0xDA) F_USE_ABILITY  Size = 23 
|------------------------------------------------|----------------|
|00 01 02 03 04 05 06 07 08 09 0A 0B 0C 0D 0E 0F |0123456789ABCDEF|
|------------------------------------------------|----------------|
|00 14 DA 00 00 01 19 01 19 00 00 18 54 02 00 00 |............T...|
|05 00 00 00 00 00 00                            |.......         |
-------------------------------------------------------------------
[Client] packet : (0x16) F_REQUEST_INIT_OBJECT  Size = 16 
|------------------------------------------------|----------------|
|00 01 02 03 04 05 06 07 08 09 0A 0B 0C 0D 0E 0F |0123456789ABCDEF|
|------------------------------------------------|----------------|
|00 04 6E E6 00 1E 00 00 00 16 03 7E 00 00 B0 9A |..n........~....|                                                
-------------------------------------------------------------------
[Server] packet : (0x72) F_CREATE_MONSTER  Size = 113 
|------------------------------------------------|----------------|
|00 01 02 03 04 05 06 07 08 09 0A 0B 0C 0D 0E 0F |0123456789ABCDEF|
|------------------------------------------------|----------------|
|00 6E 72 03 7E 00 55 0F 80 1E 46 00 0C FD 18 00 |.nr.~.U...F.....|
|0C A0 0D 00 00 04 09 32 01 00 00 00 00 00 00 00 |.......2........|
|00 00 00 03 E8 00 00 00 00 36 F4 00 06 00 00 01 |.........6......|
|19 00 52 65 73 74 6C 65 73 73 20 44 65 61 64 5E |..Restless Dead^|
|66 00 01 0A 00 00 00 1A 0D 00 03 7E 7D 18 20 0D |f..........~}. .|
|1E 46 64 01 64 00 00 00 00 00 55 00 00 4E 7D 21 |.Fd.d.....U..N}!|
|21 20 1E 64 03 7E 00 02 00 16 0A 9C 00 19 0A 9D |! .d.~..........|
|00                                              |.               |
-------------------------------------------------------------------
[Server] packet : (0xDA) F_USE_ABILITY  Size = 23 
|------------------------------------------------|----------------|
|00 01 02 03 04 05 06 07 08 09 0A 0B 0C 0D 0E 0F |0123456789ABCDEF|
|------------------------------------------------|----------------|
|00 14 DA 00 00 01 17 01 17 00 00 09 B9 02 00 00 |................|
|05 00 00 00 00 00 00                            |.......         |
-------------------------------------------------------------------
[Client] packet : (0x16) F_REQUEST_INIT_OBJECT  Size = 16 
|------------------------------------------------|----------------|
|00 01 02 03 04 05 06 07 08 09 0A 0B 0C 0D 0E 0F |0123456789ABCDEF|
|------------------------------------------------|----------------|
|00 04 6E E7 00 1E 00 00 00 16 02 78 00 00 9E 94 |..n........x....|                                                
-------------------------------------------------------------------
[Client] packet : (0x16) F_REQUEST_INIT_OBJECT  Size = 16 
|------------------------------------------------|----------------|
|00 01 02 03 04 05 06 07 08 09 0A 0B 0C 0D 0E 0F |0123456789ABCDEF|
|------------------------------------------------|----------------|
|00 04 6E E8 00 1E 00 00 00 16 36 F0 00 00 43 9D |..n.......6...C.|                                                
-------------------------------------------------------------------
[Server] packet : (0x72) F_CREATE_MONSTER  Size = 140 
|------------------------------------------------|----------------|
|00 01 02 03 04 05 06 07 08 09 0A 0B 0C 0D 0E 0F |0123456789ABCDEF|
|------------------------------------------------|----------------|
|00 89 72 02 78 01 13 05 1D 24 C6 00 0D 2B 21 00 |..r.x....$...+!.|
|0C B4 43 00 00 05 37 34 02 58 00 00 00 00 00 00 |..C...74.X......|
|00 04 00 03 E8 00 00 00 01 4E 29 00 00 00 00 01 |.........N).....|
|19 00 44 77 61 72 66 65 6E 20 47 79 72 6F 63 6F |..Dwarfen Gyroco|
|70 74 65 72 5E 6D 00 00 B4 01 0A 00 00 00 00 00 |pter^m..........|
|00 00 1A 1D 00 02 78 AB 21 34 43 24 C6 64 01 64 |......x.!4C$.d.d|
|00 00 00 00 00 13 01 00 68 AA ED 33 C6 24 64 02 |........h..3.$d.|
|78 00 06 00 14 08 13 00 15 07 D3 00 16 07 D2 00 |x...............|
|17 09 E6 00 18 07 D4 00 1C 07 D0 00             |............    |
-------------------------------------------------------------------
[Server] packet : (0x72) F_CREATE_MONSTER  Size = 140 
|------------------------------------------------|----------------|
|00 01 02 03 04 05 06 07 08 09 0A 0B 0C 0D 0E 0F |0123456789ABCDEF|
|------------------------------------------------|----------------|
|00 89 72 36 F0 01 13 07 A9 24 C6 00 0D 2B 81 00 |..r6.....$...+..|
|0C B3 B4 00 00 05 37 34 02 58 00 00 00 00 00 00 |......74.X......|
|00 04 00 03 E8 00 00 00 01 4E 29 00 03 00 00 01 |.........N).....|
|19 00 44 77 61 72 66 65 6E 20 47 79 72 6F 63 6F |..Dwarfen Gyroco|
|70 74 65 72 5E 6D 00 00 B4 01 0A 00 00 00 00 00 |pter^m..........|
|00 00 1A 1D 00 36 F0 AB 81 33 B4 24 C6 64 01 64 |.....6...3.$.d.d|
|00 00 00 00 00 13 01 00 5E AB AE 32 C6 24 64 36 |........^..2.$d6|
|F0 00 06 00 14 08 13 00 15 07 D3 00 16 07 D2 00 |................|
|17 07 D5 00 18 07 D4 00 1C 07 D0 00             |............    |
-------------------------------------------------------------------
[Client] packet : (0x0B) F_PING  Size = 32 
|------------------------------------------------|----------------|
|00 01 02 03 04 05 06 07 08 09 0A 0B 0C 0D 0E 0F |0123456789ABCDEF|
|------------------------------------------------|----------------|
|00 14 6E EA 00 1E 00 00 00 0B 00 73 88 A2 41 B7 |..n........s..A.|
|FD B1 8F F8 E6 EE 00 00 00 00 00 00 00 00 FE 14 |................|                                                
-------------------------------------------------------------------
[Server] packet : (0xDA) F_USE_ABILITY  Size = 23 
|------------------------------------------------|----------------|
|00 01 02 03 04 05 06 07 08 09 0A 0B 0C 0D 0E 0F |0123456789ABCDEF|
|------------------------------------------------|----------------|
|00 14 DA 00 00 01 26 01 26 00 00 1C 55 02 00 00 |......&.&...U...|
|00 00 00 00 00 00 00                            |.......         |
-------------------------------------------------------------------
[Server] packet : (0x81) S_PONG  Size = 23 
|------------------------------------------------|----------------|
|00 01 02 03 04 05 06 07 08 09 0A 0B 0C 0D 0E 0F |0123456789ABCDEF|
|------------------------------------------------|----------------|
|00 14 81 00 73 88 A2 52 74 B9 71 00 00 00 00 00 |....s..Rt.q.....|
|00 6E EB 00 00 00 00                            |.......         |
-------------------------------------------------------------------
[Server] packet : (0xDA) F_USE_ABILITY  Size = 23 
|------------------------------------------------|----------------|
|00 01 02 03 04 05 06 07 08 09 0A 0B 0C 0D 0E 0F |0123456789ABCDEF|
|------------------------------------------------|----------------|
|00 14 DA 00 00 18 54 18 54 00 00 01 19 02 00 00 |......T.T.......|
|00 00 00 00 00 00 00                            |.......         |
-------------------------------------------------------------------
[Client] packet : (0x16) F_REQUEST_INIT_OBJECT  Size = 16 
|------------------------------------------------|----------------|
|00 01 02 03 04 05 06 07 08 09 0A 0B 0C 0D 0E 0F |0123456789ABCDEF|
|------------------------------------------------|----------------|
|00 04 6E EC 00 1E 00 00 00 16 22 64 00 00 B3 B7 |..n......."d....|                                                
-------------------------------------------------------------------
[Server] packet : (0x72) F_CREATE_MONSTER  Size = 106 
|------------------------------------------------|----------------|
|00 01 02 03 04 05 06 07 08 09 0A 0B 0C 0D 0E 0F |0123456789ABCDEF|
|------------------------------------------------|----------------|
|00 67 72 22 64 00 55 0D 7F 21 68 00 0C F2 D3 00 |.gr"d.U..!h.....|
|0C AB 93 00 06 05 58 28 02 A0 00 00 00 00 00 00 |......X(........|
|00 01 00 03 E8 00 00 00 00 37 FD 00 02 00 00 01 |.........7......|
|19 00 43 68 61 6F 73 20 46 75 72 79 5E 6D 00 00 |..Chaos Fury^m..|
|00 00 08 01 0A 00 00 00 1A 05 00 22 64 72 D3 2B |..........."dr.+|
|93 21 68 64 20 64 40 00 00 00 08 F8 A4 73 79 00 |.!hd d@......sy.|
|00 00 00 FB 01 22 64 00 00 00                   |..........      |
-------------------------------------------------------------------
[Server] packet : (0x1A) F_CAMPAIGN_STATUS  Size = 159 
|------------------------------------------------|----------------|
|00 01 02 03 04 05 06 07 08 09 0A 0B 0C 0D 0E 0F |0123456789ABCDEF|
|------------------------------------------------|----------------|
|00 9C 1A 00 09 00 69 00 D1 00 00 00 00 00 32 32 |......i.......22|
|00 32 32 00 32 32 00 64 00 00 32 32 00 32 32 00 |.22.22.d..22.22.|
|32 32 00 00 00 00 32 32 00 64 00 00 32 32 00 00 |22....22.d..22..|
|00 00 00 00 00 00 00 00 00 00 00 00 00 00 00 00 |................|
|00 00 00 00 F6 F4 00 64 64 00 00 64 00 00 64 64 |.......dd..d..dd|
|00 00 00 00 00 00 00 00 00 01 00 00 00 00 00 00 |................|
|00 00 00 00 00 00 00 00 00 00 00 00 00 00 00 00 |................|
|00 00 00 00 00 00 00 00 00 00 00 00 00 00 00 00 |................|
|00 03 00 02 02 03 03 01 00 02 03 03 00 02 02 03 |................|
|02 FE 64 00 0A 3C 00 00 00 03 84 00 00 01 00    |............... |
-------------------------------------------------------------------
[Server] packet : (0xDA) F_USE_ABILITY  Size = 23 
|------------------------------------------------|----------------|
|00 01 02 03 04 05 06 07 08 09 0A 0B 0C 0D 0E 0F |0123456789ABCDEF|
|------------------------------------------------|----------------|
|00 14 DA 00 00 01 24 01 24 00 00 1C 55 02 00 00 |......$.$...U...|
|00 00 00 00 00 00 00                            |.......         |
-------------------------------------------------------------------
[Client] packet : (0x86) F_MAIL  Size = 16 
|------------------------------------------------|----------------|
|00 01 02 03 04 05 06 07 08 09 0A 0B 0C 0D 0E 0F |0123456789ABCDEF|
|------------------------------------------------|----------------|
|00 04 6E EE 00 1E FF FF 00 86 00 00 00 00 00 00 |..n.............|                                                
-------------------------------------------------------------------
[Client] packet : (0x01) UNKNOWN  Size = 32 
|------------------------------------------------|----------------|
|00 01 02 03 04 05 06 07 08 09 0A 0B 0C 0D 0E 0F |0123456789ABCDEF|
|------------------------------------------------|----------------|
|00 14 6E F0 00 1E 00 00 00 01 00 73 87 1C 00 00 |..n........s....|
|00 00 00 00 00 00 00 00 40 4D 00 00 07 B0 00 00 |........@M......|                                                
-------------------------------------------------------------------
[Server] packet : (0xDA) F_USE_ABILITY  Size = 23 
|------------------------------------------------|----------------|
|00 01 02 03 04 05 06 07 08 09 0A 0B 0C 0D 0E 0F |0123456789ABCDEF|
|------------------------------------------------|----------------|
|00 14 DA 00 00 01 17 01 17 00 00 09 B9 02 00 00 |................|
|00 00 00 00 00 00 00                            |.......         |
-------------------------------------------------------------------
[Server] packet : (0xDA) F_USE_ABILITY  Size = 23 
|------------------------------------------------|----------------|
|00 01 02 03 04 05 06 07 08 09 0A 0B 0C 0D 0E 0F |0123456789ABCDEF|
|------------------------------------------------|----------------|
|00 14 DA 00 00 01 19 01 19 00 00 18 54 02 00 00 |............T...|
|00 00 00 00 00 00 00                            |.......         |
-------------------------------------------------------------------
[Server] packet : (0x00) UNKNOWN  Size = 23 
|------------------------------------------------|----------------|
|00 01 02 03 04 05 06 07 08 09 0A 0B 0C 0D 0E 0F |0123456789ABCDEF|
|------------------------------------------------|----------------|
|00 14 00 00 73 87 1C 79 73 DD F9 00 00 00 00 00 |....s..ys.......|
|00 40 4D 00 00 07 00                            |.......         |
-------------------------------------------------------------------
[Server] packet : (0xDA) F_USE_ABILITY  Size = 23 
|------------------------------------------------|----------------|
|00 01 02 03 04 05 06 07 08 09 0A 0B 0C 0D 0E 0F |0123456789ABCDEF|
|------------------------------------------------|----------------|
|00 14 DA 00 00 01 26 01 26 00 00 1C 55 02 00 00 |......&.&...U...|
|09 00 00 00 00 00 00                            |.......         |
-------------------------------------------------------------------
[Server] packet : (0xDA) F_USE_ABILITY  Size = 23 
|------------------------------------------------|----------------|
|00 01 02 03 04 05 06 07 08 09 0A 0B 0C 0D 0E 0F |0123456789ABCDEF|
|------------------------------------------------|----------------|
|00 14 DA 00 00 1C 55 1C 55 00 00 01 26 02 00 00 |......U.U...&...|
|09 00 00 00 00 00 00                            |.......         |
-------------------------------------------------------------------